PCBNEW-LibModule-V1  Вс 15 ноя 2015 18:01:49
# encoding utf-8
Units mm
$INDEX
TC26H-fixed
$EndINDEX
$MODULE TC26H-fixed
Po 0 0 0 15 56489E2B 00000000 ~~
Li TC26H-fixed
Cd CRYSTAL
Kw CRYSTAL
Sc 0
AR 
Op 0 0 0
At VIRTUAL
T0 -2.032 -5.207 1.27 1.27 900 0.0889 N V 20 N ">NAME"
T1 2.032 -5.842 1.27 1.27 900 0.0889 N V 20 N ">VALUE"
DS 0.3048 -1.016 0.7112 -1.016 0.06604 21
DS 0.7112 -1.016 0.7112 -1.6002 0.06604 21
DS 0.3048 -1.6002 0.7112 -1.6002 0.06604 21
DS 0.3048 -1.016 0.3048 -1.6002 0.06604 21
DS -0.7112 -1.016 -0.3048 -1.016 0.06604 21
DS -0.3048 -1.016 -0.3048 -1.6002 0.06604 21
DS -0.7112 -1.6002 -0.3048 -1.6002 0.06604 21
DS -0.7112 -1.016 -0.7112 -1.6002 0.06604 21
DS -0.889 -1.651 0.889 -1.651 0.1524 21
DS -0.762 -7.747 0.762 -7.747 0.1524 21
DS 0.889 -1.651 0.889 -2.032 0.1524 21
DS 1.016 -2.032 1.016 -7.493 0.1524 21
DS -0.889 -1.651 -0.889 -2.032 0.1524 21
DS -1.016 -2.032 -0.889 -2.032 0.1524 21
DS -1.016 -2.032 -1.016 -7.493 0.1524 21
DS -0.508 -4.953 -0.508 -4.572 0.1524 21
DS 0.508 -4.572 -0.508 -4.572 0.1524 21
DS 0.508 -4.572 0.508 -4.953 0.1524 21
DS -0.508 -4.953 0.508 -4.953 0.1524 21
DS -0.508 -5.334 0 -5.334 0.1524 21
DS -0.508 -4.191 0 -4.191 0.1524 21
DS 0 -4.191 0 -3.683 0.1524 21
DS 0 -4.191 0.508 -4.191 0.1524 21
DS 0 -5.334 0 -5.842 0.1524 21
DS 0 -5.334 0.508 -5.334 0.1524 21
DS 1.016 -2.032 0.889 -2.032 0.1524 21
DS 0.889 -2.032 -0.889 -2.032 0.1524 21
DA 0.762 -7.493 0.762 -7.747 900 0.1524 21
DA -0.762 -7.493 -1.016 -7.493 900 0.1524 21
$PAD
Sh "1" C 1.5 1.5 0 0 0
Dr 1 0 0
At STD N 00F0FFFF
Ne 0 ""
Po -1.27 0
$EndPAD
$PAD
Sh "2" C 1.5 1.5 0 0 0
Dr 1 0 0
At STD N 00A8FFFF
Ne 0 ""
Po 1.27 0
$EndPAD
$EndMODULE TC26H-fixed
$EndLIBRARY
