PCBNEW-LibModule-V1  Ср 04 ноя 2015 14:04:47
# encoding utf-8
Units mm
$INDEX
LQFP64-0.254mm-pins
$EndINDEX
$MODULE LQFP64-0.254mm-pins
Po 0 0 0 15 5639E649 00000000 ~~
Li LQFP64-0.254mm-pins
Cd QUAD FLAT PACK
Kw QUAD FLAT PACK
Sc 0
AR 
Op 0 0 0
At SMD
T0 0 -1.9 0.9 0.9 0 0.0889 N V 20 N ">NAME"
T1 0 2.4 0.9 1 0 0.0889 N V 20 N ">VALUE"
DS -4.79806 -3.64998 -4.79806 -3.8481 0.06604 21
DS -4.79806 -3.1496 -4.79806 -3.34772 0.06604 21
DS -4.79806 -2.64922 -4.79806 -2.84988 0.06604 21
DS -4.79806 -2.14884 -4.79806 -2.3495 0.06604 21
DS -4.79806 -1.64846 -4.79806 -1.84912 0.06604 21
DS -4.79806 -1.14808 -4.79806 -1.34874 0.06604 21
DS -4.79806 -0.6477 -4.79806 -0.84836 0.06604 21
DS -4.79806 -0.14986 -4.79806 -0.34798 0.06604 21
DS -4.79806 0.34798 -4.79806 0.14986 0.06604 21
DS -4.79806 0.84836 -4.79806 0.6477 0.06604 21
DS -4.79806 1.34874 -4.79806 1.14808 0.06604 21
DS -4.79806 1.84912 -4.79806 1.64846 0.06604 21
DS -4.79806 2.3495 -4.79806 2.14884 0.06604 21
DS -4.79806 2.84988 -4.79806 2.64922 0.06604 21
DS -4.79806 3.34772 -4.79806 3.1496 0.06604 21
DS -4.79806 3.8481 -4.79806 3.64998 0.06604 21
DS -3.8481 4.79806 -3.64998 4.79806 0.06604 21
DS -3.34772 4.79806 -3.1496 4.79806 0.06604 21
DS -2.84988 4.79806 -2.64922 4.79806 0.06604 21
DS -2.3495 4.79806 -2.14884 4.79806 0.06604 21
DS -1.84912 4.79806 -1.64846 4.79806 0.06604 21
DS -1.34874 4.79806 -1.14808 4.79806 0.06604 21
DS -0.84836 4.79806 -0.6477 4.79806 0.06604 21
DS -0.34798 4.79806 -0.14986 4.79806 0.06604 21
DS 0.14986 4.79806 0.34798 4.79806 0.06604 21
DS 0.6477 4.79806 0.84836 4.79806 0.06604 21
DS 1.14808 4.79806 1.34874 4.79806 0.06604 21
DS 1.64846 4.79806 1.84912 4.79806 0.06604 21
DS 2.14884 4.79806 2.3495 4.79806 0.06604 21
DS 2.64922 4.79806 2.84988 4.79806 0.06604 21
DS 3.1496 4.79806 3.34772 4.79806 0.06604 21
DS 3.64998 4.79806 3.8481 4.79806 0.06604 21
DS 4.79806 3.8481 4.79806 3.64998 0.06604 21
DS 4.79806 3.34772 4.79806 3.1496 0.06604 21
DS 4.79806 2.84988 4.79806 2.64922 0.06604 21
DS 4.79806 2.3495 4.79806 2.14884 0.06604 21
DS 4.79806 1.84912 4.79806 1.64846 0.06604 21
DS 4.79806 1.34874 4.79806 1.14808 0.06604 21
DS 4.79806 0.84836 4.79806 0.6477 0.06604 21
DS 4.79806 0.34798 4.79806 0.14986 0.06604 21
DS 4.79806 -0.14986 4.79806 -0.34798 0.06604 21
DS 4.79806 -0.6477 4.79806 -0.84836 0.06604 21
DS 4.79806 -1.14808 4.79806 -1.34874 0.06604 21
DS 4.79806 -1.64846 4.79806 -1.84912 0.06604 21
DS 4.79806 -2.14884 4.79806 -2.3495 0.06604 21
DS 4.79806 -2.64922 4.79806 -2.84988 0.06604 21
DS 4.79806 -3.1496 4.79806 -3.34772 0.06604 21
DS 4.79806 -3.64998 4.79806 -3.8481 0.06604 21
DS 3.64998 -4.79806 3.8481 -4.79806 0.06604 21
DS 3.1496 -4.79806 3.34772 -4.79806 0.06604 21
DS 2.64922 -4.79806 2.84988 -4.79806 0.06604 21
DS 2.14884 -4.79806 2.3495 -4.79806 0.06604 21
DS 1.64846 -4.79806 1.84912 -4.79806 0.06604 21
DS 1.14808 -4.79806 1.34874 -4.79806 0.06604 21
DS 0.6477 -4.79806 0.84836 -4.79806 0.06604 21
DS 0.14986 -4.79806 0.34798 -4.79806 0.06604 21
DS -0.34798 -4.79806 -0.14986 -4.79806 0.06604 21
DS -0.84836 -4.79806 -0.6477 -4.79806 0.06604 21
DS -1.34874 -4.79806 -1.14808 -4.79806 0.06604 21
DS -1.84912 -4.79806 -1.64846 -4.79806 0.06604 21
DS -2.3495 -4.79806 -2.14884 -4.79806 0.06604 21
DS -2.84988 -4.79806 -2.64922 -4.79806 0.06604 21
DS -3.34772 -4.79806 -3.1496 -4.79806 0.06604 21
DS -3.8481 -4.79806 -3.64998 -4.79806 0.06604 21
DS -4.79806 -4.39928 -4.39928 -4.79806 0.2032 21
DS -4.39928 -4.79806 4.39928 -4.79806 0.2032 21
DS 4.39928 -4.79806 4.79806 -4.39928 0.2032 21
DS 4.79806 -4.39928 4.79806 4.39928 0.2032 21
DS 4.79806 4.39928 4.39928 4.79806 0.2032 21
DS 4.39928 4.79806 -4.39928 4.79806 0.2032 21
DS -4.39928 4.79806 -4.79806 4.39928 0.2032 21
DS -4.79806 4.39928 -4.79806 -4.39928 0.2032 21
DC -3.99796 -3.99796 -4.13766 -4.13766 0.127 21
$PAD
Sh "1" R 1.19888 0.254 0 0 0
Dr 0 0 0
At SMD N 00888000
Ne 0 ""
Po -5.69976 -3.74904
$EndPAD
$PAD
Sh "2" R 1.19888 0.254 0 0 0
Dr 0 0 0
At SMD N 00888000
Ne 0 ""
Po -5.69976 -3.24866
$EndPAD
$PAD
Sh "3" R 1.19888 0.254 0 0 0
Dr 0 0 0
At SMD N 00888000
Ne 0 ""
Po -5.69976 -2.74828
$EndPAD
$PAD
Sh "4" R 1.19888 0.254 0 0 0
Dr 0 0 0
At SMD N 00888000
Ne 0 ""
Po -5.69976 -2.2479
$EndPAD
$PAD
Sh "5" R 1.19888 0.254 0 0 0
Dr 0 0 0
At SMD N 00888000
Ne 0 ""
Po -5.69976 -1.74752
$EndPAD
$PAD
Sh "6" R 1.19888 0.254 0 0 0
Dr 0 0 0
At SMD N 00888000
Ne 0 ""
Po -5.69976 -1.24968
$EndPAD
$PAD
Sh "7" R 1.19888 0.254 0 0 0
Dr 0 0 0
At SMD N 00888000
Ne 0 ""
Po -5.69976 -0.7493
$EndPAD
$PAD
Sh "8" R 1.19888 0.254 0 0 0
Dr 0 0 0
At SMD N 00888000
Ne 0 ""
Po -5.69976 -0.24892
$EndPAD
$PAD
Sh "9" R 1.19888 0.254 0 0 0
Dr 0 0 0
At SMD N 00888000
Ne 0 ""
Po -5.69976 0.24892
$EndPAD
$PAD
Sh "10" R 1.19888 0.254 0 0 0
Dr 0 0 0
At SMD N 00888000
Ne 0 ""
Po -5.69976 0.7493
$EndPAD
$PAD
Sh "11" R 1.19888 0.254 0 0 0
Dr 0 0 0
At SMD N 00888000
Ne 0 ""
Po -5.69976 1.24968
$EndPAD
$PAD
Sh "12" R 1.19888 0.254 0 0 0
Dr 0 0 0
At SMD N 00888000
Ne 0 ""
Po -5.69976 1.74752
$EndPAD
$PAD
Sh "13" R 1.19888 0.254 0 0 0
Dr 0 0 0
At SMD N 00888000
Ne 0 ""
Po -5.69976 2.2479
$EndPAD
$PAD
Sh "14" R 1.19888 0.254 0 0 0
Dr 0 0 0
At SMD N 00888000
Ne 0 ""
Po -5.69976 2.74828
$EndPAD
$PAD
Sh "15" R 1.19888 0.254 0 0 0
Dr 0 0 0
At SMD N 00888000
Ne 0 ""
Po -5.69976 3.24866
$EndPAD
$PAD
Sh "16" R 1.19888 0.254 0 0 0
Dr 0 0 0
At SMD N 00888000
Ne 0 ""
Po -5.69976 3.74904
$EndPAD
$PAD
Sh "17" R 0.254 1.19888 0 0 0
Dr 0 0 0
At SMD N 00888000
Ne 0 ""
Po -3.74904 5.69976
$EndPAD
$PAD
Sh "18" R 0.254 1.19888 0 0 0
Dr 0 0 0
At SMD N 00888000
Ne 0 ""
Po -3.24866 5.69976
$EndPAD
$PAD
Sh "19" R 0.254 1.19888 0 0 0
Dr 0 0 0
At SMD N 00888000
Ne 0 ""
Po -2.74828 5.69976
$EndPAD
$PAD
Sh "20" R 0.254 1.19888 0 0 0
Dr 0 0 0
At SMD N 00888000
Ne 0 ""
Po -2.2479 5.69976
$EndPAD
$PAD
Sh "21" R 0.254 1.19888 0 0 0
Dr 0 0 0
At SMD N 00888000
Ne 0 ""
Po -1.74752 5.69976
$EndPAD
$PAD
Sh "22" R 0.254 1.19888 0 0 0
Dr 0 0 0
At SMD N 00888000
Ne 0 ""
Po -1.24968 5.69976
$EndPAD
$PAD
Sh "23" R 0.254 1.19888 0 0 0
Dr 0 0 0
At SMD N 00888000
Ne 0 ""
Po -0.7493 5.69976
$EndPAD
$PAD
Sh "24" R 0.254 1.19888 0 0 0
Dr 0 0 0
At SMD N 00888000
Ne 0 ""
Po -0.24892 5.69976
$EndPAD
$PAD
Sh "25" R 0.254 1.19888 0 0 0
Dr 0 0 0
At SMD N 00888000
Ne 0 ""
Po 0.24892 5.69976
$EndPAD
$PAD
Sh "26" R 0.254 1.19888 0 0 0
Dr 0 0 0
At SMD N 00888000
Ne 0 ""
Po 0.7493 5.69976
$EndPAD
$PAD
Sh "27" R 0.254 1.19888 0 0 0
Dr 0 0 0
At SMD N 00888000
Ne 0 ""
Po 1.24968 5.69976
$EndPAD
$PAD
Sh "28" R 0.254 1.19888 0 0 0
Dr 0 0 0
At SMD N 00888000
Ne 0 ""
Po 1.74752 5.69976
$EndPAD
$PAD
Sh "29" R 0.254 1.19888 0 0 0
Dr 0 0 0
At SMD N 00888000
Ne 0 ""
Po 2.2479 5.69976
$EndPAD
$PAD
Sh "30" R 0.254 1.19888 0 0 0
Dr 0 0 0
At SMD N 00888000
Ne 0 ""
Po 2.74828 5.69976
$EndPAD
$PAD
Sh "31" R 0.254 1.19888 0 0 0
Dr 0 0 0
At SMD N 00888000
Ne 0 ""
Po 3.24866 5.69976
$EndPAD
$PAD
Sh "32" R 0.254 1.19888 0 0 0
Dr 0 0 0
At SMD N 00888000
Ne 0 ""
Po 3.74904 5.69976
$EndPAD
$PAD
Sh "33" R 1.19888 0.254 0 0 0
Dr 0 0 0
At SMD N 00888000
Ne 0 ""
Po 5.69976 3.74904
$EndPAD
$PAD
Sh "34" R 1.19888 0.254 0 0 0
Dr 0 0 0
At SMD N 00888000
Ne 0 ""
Po 5.69976 3.24866
$EndPAD
$PAD
Sh "35" R 1.19888 0.254 0 0 0
Dr 0 0 0
At SMD N 00888000
Ne 0 ""
Po 5.69976 2.74828
$EndPAD
$PAD
Sh "36" R 1.19888 0.254 0 0 0
Dr 0 0 0
At SMD N 00888000
Ne 0 ""
Po 5.69976 2.2479
$EndPAD
$PAD
Sh "37" R 1.19888 0.254 0 0 0
Dr 0 0 0
At SMD N 00888000
Ne 0 ""
Po 5.69976 1.74752
$EndPAD
$PAD
Sh "38" R 1.19888 0.254 0 0 0
Dr 0 0 0
At SMD N 00888000
Ne 0 ""
Po 5.69976 1.24968
$EndPAD
$PAD
Sh "39" R 1.19888 0.254 0 0 0
Dr 0 0 0
At SMD N 00888000
Ne 0 ""
Po 5.69976 0.7493
$EndPAD
$PAD
Sh "40" R 1.19888 0.254 0 0 0
Dr 0 0 0
At SMD N 00888000
Ne 0 ""
Po 5.69976 0.24892
$EndPAD
$PAD
Sh "41" R 1.19888 0.254 0 0 0
Dr 0 0 0
At SMD N 00888000
Ne 0 ""
Po 5.69976 -0.24892
$EndPAD
$PAD
Sh "42" R 1.19888 0.254 0 0 0
Dr 0 0 0
At SMD N 00888000
Ne 0 ""
Po 5.69976 -0.7493
$EndPAD
$PAD
Sh "43" R 1.19888 0.254 0 0 0
Dr 0 0 0
At SMD N 00888000
Ne 0 ""
Po 5.69976 -1.24968
$EndPAD
$PAD
Sh "44" R 1.19888 0.254 0 0 0
Dr 0 0 0
At SMD N 00888000
Ne 0 ""
Po 5.69976 -1.74752
$EndPAD
$PAD
Sh "45" R 1.19888 0.254 0 0 0
Dr 0 0 0
At SMD N 00888000
Ne 0 ""
Po 5.69976 -2.2479
$EndPAD
$PAD
Sh "46" R 1.19888 0.254 0 0 0
Dr 0 0 0
At SMD N 00888000
Ne 0 ""
Po 5.69976 -2.74828
$EndPAD
$PAD
Sh "47" R 1.19888 0.254 0 0 0
Dr 0 0 0
At SMD N 00888000
Ne 0 ""
Po 5.69976 -3.24866
$EndPAD
$PAD
Sh "48" R 1.19888 0.254 0 0 0
Dr 0 0 0
At SMD N 00888000
Ne 0 ""
Po 5.69976 -3.74904
$EndPAD
$PAD
Sh "49" R 0.254 1.19888 0 0 0
Dr 0 0 0
At SMD N 00888000
Ne 0 ""
Po 3.74904 -5.69976
$EndPAD
$PAD
Sh "50" R 0.254 1.19888 0 0 0
Dr 0 0 0
At SMD N 00888000
Ne 0 ""
Po 3.24866 -5.69976
$EndPAD
$PAD
Sh "51" R 0.254 1.19888 0 0 0
Dr 0 0 0
At SMD N 00888000
Ne 0 ""
Po 2.74828 -5.69976
$EndPAD
$PAD
Sh "52" R 0.254 1.19888 0 0 0
Dr 0 0 0
At SMD N 00888000
Ne 0 ""
Po 2.2479 -5.69976
$EndPAD
$PAD
Sh "53" R 0.254 1.19888 0 0 0
Dr 0 0 0
At SMD N 00888000
Ne 0 ""
Po 1.74752 -5.69976
$EndPAD
$PAD
Sh "54" R 0.254 1.19888 0 0 0
Dr 0 0 0
At SMD N 00888000
Ne 0 ""
Po 1.24968 -5.69976
$EndPAD
$PAD
Sh "55" R 0.254 1.19888 0 0 0
Dr 0 0 0
At SMD N 00888000
Ne 0 ""
Po 0.7493 -5.69976
$EndPAD
$PAD
Sh "56" R 0.254 1.19888 0 0 0
Dr 0 0 0
At SMD N 00888000
Ne 0 ""
Po 0.24892 -5.69976
$EndPAD
$PAD
Sh "57" R 0.254 1.19888 0 0 0
Dr 0 0 0
At SMD N 00888000
Ne 0 ""
Po -0.24892 -5.69976
$EndPAD
$PAD
Sh "58" R 0.254 1.19888 0 0 0
Dr 0 0 0
At SMD N 00888000
Ne 0 ""
Po -0.7493 -5.69976
$EndPAD
$PAD
Sh "59" R 0.254 1.19888 0 0 0
Dr 0 0 0
At SMD N 00888000
Ne 0 ""
Po -1.24968 -5.69976
$EndPAD
$PAD
Sh "60" R 0.254 1.19888 0 0 0
Dr 0 0 0
At SMD N 00888000
Ne 0 ""
Po -1.74752 -5.69976
$EndPAD
$PAD
Sh "61" R 0.254 1.19888 0 0 0
Dr 0 0 0
At SMD N 00888000
Ne 0 ""
Po -2.2479 -5.69976
$EndPAD
$PAD
Sh "62" R 0.254 1.19888 0 0 0
Dr 0 0 0
At SMD N 00888000
Ne 0 ""
Po -2.74828 -5.69976
$EndPAD
$PAD
Sh "63" R 0.254 1.19888 0 0 0
Dr 0 0 0
At SMD N 00888000
Ne 0 ""
Po -3.24866 -5.69976
$EndPAD
$PAD
Sh "64" R 0.254 1.19888 0 0 0
Dr 0 0 0
At SMD N 00888000
Ne 0 ""
Po -3.74904 -5.69976
$EndPAD
$EndMODULE LQFP64-0.254mm-pins
$EndLIBRARY
