PCBNEW-LibModule-V1  Вт 26 май 2015 21:03:15
# encoding utf-8
Units mm
$INDEX
MICROSD-CD
$EndINDEX
$MODULE MICROSD-CD
Po 0 0 0 15 5564B559 00000000 ~~
Li MICROSD-CD
Sc 0
AR /4B8F5CEF/4B76F5E2
Op 0 0 0
T0 3.0734 -1.6256 0.39878 0.39878 0 0.0508 N V 21 N "MICROSD-CD"
T1 0 0.29972 0.29972 0.29972 1800 0.0508 N I 21 N "MICROSD-CD"
DS -8.636 13.97 6.858 13.97 0.15 21
DS 5.842 -0.508 6.858 -0.508 0.15 21
DS -8.763 1.4224 -8.763 13.7668 0.1778 21
DS -8.763 13.7668 -8.636 13.8938 0.1778 21
DS 6.9596 13.8938 6.9596 -0.6096 0.1778 21
DS 5.9182 -0.6096 5.9182 -1.1938 0.1778 21
DS 5.9182 -1.1938 -7.366 -1.1938 0.1778 21
DS -7.366 -1.1938 -7.366 -0.6604 0.1778 21
DS -7.366 -0.6604 -8.7884 -0.6604 0.1778 21
DS -8.7884 -0.6604 -8.7884 1.4986 0.1778 21
DS -9.1694 14.2748 -9.1694 -1.5748 0.0254 24
DS -9.1694 -1.5748 8.8646 -1.5748 0.0254 24
DS 8.8646 -1.5748 8.8646 14.2748 0.0254 24
DS 8.8646 14.2748 -9.1694 14.2748 0.0254 24
$PAD
Sh "CD2" R 0.6604 1.5748 0 0 0
Dr 0 0 0
At SMD N 00888000
Ne 0 ""
Po 4.445 0
$EndPAD
$PAD
Sh "1" R 0.6604 1.5748 0 0 0
Dr 0 0 0
At SMD N 00888000
Ne 0 ""
Po 2.2352 0
$EndPAD
$PAD
Sh "2" R 0.6604 1.5748 0 0 0
Dr 0 0 0
At SMD N 00888000
Ne 0 ""
Po 1.143 0
$EndPAD
$PAD
Sh "3" R 0.6604 1.5748 0 0 0
Dr 0 0 0
At SMD N 00888000
Ne 0 ""
Po 0.0508 0
$EndPAD
$PAD
Sh "4" R 0.6604 1.5748 0 0 0
Dr 0 0 0
At SMD N 00888000
Ne 0 ""
Po -1.0668 0
$EndPAD
$PAD
Sh "5" R 0.6604 1.5748 0 0 0
Dr 0 0 0
At SMD N 00888000
Ne 0 ""
Po -2.159 0
$EndPAD
$PAD
Sh "6" R 0.6604 1.5748 0 0 0
Dr 0 0 0
At SMD N 00888000
Ne 0 ""
Po -3.2512 0
$EndPAD
$PAD
Sh "7" R 0.6604 1.5748 0 0 0
Dr 0 0 0
At SMD N 00888000
Ne 0 ""
Po -4.3688 0
$EndPAD
$PAD
Sh "8" R 0.6604 1.5748 0 0 0
Dr 0 0 0
At SMD N 00888000
Ne 0 ""
Po -5.461 0
$EndPAD
$PAD
Sh "CD1" R 0.6604 1.5748 0 0 0
Dr 0 0 0
At SMD N 00888000
Ne 0 ""
Po 3.31724 0
$EndPAD
$PAD
Sh "CASE" R 1.1684 2.1844 0 0 0
Dr 0 0 0
At SMD N 00888000
Ne 1 "/LCD/GND"
Po 5.842 7.874
$EndPAD
$PAD
Sh "CASE" R 1.1684 2.1844 0 0 0
Dr 0 0 0
At SMD N 00888000
Ne 1 "/LCD/GND"
Po -7.62 7.874
$EndPAD
$EndMODULE MICROSD-CD
$EndLIBRARY
