PCBNEW-LibModule-V1  Сб 14 ноя 2015 21:40:08
# encoding utf-8
Units mm
$INDEX
MICROSD-CD-112IJ
$EndINDEX
$MODULE MICROSD-CD-112IJ
Po 0 0 0 15 56477671 00000000 ~~
Li MICROSD-CD-112IJ
Sc 0
AR /4B8F5CEF/4B76F5E2
Op 0 0 0
T0 -0.4 2.55 0.39878 0.39878 0 0.0508 N V 21 N "MICROSD-112IJ"
T1 0 3.5 0.29972 0.29972 1800 0.0508 N I 21 N "MICROSD-CD"
T2 5.15 15.85 0.8 0.8 0 0.15 N V 21 N "112J"
T2 3.5 14.6 0.8 0.8 0 0.15 N V 21 N "112I"
DS -7.1 9.55 -7.1 9.2 0.15 21
DS -7.1 16.35 -7.1 12.25 0.15 21
DS -7.1 2.45 -7.1 6.55 0.15 21
DS -7.1 -0.75 -7.1 -0.25 0.15 21
DS 6.8 -1.15 6.8 16.4 0.15 21
DS -7.1 16.35 -7.1 16.4 0.15 21
DS -7.1 16.4 6.75 16.4 0.15 21
DS 2.75 -1.15 6.8 -1.15 0.15 21
DS 5.05 15.15 -6.8 15.15 0.15 21
DS -6.8 15.15 -6.8 6.95 0.15 21
DS 5.05 1.15 5.05 15.15 0.15 21
DS -6.8 6.95 -6.8 1.15 0.15 21
DS -6.8 1.15 -6 1.15 0.15 21
DS -6 0.65 -6 1.15 0.15 21
DS -6 1.15 5.05 1.15 0.15 21
DS 5.05 1.15 5.05 0.65 0.15 21
DS 2.75 -0.75 2.75 -1.15 0.15 21
DS 2.75 -1.15 -7.1 -1.15 0.15 21
DS -7.1 -1.15 -7.1 -0.75 0.15 21
$PAD
Sh "CD2" R 0.6604 1.5748 0 0 0
Dr 0 0 0
At SMD N 00888000
Ne 0 ""
Po 4.445 0
$EndPAD
$PAD
Sh "1" R 0.6604 1.5748 0 0 0
Dr 0 0 0
At SMD N 00888000
Ne 0 ""
Po 2.2352 0
$EndPAD
$PAD
Sh "2" R 0.6604 1.5748 0 0 0
Dr 0 0 0
At SMD N 00888000
Ne 0 ""
Po 1.143 0
$EndPAD
$PAD
Sh "3" R 0.6604 1.5748 0 0 0
Dr 0 0 0
At SMD N 00888000
Ne 0 ""
Po 0.0508 0
$EndPAD
$PAD
Sh "4" R 0.6604 1.5748 0 0 0
Dr 0 0 0
At SMD N 00888000
Ne 0 ""
Po -1.0668 0
$EndPAD
$PAD
Sh "5" R 0.6604 1.5748 0 0 0
Dr 0 0 0
At SMD N 00888000
Ne 0 ""
Po -2.159 0
$EndPAD
$PAD
Sh "6" R 0.6604 1.5748 0 0 0
Dr 0 0 0
At SMD N 00888000
Ne 0 ""
Po -3.2512 0
$EndPAD
$PAD
Sh "7" R 0.6604 1.5748 0 0 0
Dr 0 0 0
At SMD N 00888000
Ne 0 ""
Po -4.3688 0
$EndPAD
$PAD
Sh "8" R 0.6604 1.5748 0 0 0
Dr 0 0 0
At SMD N 00888000
Ne 0 ""
Po -5.461 0
$EndPAD
$PAD
Sh "CD1" R 0.6604 1.5748 0 0 0
Dr 0 0 0
At SMD N 00888000
Ne 0 ""
Po 3.31724 0
$EndPAD
$PAD
Sh "CASE" R 1.1684 2.1844 0 0 0
Dr 0 0 0
At SMD N 00888000
Ne 1 "/LCD/GND"
Po 5.842 7.874
$EndPAD
$PAD
Sh "CASE" R 1.1684 2.1844 0 0 0
Dr 0 0 0
At SMD N 00888000
Ne 1 "/LCD/GND"
Po -7.62 7.874
$EndPAD
$PAD
Sh "CD3" R 0.6604 1.5748 0 0 0
Dr 0 0 0
At SMD N 00888000
Ne 0 ""
Po -6.5532 0
$EndPAD
$PAD
Sh "CASE" R 1.1684 2.1844 0 0 0
Dr 0 0 0
At SMD N 00888000
Ne 1 "/LCD/GND"
Po -7.8 10.9
$EndPAD
$PAD
Sh "CASE" R 1.1684 2.1844 0 0 0
Dr 0 0 0
At SMD N 00888000
Ne 1 "/LCD/GND"
Po 7.55 10.9
$EndPAD
$PAD
Sh "CASE" R 1.1684 2.1844 0 0 0
Dr 0 0 0
At SMD N 00888000
Ne 0 ""
Po -7.8 1.1
$EndPAD
$PAD
Sh "CASE" R 1.1684 2.1844 0 0 0
Dr 0 0 0
At SMD N 00888000
Ne 0 ""
Po 7.55 1.1
$EndPAD
$EndMODULE MICROSD-CD-112IJ
$EndLIBRARY
