PCBNEW-LibModule-V1  Сб 28 фев 2015 12:10:41
# encoding utf-8
Units mm
$INDEX
PIN_ARRAY_LARGE_PADS_2.54mm_5
PIN_ARRAY_LARGE_PADS_2.54mm_4
PIN_ARRAY_LARGE_PADS_2.54mm_3
PIN_ARRAY_LARGE_PADS_2.54mm_2
$EndINDEX
$MODULE PIN_ARRAY_LARGE_PADS_2.54mm_5
Po 0 0 0 15 54F185FA 00000000 ~~
Li PIN_ARRAY_LARGE_PADS_2.54mm_5
Cd Double rangee de contacts 2 x 5 pins
Kw CONN
Sc 0
AR 
Op 0 0 0
T0 0 -2.54 1.016 1.016 0 0.2032 N V 21 N "PIN_ARRAY_LARGE_PADS_2.54mm_5"
T1 0 2.54 1.016 1.016 0 0.2032 N I 21 N "Val**"
DS -6.35 -1.27 -6.35 1.27 0.3048 21
DS 6.35 1.27 6.35 -1.27 0.3048 21
DS -6.35 -1.27 6.35 -1.27 0.3048 21
DS 6.35 1.27 -6.35 1.27 0.3048 21
$PAD
Sh "1" R 2 2.5 0 0 0
Dr 1.016 0 0
At STD N 00E0FFFF
Ne 0 ""
Po -5.08 0
$EndPAD
$PAD
Sh "2" O 2 2.5 0 0 0
Dr 1.016 0 0
At STD N 00E0FFFF
Ne 0 ""
Po -2.54 0
$EndPAD
$PAD
Sh "3" O 2 2.5 0 0 0
Dr 1.016 0 0
At STD N 00E0FFFF
Ne 0 ""
Po 0 0
$EndPAD
$PAD
Sh "4" O 2 2.5 0 0 0
Dr 1.016 0 0
At STD N 00E0FFFF
Ne 0 ""
Po 2.54 0
$EndPAD
$PAD
Sh "5" O 2 2.5 0 0 0
Dr 1.016 0 0
At STD N 00E0FFFF
Ne 0 ""
Po 5.08 0
$EndPAD
$EndMODULE PIN_ARRAY_LARGE_PADS_2.54mm_5
$MODULE PIN_ARRAY_LARGE_PADS_2.54mm_4
Po 0 0 0 15 54F18636 00000000 ~~
Li PIN_ARRAY_LARGE_PADS_2.54mm_4
Cd Double rangee de contacts 2 x 5 pins
Kw CONN
Sc 0
AR 
Op 0 0 0
T0 0 -2.54 1.016 1.016 0 0.2032 N V 21 N "PIN_ARRAY_LARGE_PADS_2.54mm_4"
T1 0 2.54 1.016 1.016 0 0.2032 N I 21 N "Val**"
DS 5.08 1.27 -5.08 1.27 0.254 21
DS 5.08 -1.27 -5.08 -1.27 0.254 21
DS -5.08 -1.27 -5.08 1.27 0.254 21
DS 5.08 1.27 5.08 -1.27 0.254 21
$PAD
Sh "1" R 2 2.5 0 0 0
Dr 1.016 0 0
At STD N 00E0FFFF
Ne 0 ""
Po -3.81 0
$EndPAD
$PAD
Sh "2" O 2 2.5 0 0 0
Dr 1.016 0 0
At STD N 00E0FFFF
Ne 0 ""
Po -1.27 0
$EndPAD
$PAD
Sh "3" O 2 2.5 0 0 0
Dr 1.016 0 0
At STD N 00E0FFFF
Ne 0 ""
Po 1.27 0
$EndPAD
$PAD
Sh "4" O 2 2.5 0 0 0
Dr 1.016 0 0
At STD N 00E0FFFF
Ne 0 ""
Po 3.81 0
$EndPAD
$EndMODULE PIN_ARRAY_LARGE_PADS_2.54mm_4
$MODULE PIN_ARRAY_LARGE_PADS_2.54mm_3X1
Po 0 0 0 15 54F1868D 00000000 ~~
Li PIN_ARRAY_LARGE_PADS_2.54mm_3X1
Cd Connecteur 3 pins
Kw CONN DEV
Sc 0
AR 
Op 0 0 0
T0 0.254 -2.159 1.016 1.016 0 0.1524 N V 21 N "PIN_ARRAY_LARGE_PADS_2.54mm_3"
T1 0 -2.159 1.016 1.016 0 0.1524 N I 21 N "Val**"
DS -3.81 1.27 -3.81 -1.27 0.1524 21
DS -3.81 -1.27 3.81 -1.27 0.1524 21
DS 3.81 -1.27 3.81 1.27 0.1524 21
DS 3.81 1.27 -3.81 1.27 0.1524 21
DS -1.27 -1.27 -1.27 1.27 0.1524 21
$PAD
Sh "1" R 2 2.5 0 0 0
Dr 1.016 0 0
At STD N 00E0FFFF
Ne 0 ""
Po -2.54 0
$EndPAD
$PAD
Sh "2" O 2 2.5 0 0 0
Dr 1.016 0 0
At STD N 00E0FFFF
Ne 0 ""
Po 0 0
$EndPAD
$PAD
Sh "3" O 2 2.5 0 0 0
Dr 1.016 0 0
At STD N 00E0FFFF
Ne 0 ""
Po 2.54 0
$EndPAD
$EndMODULE PIN_ARRAY_LARGE_PADS_2.54mm_3X1
$MODULE PIN_ARRAY_LARGE_PADS_2.54mm_2X1
Po 0 0 0 15 54F186BD 00000000 ~~
Li PIN_ARRAY_LARGE_PADS_2.54mm_2X1
Cd Connecteurs 2 pins
Kw CONN DEV
Sc 0
AR 
Op 0 0 0
T0 0 -1.905 0.762 0.762 0 0.1524 N V 21 N "PIN_ARRAY_LARGE_PADS_2.54mm_2"
T1 0 -1.905 0.762 0.762 0 0.1524 N I 21 N "Val**"
DS -2.54 1.27 -2.54 -1.27 0.1524 21
DS -2.54 -1.27 2.54 -1.27 0.1524 21
DS 2.54 -1.27 2.54 1.27 0.1524 21
DS 2.54 1.27 -2.54 1.27 0.1524 21
$PAD
Sh "1" R 2 2.5 0 0 0
Dr 1.016 0 0
At STD N 00E0FFFF
Ne 0 ""
Po -1.27 0
$EndPAD
$PAD
Sh "2" O 2 2.5 0 0 0
Dr 1.016 0 0
At STD N 00E0FFFF
Ne 0 ""
Po 1.27 0
$EndPAD
$EndMODULE PIN_ARRAY_LARGE_PADS_2.54mm_2X1
$EndLIBRARY
