PCBNEW-LibModule-V1  Вс 15 фев 2015 19:10:09
# encoding utf-8
Units mm
$INDEX
PIN_ARRAY-9X1-2mm-horiz
PIN_ARRAY-8X1-2mm-horiz
PIN_ARRAY-7X1-2mm-horiz
PIN_ARRAY-6X1-2mm-horiz
PIN_ARRAY-5X1-2mm-horiz
PIN_ARRAY-4X1-2mm-horiz
PIN_ARRAY-3X1-2mm-horiz
PIN_ARRAY-2X1-2mm-horiz
$EndINDEX
$MODULE PIN_ARRAY-9X1-2mm-horiz
Po 0 0 0 15 54E0C48F 00000000 ~~
Li PIN_ARRAY-9X1-2mm-horiz
Cd Connecteur 9 pins
Kw CONN DEV
Sc 0
AR 
Op 0 0 0
T0 0 -4.5 1.016 1.016 0 0.2032 N V 21 N "PIN_ARRAY-9X1-2mm-horiz"
T1 0 -2.5 1.016 0.889 0 0.2032 N I 21 N "Val**"
DS -10 2 -10 -6 0.15 21
DS -10 -6 10 -6 0.15 21
DS 10 -6 10 2 0.15 21
DS 10 2 -10 2 0.15 21
$PAD
Sh "1" R 1.524 1.524 0 0 0
Dr 1.000 0 0
At STD N 00E0FFFF
Ne 0 ""
Po -8 0
$EndPAD
$PAD
Sh "2" C 1.524 1.524 0 0 0
Dr 1.000 0 0
At STD N 00E0FFFF
Ne 0 ""
Po -6 0
$EndPAD
$PAD
Sh "3" C 1.524 1.524 0 0 0
Dr 1.000 0 0
At STD N 00E0FFFF
Ne 0 ""
Po -4 0
$EndPAD
$PAD
Sh "4" C 1.524 1.524 0 0 0
Dr 1.000 0 0
At STD N 00E0FFFF
Ne 0 ""
Po -2 0
$EndPAD
$PAD
Sh "5" C 1.524 1.524 0 0 0
Dr 1.000 0 0
At STD N 00E0FFFF
Ne 0 ""
Po 0 0
$EndPAD
$PAD
Sh "6" C 1.524 1.524 0 0 0
Dr 1.000 0 0
At STD N 00E0FFFF
Ne 0 ""
Po 2 0
$EndPAD
$PAD
Sh "7" C 1.524 1.524 0 0 0
Dr 1.000 0 0
At STD N 00E0FFFF
Ne 0 ""
Po 4 0
$EndPAD
$PAD
Sh "8" C 1.524 1.524 0 0 0
Dr 1.000 0 0
At STD N 00E0FFFF
Ne 0 ""
Po 6 0
$EndPAD
$PAD
Sh "9" C 1.524 1.524 0 0 0
Dr 1.000 0 0
At STD N 00E0FFFF
Ne 0 ""
Po 8 0
$EndPAD
$EndMODULE PIN_ARRAY-9X1-2mm-horiz
$MODULE PIN_ARRAY-8X1-2mm-horiz
Po 0 0 0 15 54E6374E 00000000 ~~
Li PIN_ARRAY-8X1-2mm-horiz
Cd Connector 8 pins
Kw CONN DEV
Sc 0
AR 
Op 0 0 0
T0 0 -4.5 1.016 1.016 0 0.2032 N V 21 N "PIN_ARRAY-8X1-2mm-horiz"
T1 0 -2.5 1.016 0.889 0 0.2032 N I 21 N "Val**"
DS -9 -6 9 -6 0.15 21
DS 9 -6 9 2 0.15 21
DS 9 2 -9 2 0.15 21
DS -9 2 -9 -6 0.15 21
$PAD
Sh "1" R 1.524 1.524 0 0 0
Dr 1 0 0
At STD N 00E0FFFF
Ne 0 ""
Po -7 0
$EndPAD
$PAD
Sh "2" C 1.524 1.524 0 0 0
Dr 1 0 0
At STD N 00E0FFFF
Ne 0 ""
Po -5 0
$EndPAD
$PAD
Sh "3" C 1.524 1.524 0 0 0
Dr 1 0 0
At STD N 00E0FFFF
Ne 0 ""
Po -3 0
$EndPAD
$PAD
Sh "4" C 1.524 1.524 0 0 0
Dr 1 0 0
At STD N 00E0FFFF
Ne 0 ""
Po -1 0
$EndPAD
$PAD
Sh "5" C 1.524 1.524 0 0 0
Dr 1 0 0
At STD N 00E0FFFF
Ne 0 ""
Po 1 0
$EndPAD
$PAD
Sh "6" C 1.524 1.524 0 0 0
Dr 1 0 0
At STD N 00E0FFFF
Ne 0 ""
Po 3 0
$EndPAD
$PAD
Sh "7" C 1.524 1.524 0 0 0
Dr 1 0 0
At STD N 00E0FFFF
Ne 0 ""
Po 5 0
$EndPAD
$PAD
Sh "8" C 1.524 1.524 0 0 0
Dr 1 0 0
At STD N 00E0FFFF
Ne 0 ""
Po 7 0
$EndPAD
$EndMODULE PIN_ARRAY-8X1-2mm-horiz
$MODULE PIN_ARRAY-7X1-2mm-horiz
Po 0 0 0 15 54E63935 00000000 ~~
Li PIN_ARRAY-7X1-2mm-horiz
Cd Connector 7 pins
Kw CONN DEV
Sc 0
AR 
Op 0 0 0
T0 0 -4.5 1.016 1.016 0 0.2032 N V 21 N "PIN_ARRAY-7X1-2mm-horiz"
T1 0 -2.5 1.016 0.889 0 0.2032 N I 21 N "Val**"
DS -8 -6 8 -6 0.15 21
DS 8 -6 8 2 0.15 21
DS 8 2 -8 2 0.15 21
DS -8 2 -8 -6 0.15 21
$PAD
Sh "1" R 1.524 1.524 0 0 0
Dr 1 0 0
At STD N 00E0FFFF
Ne 0 ""
Po -6 0
$EndPAD
$PAD
Sh "2" C 1.524 1.524 0 0 0
Dr 1 0 0
At STD N 00E0FFFF
Ne 0 ""
Po -4 0
$EndPAD
$PAD
Sh "3" C 1.524 1.524 0 0 0
Dr 1 0 0
At STD N 00E0FFFF
Ne 0 ""
Po -2 0
$EndPAD
$PAD
Sh "4" C 1.524 1.524 0 0 0
Dr 1 0 0
At STD N 00E0FFFF
Ne 0 ""
Po 0 0
$EndPAD
$PAD
Sh "5" C 1.524 1.524 0 0 0
Dr 1 0 0
At STD N 00E0FFFF
Ne 0 ""
Po 2 0
$EndPAD
$PAD
Sh "6" C 1.524 1.524 0 0 0
Dr 1 0 0
At STD N 00E0FFFF
Ne 0 ""
Po 4 0
$EndPAD
$PAD
Sh "7" C 1.524 1.524 0 0 0
Dr 1 0 0
At STD N 00E0FFFF
Ne 0 ""
Po 6 0
$EndPAD
$EndMODULE PIN_ARRAY-7X1-2mm-horiz
$MODULE PIN_ARRAY-6X1-2mm-horiz
Po 0 0 0 15 54E639E5 00000000 ~~
Li PIN_ARRAY-6X1-2mm-horiz
Cd Connector 7 pins
Kw CONN DEV
Sc 0
AR 
Op 0 0 0
T0 0 -4.5 1.016 1.016 0 0.2032 N V 21 N "PIN_ARRAY-6X1-2mm-horiz"
T1 0 -2.5 1.016 0.889 0 0.2032 N I 21 N "Val**"
DS -7 -6 7 -6 0.15 21
DS 7 -6 7 2 0.15 21
DS 7 2 -7 2 0.15 21
DS -7 2 -7 -6 0.15 21
$PAD
Sh "1" R 1.524 1.524 0 0 0
Dr 1 0 0
At STD N 00E0FFFF
Ne 0 ""
Po -5 0
$EndPAD
$PAD
Sh "2" C 1.524 1.524 0 0 0
Dr 1 0 0
At STD N 00E0FFFF
Ne 0 ""
Po -3 0
$EndPAD
$PAD
Sh "3" C 1.524 1.524 0 0 0
Dr 1 0 0
At STD N 00E0FFFF
Ne 0 ""
Po -1 0
$EndPAD
$PAD
Sh "4" C 1.524 1.524 0 0 0
Dr 1 0 0
At STD N 00E0FFFF
Ne 0 ""
Po 1 0
$EndPAD
$PAD
Sh "5" C 1.524 1.524 0 0 0
Dr 1 0 0
At STD N 00E0FFFF
Ne 0 ""
Po 3 0
$EndPAD
$PAD
Sh "6" C 1.524 1.524 0 0 0
Dr 1 0 0
At STD N 00E0FFFF
Ne 0 ""
Po 5 0
$EndPAD
$EndMODULE PIN_ARRAY-6X1-2mm-horiz
$MODULE PIN_ARRAY-5X1-2mm-horiz
Po 0 0 0 15 54E63A2C 00000000 ~~
Li PIN_ARRAY-5X1-2mm-horiz
Cd Connector 7 pins
Kw CONN DEV
Sc 0
AR 
Op 0 0 0
T0 0 -4.5 1.016 1.016 0 0.2032 N V 21 N "PIN_ARRAY-5X1-2mm-horiz"
T1 0 -2.5 1.016 0.889 0 0.2032 N I 21 N "Val**"
DS -6 2 6 2 0.15 21
DS 6 2 6 -6 0.15 21
DS 6 -6 -6 -6 0.15 21
DS -6 2 -6 -6 0.15 21
$PAD
Sh "1" R 1.524 1.524 0 0 0
Dr 1 0 0
At STD N 00E0FFFF
Ne 0 ""
Po -4 0
$EndPAD
$PAD
Sh "2" C 1.524 1.524 0 0 0
Dr 1 0 0
At STD N 00E0FFFF
Ne 0 ""
Po -2 0
$EndPAD
$PAD
Sh "3" C 1.524 1.524 0 0 0
Dr 1 0 0
At STD N 00E0FFFF
Ne 0 ""
Po 0 0
$EndPAD
$PAD
Sh "4" C 1.524 1.524 0 0 0
Dr 1 0 0
At STD N 00E0FFFF
Ne 0 ""
Po 2 0
$EndPAD
$PAD
Sh "5" C 1.524 1.524 0 0 0
Dr 1 0 0
At STD N 00E0FFFF
Ne 0 ""
Po 4 0
$EndPAD
$EndMODULE PIN_ARRAY-5X1-2mm-horiz
$MODULE PIN_ARRAY-4X1-2mm-horiz
Po 0 0 0 15 54E63A57 00000000 ~~
Li PIN_ARRAY-4X1-2mm-horiz
Cd Connector 7 pins
Kw CONN DEV
Sc 0
AR 
Op 0 0 0
T0 0 -4.5 1.016 1.016 0 0.2032 N V 21 N "PIN_ARRAY-4X1-2mm-horiz"
T1 0 -2.5 1.016 0.889 0 0.2032 N I 21 N "Val**"
DS -5 2 5 2 0.15 21
DS 5 2 5 -6 0.15 21
DS 5 -6 -5 -6 0.15 21
DS -5 2 -5 -6 0.15 21
$PAD
Sh "1" R 1.524 1.524 0 0 0
Dr 1 0 0
At STD N 00E0FFFF
Ne 0 ""
Po -3 0
$EndPAD
$PAD
Sh "2" C 1.524 1.524 0 0 0
Dr 1 0 0
At STD N 00E0FFFF
Ne 0 ""
Po -1 0
$EndPAD
$PAD
Sh "3" C 1.524 1.524 0 0 0
Dr 1 0 0
At STD N 00E0FFFF
Ne 0 ""
Po 1 0
$EndPAD
$PAD
Sh "4" C 1.524 1.524 0 0 0
Dr 1 0 0
At STD N 00E0FFFF
Ne 0 ""
Po 3 0
$EndPAD
$EndMODULE PIN_ARRAY-4X1-2mm-horiz
$MODULE PIN_ARRAY-3X1-2mm-horiz
Po 0 0 0 15 54E63A7D 00000000 ~~
Li PIN_ARRAY-3X1-2mm-horiz
Cd Connector 7 pins
Kw CONN DEV
Sc 0
AR 
Op 0 0 0
T0 0 -4.5 1.016 1.016 0 0.2032 N V 21 N "PIN_ARRAY-3X1-2mm-horiz"
T1 0 -2.5 1.016 0.889 0 0.2032 N I 21 N "Val**"
DS -4 -6 4 -6 0.15 21
DS 4 -6 4 2 0.15 21
DS 4 2 -4 2 0.15 21
DS -4 2 -4 -6 0.15 21
$PAD
Sh "1" R 1.524 1.524 0 0 0
Dr 1 0 0
At STD N 00E0FFFF
Ne 0 ""
Po -2 0
$EndPAD
$PAD
Sh "2" C 1.524 1.524 0 0 0
Dr 1 0 0
At STD N 00E0FFFF
Ne 0 ""
Po 0 0
$EndPAD
$PAD
Sh "3" C 1.524 1.524 0 0 0
Dr 1 0 0
At STD N 00E0FFFF
Ne 0 ""
Po 2 0
$EndPAD
$EndMODULE PIN_ARRAY-3X1-2mm-horiz
$EndLIBRARY
