PCBNEW-LibModule-V1  Пт 27 фев 2015 21:53:31
# encoding utf-8
Units mm
$INDEX
PIN_ARRAY_LARGE_PADS_3.5mm_6
PIN_ARRAY_LARGE_PADS_3.5mm_5
PIN_ARRAY_LARGE_PADS_3.5mm_4
PIN_ARRAY_LARGE_PADS_3.5mm_3
PIN_ARRAY_LARGE_PADS_3.5mm_2
PIN_ARRAY_LARGE_PADS_3.5mm_1
$EndINDEX
$MODULE PIN_ARRAY_LARGE_PADS_3.5mm_6
Po 0 0 0 15 54F0BB68 00000000 ~~
Li PIN_ARRAY_LARGE_PADS_3.5mm_6
Cd Pin array 6x1 large pads
Kw CONN DEV LARGE_PADS
Sc 0
AR 
Op 0 0 0
T0 0 -2.286 1.016 1.016 0 0.1524 N V 21 N "PIN_ARRAY_LARGE_PADS_2.54mm_6"
T1 0 2.286 1.016 1.016 0 0.1524 N I 21 N "Val**"
DS -10.8585 -3.556 10.7315 -3.556 0.15 21
DS 10.7315 -3.556 10.7315 3.556 0.15 21
DS 10.7315 3.556 -10.8585 3.556 0.15 21
DS -10.8585 -3.556 -10.8585 3.556 0.15 21
$PAD
Sh "1" R 2.4 2.8 0 0 0
Dr 1 0 0
At STD N 00E0FFFF
Ne 0 ""
Po -8.75 0
$EndPAD
$PAD
Sh "2" O 2.4 2.8 0 0 0
Dr 1 0 0
At STD N 00E0FFFF
Ne 0 ""
Po -5.25 0
$EndPAD
$PAD
Sh "3" O 2.4 2.8 0 0 0
Dr 1 0 0
At STD N 00E0FFFF
Ne 0 ""
Po -1.75 0
$EndPAD
$PAD
Sh "4" O 2.4 2.6 0 0 0
Dr 1 0 0
At STD N 00E0FFFF
Ne 0 ""
Po 1.75 0
$EndPAD
$PAD
Sh "5" O 2.4 2.8 0 0 0
Dr 1 0 0
At STD N 00E0FFFF
Ne 0 ""
Po 5.25 0
$EndPAD
$PAD
Sh "6" O 2.4 2.8 0 0 0
Dr 1 0 0
At STD N 00E0FFFF
Ne 0 ""
Po 8.7295 0
$EndPAD
$EndMODULE PIN_ARRAY_LARGE_PADS_3.5mm_6
$MODULE PIN_ARRAY_LARGE_PADS_3.5mm_5
Po 0 0 0 15 54F0BDC8 00000000 ~~
Li PIN_ARRAY_LARGE_PADS_3.5mm_5
Cd Pin array 5x1 large pads
Kw CONN DEV LARGE_PADS
Sc 0
AR 
Op 0 0 0
T0 0 -2.286 1.016 1.016 0 0.1524 N V 21 N "PIN_ARRAY_LARGE_PADS_2.54mm_5"
T1 0 2.286 1.016 1.016 0 0.1524 N I 21 N "Val**"
DS -9.2 3.6 -9.2 -3.6 0.15 21
DS -9.2 -3.6 9.2 -3.6 0.15 21
DS 9.2 -3.6 9.2 3.6 0.15 21
DS 9.2 3.6 -9.2 3.6 0.15 21
$PAD
Sh "1" R 2.4 2.8 0 0 0
Dr 1 0 0
At STD N 00E0FFFF
Ne 0 ""
Po -7 0
$EndPAD
$PAD
Sh "2" O 2.4 2.8 0 0 0
Dr 1 0 0
At STD N 00E0FFFF
Ne 0 ""
Po -3.5 0
$EndPAD
$PAD
Sh "3" O 2.4 2.8 0 0 0
Dr 1 0 0
At STD N 00E0FFFF
Ne 0 ""
Po 0 0
$EndPAD
$PAD
Sh "4" O 2.4 2.6 0 0 0
Dr 1 0 0
At STD N 00E0FFFF
Ne 0 ""
Po 3.5 0
$EndPAD
$PAD
Sh "5" O 2.4 2.8 0 0 0
Dr 1 0 0
At STD N 00E0FFFF
Ne 0 ""
Po 7 0
$EndPAD
$EndMODULE PIN_ARRAY_LARGE_PADS_3.5mm_5
$MODULE PIN_ARRAY_LARGE_PADS_3.5mm_4
Po 0 0 0 15 54F0BE87 00000000 ~~
Li PIN_ARRAY_LARGE_PADS_3.5mm_4
Cd Pin array 4x1 large pads
Kw CONN DEV LARGE_PADS
Sc 0
AR 
Op 0 0 0
T0 0 -2.286 1.016 1.016 0 0.1524 N V 21 N "PIN_ARRAY_LARGE_PADS_2.54mm_4"
T1 0 2.286 1.016 1.016 0 0.1524 N I 21 N "Val**"
DS -7.45 -3.6 7.5 -3.6 0.15 21
DS -7.45 3.6 7.5 3.6 0.15 21
DS -7.45 3.6 -7.45 -3.6 0.15 21
DS 7.5 -3.6 7.5 3.6 0.15 21
$PAD
Sh "1" R 2.4 2.8 0 0 0
Dr 1 0 0
At STD N 00E0FFFF
Ne 0 ""
Po -5.25 0
$EndPAD
$PAD
Sh "2" O 2.4 2.8 0 0 0
Dr 1 0 0
At STD N 00E0FFFF
Ne 0 ""
Po -1.75 0
$EndPAD
$PAD
Sh "3" O 2.4 2.8 0 0 0
Dr 1 0 0
At STD N 00E0FFFF
Ne 0 ""
Po 1.75 0
$EndPAD
$PAD
Sh "4" O 2.4 2.6 0 0 0
Dr 1 0 0
At STD N 00E0FFFF
Ne 0 ""
Po 5.25 0
$EndPAD
$EndMODULE PIN_ARRAY_LARGE_PADS_3.5mm_4
PIN_ARRAY_LARGE_PADS_3.5mm_3
$EndINDEX
$MODULE PIN_ARRAY_LARGE_PADS_3.5mm_3
Po 0 0 0 15 54F0BED2 00000000 ~~
Li PIN_ARRAY_LARGE_PADS_3.5mm_3
Cd Pin array 3x1 large pads
Kw CONN DEV LARGE_PADS
Sc 0
AR 
Op 0 0 0
T0 0 -2.286 1.016 1.016 0 0.1524 N V 21 N "PIN_ARRAY_LARGE_PADS_2.54mm_3"
T1 0 2.286 1.016 1.016 0 0.1524 N I 21 N "Val**"
DS -5.7 3.6 5.7 3.6 0.15 21
DS -5.7 -3.6 5.7 -3.6 0.15 21
DS 5.7 -3.6 5.7 3.6 0.15 21
DS -5.7 3.6 -5.7 -3.6 0.15 21
$PAD
Sh "1" R 2.4 2.8 0 0 0
Dr 1 0 0
At STD N 00E0FFFF
Ne 0 ""
Po -3.5 0
$EndPAD
$PAD
Sh "2" O 2.4 2.8 0 0 0
Dr 1 0 0
At STD N 00E0FFFF
Ne 0 ""
Po 0 0
$EndPAD
$PAD
Sh "3" O 2.4 2.8 0 0 0
Dr 1 0 0
At STD N 00E0FFFF
Ne 0 ""
Po 3.5 0
$EndPAD
$EndMODULE PIN_ARRAY_LARGE_PADS_3.5mm_3
$MODULE PIN_ARRAY_LARGE_PADS_3.5mm_2
Po 0 0 0 15 54F0C222 00000000 ~~
Li PIN_ARRAY_LARGE_PADS_3.5mm_2
Cd Pin array 2x1 large pads
Kw CONN DEV LARGE_PADS
Sc 0
AR 
Op 0 0 0
T0 0 -2.286 1.016 1.016 0 0.1524 N V 21 N "PIN_ARRAY_LARGE_PADS_2.54mm_2"
T1 0 2.286 1.016 1.016 0 0.1524 N I 21 N "Val**"
DS -3.95 3.6 4 3.6 0.15 21
DS -3.95 -3.6 4 -3.6 0.15 21
DS 4 -3.6 4 3.6 0.15 21
DS -3.95 3.6 -3.95 -3.6 0.15 21
$PAD
Sh "1" R 2.4 2.8 0 0 0
Dr 1 0 0
At STD N 00E0FFFF
Ne 0 ""
Po -1.75 0
$EndPAD
$PAD
Sh "2" O 2.4 2.8 0 0 0
Dr 1 0 0
At STD N 00E0FFFF
Ne 0 ""
Po 1.75 0
$EndPAD
$EndMODULE PIN_ARRAY_LARGE_PADS_3.5mm_2
$MODULE PIN_ARRAY_LARGE_PADS_3.5mm_1
Po 0 0 0 15 54F18498 00000000 ~~
Li PIN_ARRAY_LARGE_PADS_3.5mm_1
Cd Pin array 1x1 large pads
Kw CONN DEV LARGE_PADS
Sc 0
AR 
Op 0 0 0
T0 0 -2.286 1.016 1.016 0 0.1524 N V 21 N "PIN"
T1 0 2.286 1.016 1.016 0 0.1524 N I 21 N "Val**"
$PAD
Sh "1" R 2.4 2.8 0 0 0
Dr 1 0 0
At STD N 00E0FFFF
Ne 0 ""
Po 0 0
$EndPAD
$EndMODULE PIN_ARRAY_LARGE_PADS_3.5mm_1
$EndLIBRARY
