PCBNEW-LibModule-V1  Чт 21 янв 2016 19:28:48
# encoding utf-8
Units mm
$INDEX
PIN_ARRAY_5x2_SOCKET
$EndINDEX
$MODULE PIN_ARRAY_5x2_SOCKET
Po 0 0 0 15 56A106F2 00000000 ~~
Li PIN_ARRAY_5x2_SOCKET
Cd Double rangee de contacts 2 x 5 pins
Kw CONN
Sc 0
AR 
Op 0 0 0
T0 0 4.3 1.016 1.016 0 0.2032 N V 21 N "PIN_ARRAY_5X2_SOCKET"
T1 0 -4.3 1.016 1.016 0 0.2032 N I 21 N "Val**"
DS -10.1 -3.3 10.1 -3.3 0.15 21
DS 10.1 -3.3 10.1 3.3 0.15 21
DS 10.1 3.3 -10.1 3.3 0.15 21
DS -10.1 3.3 -10.1 -3.3 0.15 21
$PAD
Sh "1" R 1.524 1.524 0 0 0
Dr 1.016 0 0
At STD N 00E0FFFF
Ne 0 ""
Po -5.08 1.27
$EndPAD
$PAD
Sh "2" C 1.524 1.524 0 0 0
Dr 1.016 0 0
At STD N 00E0FFFF
Ne 0 ""
Po -5.08 -1.27
$EndPAD
$PAD
Sh "3" C 1.524 1.524 0 0 0
Dr 1.016 0 0
At STD N 00E0FFFF
Ne 0 ""
Po -2.54 1.27
$EndPAD
$PAD
Sh "4" C 1.524 1.524 0 0 0
Dr 1.016 0 0
At STD N 00E0FFFF
Ne 0 ""
Po -2.54 -1.27
$EndPAD
$PAD
Sh "5" C 1.524 1.524 0 0 0
Dr 1.016 0 0
At STD N 00E0FFFF
Ne 0 ""
Po 0 1.27
$EndPAD
$PAD
Sh "6" C 1.524 1.524 0 0 0
Dr 1.016 0 0
At STD N 00E0FFFF
Ne 0 ""
Po 0 -1.27
$EndPAD
$PAD
Sh "7" C 1.524 1.524 0 0 0
Dr 1.016 0 0
At STD N 00E0FFFF
Ne 0 ""
Po 2.54 1.27
$EndPAD
$PAD
Sh "8" C 1.524 1.524 0 0 0
Dr 1.016 0 0
At STD N 00E0FFFF
Ne 0 ""
Po 2.54 -1.27
$EndPAD
$PAD
Sh "9" C 1.524 1.524 0 0 0
Dr 1.016 0 0
At STD N 00E0FFFF
Ne 0 ""
Po 5.08 1.27
$EndPAD
$PAD
Sh "10" C 1.524 1.524 0 0 0
Dr 1.016 0 0
At STD N 00E0FFFF
Ne 0 ""
Po 5.08 -1.27
$EndPAD
$SHAPE3D
Na "pin_array/pins_array_5x2.wrl"
Sc 1 1 1
Of 0 0 0
Ro 0 0 0
$EndSHAPE3D
$EndMODULE PIN_ARRAY_5x2_SOCKET
$EndLIBRARY
