PCBNEW-LibModule-V1  Вс 29 мар 2015 12:10:38
# encoding utf-8
Units mm
$INDEX
RGB-led
$EndINDEX
$MODULE RGB-led
Po 0 0 0 15 5517C17E 00000000 ~~
Li RGB-led
Sc 0
AR 
Op 0 0 0
T0 0 -3.5 1 1 0 0.15 N V 21 N "RGB-led"
T1 0 4 1 1 0 0.15 N V 21 N "VAL**"
DS 2.5 -2.5 -2.5 -2.5 0.15 21
DS -2.5 -2.5 -2.5 2.5 0.15 21
DS -2.5 2.5 2.5 2.5 0.15 21
DS 2.5 2.5 2.5 -2.5 0.15 21
$PAD
Sh "1" R 2 1 0 0 0
Dr 0 0 0
At SMD N 00888000
Ne 0 ""
Po 2.5 1.5
$EndPAD
$PAD
Sh "2" R 2 1 0 0 0
Dr 0 0 0
At SMD N 00888000
Ne 0 ""
Po 2.5 0
$EndPAD
$PAD
Sh "3" R 2 1 0 0 0
Dr 0 0 0
At SMD N 00888000
Ne 0 ""
Po 2.5 -1.5
$EndPAD
$PAD
Sh "4" R 2 1 0 0 0
Dr 0 0 0
At SMD N 00888000
Ne 0 ""
Po -2.5 -1.5
$EndPAD
$PAD
Sh "5" R 2 1 0 0 0
Dr 0 0 0
At SMD N 00888000
Ne 0 ""
Po -2.5 0
$EndPAD
$PAD
Sh "6" R 2 1 0 0 0
Dr 0 0 0
At SMD N 00888000
Ne 0 ""
Po -2.5 1.5
$EndPAD
$EndMODULE RGB-led
$EndLIBRARY
