PCBNEW-LibModule-V1  Сб 14 ноя 2015 12:42:41
# encoding utf-8
Units mm
$INDEX
sot323-5-fx
$EndINDEX
$MODULE sot323-5-fx
Po 0 0 0 15 564701BA 00000000 ~~
Li sot323-5-fx
Cd SOT323-5
Sc 0
AR 
Op 0 0 0
At SMD
T0 0 -0.20066 0.29972 0.29972 0 0.06096 N V 21 N "SOT323-5"
T1 0 0.20066 0.29972 0.29972 0 0.06096 N V 21 N "Q***"
DS -1.25 0.15 -0.9 0.5 0.15 21
DS -1.2 -0.5 1.2 -0.5 0.15 21
DS 1.2 -0.5 1.25 -0.5 0.15 21
DS 1.25 -0.5 1.25 0.5 0.15 21
DS 1.25 0.5 -1.2 0.5 0.15 21
DS -1.2 0.5 -1.25 0.5 0.15 21
DS -1.25 0.5 -1.25 -0.5 0.15 21
DS -1.25 -0.5 -1.15 -0.5 0.15 21
$PAD
Sh "1" R 0.50038 0.8001 0 0 0
Dr 0 0 0
At SMD N 00888000
Ne 0 ""
Po -0.65024 1.00076
$EndPAD
$PAD
Sh "3" R 0.50038 0.8001 0 0 0
Dr 0 0 0
At SMD N 00888000
Ne 0 ""
Po 0.65024 1.00076
$EndPAD
$PAD
Sh "2" R 0.50038 0.8001 0 0 0
Dr 0 0 0
At SMD N 00888000
Ne 0 ""
Po 0 1.00076
$EndPAD
$PAD
Sh "4" R 0.50038 0.8001 0 0 0
Dr 0 0 0
At SMD N 00888000
Ne 0 ""
Po 0.65024 -1.00076
$EndPAD
$PAD
Sh "5" R 0.50038 0.8001 0 0 0
Dr 0 0 0
At SMD N 00888000
Ne 0 ""
Po -0.65024 -1.00076
$EndPAD
$SHAPE3D
Na "smd/smd_transistors/sot323-5.wrl"
Sc 1 1 1
Of 0 0 0
Ro 0 0 0
$EndSHAPE3D
$EndMODULE sot323-5-fx
$EndLIBRARY
