PCBNEW-LibModule-V1  Сб 17 янв 2015 22:49:02
# encoding utf-8
Units mm
$INDEX
TERMINALS_2
TERMINALS_3
TERMINALS_4
TERMINALS_5
TERMINALS_6
$EndINDEX
$MODULE TERMINALS_2
Po 0 0 0 15 54BABC94 00000000 ~~
Li TERMINALS_2
Cd terminals 2 pin
Kw CONN DEV
Sc 0
AR 
Op 0 0 0
T0 0 -2.286 1.016 1.016 0 0.1524 N V 21 N "TERMINALS_2"
T1 0 2.286 1.016 1.016 0 0.1524 N I 21 N "Val**"
DS 3.81 -3.556 3.81 3.556 0.15 21
DS 3.81 3.556 -3.81 3.556 0.15 21
DS -3.81 -3.556 3.81 -3.556 0.15 21
DS -3.81 -3.556 -3.81 3.556 0.15 21
$PAD
Sh "1" R 1.524 1.524 0 0 0
Dr 1.000 0 0
At STD N 00E0FFFF
Ne 0 ""
Po -1.722 0
$EndPAD
$PAD
Sh "2" C 1.524 1.524 0 0 0
Dr 1.000 0 0
At STD N 00E0FFFF
Ne 0 ""
Po 1.778 0
$EndPAD
$EndMODULE TERMINALS_2
$MODULE TERMINALS_3
Po 0 0 0 15 54BAB768 00000000 ~~
Li TERMINALS_3
Cd terminals 3 pin
Kw CONN DEV
Sc 0
AR 
Op 0 0 0
T0 0.254 -2.159 1.016 1.016 0 0.1524 N V 21 N "TERMINALS_3"
T1 0 2.286 1.016 1.016 0 0.1524 N I 21 N "Val**"
DS -5.588 3.556 5.588 3.556 0.15 21
DS -5.588 -3.556 5.588 -3.556 0.15 21
DS -5.588 -3.556 -5.588 3.556 0.15 21
DS 5.588 -3.556 5.588 3.556 0.15 21
$PAD
Sh "1" R 1.524 1.524 0 0 0
Dr 1.000 0 0
At STD N 00E0FFFF
Ne 0 ""
Po -3.5 0
$EndPAD
$PAD
Sh "2" C 1.524 1.524 0 0 0
Dr 1.000 0 0
At STD N 00E0FFFF
Ne 0 ""
Po 0 0
$EndPAD
$PAD
Sh "3" C 1.524 1.524 0 0 0
Dr 1.000 0 0
At STD N 00E0FFFF
Ne 0 ""
Po 3.5 0
$EndPAD
$EndMODULE TERMINALS_3
$MODULE TERMINALS_4
Po 0 0 0 15 54BAB883 00000000 ~~
Li TERMINALS_4
Cd terminals 4 pin
Kw CONN DEV
Sc 0
AR 
Op 0 0 0
T0 0.254 -2.159 1.016 1.016 0 0.1524 N V 21 N "TERMINALS_4"
T1 0 2.286 1.016 1.016 0 0.1524 N I 21 N "Val**"
DS 3.81 3.556 7.366 3.556 0.15 21
DS 7.366 3.556 7.366 -3.556 0.15 21
DS 7.366 -3.556 3.81 -3.556 0.15 21
DS -7.366 3.556 3.81 3.556 0.15 21
DS -7.366 -3.556 3.81 -3.556 0.15 21
DS -7.366 -3.556 -7.366 3.556 0.15 21
$PAD
Sh "1" R 1.524 1.524 0 0 0
Dr 1.000 0 0
At STD N 00E0FFFF
Ne 0 ""
Po -5.278 0
$EndPAD
$PAD
Sh "2" C 1.524 1.524 0 0 0
Dr 1.000 0 0
At STD N 00E0FFFF
Ne 0 ""
Po -1.778 0
$EndPAD
$PAD
Sh "3" C 1.524 1.524 0 0 0
Dr 1.000 0 0
At STD N 00E0FFFF
Ne 0 ""
Po 1.722 0
$EndPAD
$PAD
Sh "4" C 1.524 1.524 0 0 0
Dr 1.000 0 0
At STD N 00E0FFFF
Ne 0 ""
Po 5.222 0
$EndPAD
$EndMODULE TERMINALS_4
$MODULE TERMINALS_5
Po 0 0 0 15 54BAB980 00000000 ~~
Li TERMINALS_5
Cd terminals 5 pin
Kw CONN DEV
Sc 0
AR 
Op 0 0 0
T0 0 -2.286 1.016 1.016 0 0.1524 N V 21 N "TERMINALS_5"
T1 0 2.159 1.016 1.016 0 0.1524 N I 21 N "Val**"
DS -9.0678 -3.556 8.9662 -3.556 0.15 21
DS 8.9662 -3.556 8.9662 3.556 0.15 21
DS 8.9662 3.556 -9.0678 3.556 0.15 21
DS -9.0678 -3.556 -9.0678 3.556 0.15 21
$PAD
Sh "1" R 1.524 1.524 0 0 0
Dr 1.000 0 0
At STD N 00E0FFFF
Ne 0 ""
Po -6.9798 0
$EndPAD
$PAD
Sh "2" C 1.524 1.524 0 0 0
Dr 1.000 0 0
At STD N 00E0FFFF
Ne 0 ""
Po -3.4798 0
$EndPAD
$PAD
Sh "3" C 1.524 1.524 0 0 0
Dr 1.000 0 0
At STD N 00E0FFFF
Ne 0 ""
Po 0.0202 0
$EndPAD
$PAD
Sh "4" C 1.524 1.524 0 0 0
Dr 1.000 0 0
At STD N 00E0FFFF
Ne 0 ""
Po 3.5202 0
$EndPAD
$PAD
Sh "5" C 1.524 1.524 0 0 0
Dr 1.000 0 0
At STD N 00E0FFFF
Ne 0 ""
Po 7.0202 0
$EndPAD
$EndMODULE TERMINALS_5
$MODULE TERMINALS_6
Po 0 0 0 15 54BABA21 00000000 ~~
Li TERMINALS_6
Cd terminals 6 pin
Kw CONN DEV
Sc 0
AR 
Op 0 0 0
T0 0 -2.286 1.016 1.016 0 0.1524 N V 21 N "TERMINALS_6"
T1 0 2.286 1.016 1.016 0 0.1524 N I 21 N "Val**"
DS -10.8585 -3.556 10.7315 -3.556 0.15 21
DS 10.7315 -3.556 10.7315 3.556 0.15 21
DS 10.7315 3.556 -10.8585 3.556 0.15 21
DS -10.8585 -3.556 -10.8585 3.556 0.15 21
$PAD
Sh "1" R 1.524 1.524 0 0 0
Dr 1.000 0 0
At STD N 00E0FFFF
Ne 0 ""
Po -8.7705 0
$EndPAD
$PAD
Sh "2" C 1.524 1.524 0 0 0
Dr 1.000 0 0
At STD N 00E0FFFF
Ne 0 ""
Po -5.2705 0
$EndPAD
$PAD
Sh "3" C 1.524 1.524 0 0 0
Dr 1.000 0 0
At STD N 00E0FFFF
Ne 0 ""
Po -1.7705 0
$EndPAD
$PAD
Sh "4" C 1.524 1.524 0 0 0
Dr 1.000 0 0
At STD N 00E0FFFF
Ne 0 ""
Po 1.7295 0
$EndPAD
$PAD
Sh "5" C 1.524 1.524 0 0 0
Dr 1.000 0 0
At STD N 00E0FFFF
Ne 0 ""
Po 5.2295 0
$EndPAD
$PAD
Sh "6" C 1.524 1.524 0 0 0
Dr 1.000 0 0
At STD N 00E0FFFF
Ne 0 ""
Po 8.7295 0
$EndPAD
$EndMODULE TERMINALS_6
$EndLIBRARY
