PCBNEW-LibModule-V1  Сб 23 ноя 2013 00:53:48
# encoding utf-8
Units mm
$INDEX
TO220_VERT_5pin
$EndINDEX
$MODULE TO220_VERT_5pin
Po 0 0 0 15 528FC2F1 00000000 ~~
Li TO220_VERT_5pin
Cd Regulateur TO220 serie LM78xx
Kw TO220 5 pin LM2576
Sc 0
AR 
Op 0 0 0
T0 -3.175 0 1.524 1.016 900 0.2032 N V 21 N "TO220_VERT_5pin"
T1 0.635 -6.35 1.524 1.016 0 0.2032 N V 21 N "VAL**"
DS 1.905 -5.08 2.54 -5.08 0.381 21
DS 2.54 -5.08 2.54 5.08 0.381 21
DS 2.54 5.08 1.905 5.08 0.381 21
DS -1.905 -5.08 1.905 -5.08 0.381 21
DS 1.905 -5.08 1.905 5.08 0.381 21
DS 1.905 5.08 -1.905 5.08 0.381 21
DS -1.905 5.08 -1.905 -5.08 0.381 21
$PAD
Sh "2" O 3 1.4 0 0 0
Dr 1 0 0
At STD N 00E0FFFF
Ne 0 ""
Po 0 -1.7145
$EndPAD
$PAD
Sh "3" O 3 1.4 0 0 0
Dr 1 0 0
At STD N 00E0FFFF
Ne 0 ""
Po 0 0
$EndPAD
$PAD
Sh "1" R 3 1.4 0 0 0
Dr 1 0 0
At STD N 00E0FFFF
Ne 0 ""
Po 0 -3.429
$EndPAD
$PAD
Sh "4" O 3 1.4 0 0 0
Dr 1 0 0
At STD N 00E0FFFF
Ne 0 ""
Po 0 1.7145
$EndPAD
$PAD
Sh "5" O 3 1.4 0 0 0
Dr 1 0 0
At STD N 00E0FFFF
Ne 0 ""
Po 0 3.429
$EndPAD
$EndMODULE TO220_VERT_5pin
$EndLIBRARY
