G04 #@! TF.FileFunction,Profile,NP*
%FSLAX46Y46*%
G04 Gerber Fmt 4.6, Leading zero omitted, Abs format (unit mm)*
G04 Created by KiCad (PCBNEW 4.0.7) date 05/21/18 16:27:59*
%MOMM*%
%LPD*%
G01*
G04 APERTURE LIST*
%ADD10C,0.100000*%
%ADD11C,0.150000*%
G04 APERTURE END LIST*
D10*
D11*
X-200000Y-520000D02*
X-200000Y-520000D01*
X-200000Y-137670000D02*
X-200000Y-520000D01*
X81250000Y-137670000D02*
X-200000Y-137670000D01*
X81250000Y-530000D02*
X81250000Y-137670000D01*
X-200000Y-520000D02*
X81260049Y-520000D01*
M02*
