EESchema Schematic File Version 2
LIBS:power
LIBS:device
LIBS:transistors
LIBS:conn
LIBS:linear
LIBS:regul
LIBS:74xx
LIBS:cmos4000
LIBS:adc-dac
LIBS:memory
LIBS:xilinx
LIBS:microcontrollers
LIBS:dsp
LIBS:microchip
LIBS:analog_switches
LIBS:motorola
LIBS:texas
LIBS:intel
LIBS:audio
LIBS:interface
LIBS:digital-audio
LIBS:philips
LIBS:display
LIBS:cypress
LIBS:siliconi
LIBS:opto
LIBS:atmel
LIBS:contrib
LIBS:valves
LIBS:NUCLEO-L476RG
LIBS:chrzaszcz_lib
LIBS:w_connectors
LIBS:warsztaty
LIBS:ir2153
LIBS:irf7103
LIBS:linStab-(1-GND,Adj,2-Out,3-in)
LIBS:lm2596
LIBS:lm2621
LIBS:mbi6651
LIBS:MC34063
LIBS:mcp73831
LIBS:microsd-sdio
LIBS:microsd-sdio-cd
LIBS:ncp551
LIBS:ncp1450
LIBS:nrf24l01
LIBS:pam8403
LIBS:pam8610
LIBS:rfid-rc522-module
LIBS:rgb-led
LIBS:stm32
LIBS:tl494
LIBS:tsop4856
LIBS:usblc6-4
LIBS:lm2596_stepdown_voltageConverter
LIBS:ErDrag-cache
EELAYER 25 0
EELAYER END
$Descr A4 11693 8268
encoding utf-8
Sheet 2 3
Title ""
Date ""
Rev ""
Comp ""
Comment1 ""
Comment2 ""
Comment3 ""
Comment4 ""
$EndDescr
$Comp
L KTIR0711S U2
U 1 1 5AFD478A
P 4350 2600
F 0 "U2" H 4150 2800 50  0000 L CNN
F 1 "KTIR0711S" H 4350 2800 50  0000 L CNN
F 2 "warsztatyKoNaR:KTIR0711S" H 4150 2400 50  0001 L CIN
F 3 "" H 4350 2600 50  0000 L CNN
	1    4350 2600
	1    0    0    -1  
$EndComp
$Comp
L KTIR0711S U3
U 1 1 5AFD4813
P 4350 3100
F 0 "U3" H 4150 3300 50  0000 L CNN
F 1 "KTIR0711S" H 4350 3300 50  0000 L CNN
F 2 "warsztatyKoNaR:KTIR0711S" H 4150 2900 50  0001 L CIN
F 3 "" H 4350 3100 50  0000 L CNN
	1    4350 3100
	1    0    0    -1  
$EndComp
$Comp
L KTIR0711S U4
U 1 1 5AFD483F
P 4350 3550
F 0 "U4" H 4150 3750 50  0000 L CNN
F 1 "KTIR0711S" H 4350 3750 50  0000 L CNN
F 2 "warsztatyKoNaR:KTIR0711S" H 4150 3350 50  0001 L CIN
F 3 "" H 4350 3550 50  0000 L CNN
	1    4350 3550
	1    0    0    -1  
$EndComp
$Comp
L KTIR0711S U5
U 1 1 5AFD4864
P 4350 4000
F 0 "U5" H 4150 4200 50  0000 L CNN
F 1 "KTIR0711S" H 4350 4200 50  0000 L CNN
F 2 "warsztatyKoNaR:KTIR0711S" H 4150 3800 50  0001 L CIN
F 3 "" H 4350 4000 50  0000 L CNN
	1    4350 4000
	1    0    0    -1  
$EndComp
$Comp
L KTIR0711S U6
U 1 1 5AFD488A
P 4350 4450
F 0 "U6" H 4150 4650 50  0000 L CNN
F 1 "KTIR0711S" H 4350 4650 50  0000 L CNN
F 2 "warsztatyKoNaR:KTIR0711S" H 4150 4250 50  0001 L CIN
F 3 "" H 4350 4450 50  0000 L CNN
	1    4350 4450
	1    0    0    -1  
$EndComp
$Comp
L KTIR0711S U7
U 1 1 5AFD48AD
P 4350 4850
F 0 "U7" H 4150 5050 50  0000 L CNN
F 1 "KTIR0711S" H 4350 5050 50  0000 L CNN
F 2 "warsztatyKoNaR:KTIR0711S" H 4150 4650 50  0001 L CIN
F 3 "" H 4350 4850 50  0000 L CNN
	1    4350 4850
	1    0    0    -1  
$EndComp
$Comp
L KTIR0711S U8
U 1 1 5AFD48D5
P 4350 5250
F 0 "U8" H 4150 5450 50  0000 L CNN
F 1 "KTIR0711S" H 4350 5450 50  0000 L CNN
F 2 "warsztatyKoNaR:KTIR0711S" H 4150 5050 50  0001 L CIN
F 3 "" H 4350 5250 50  0000 L CNN
	1    4350 5250
	1    0    0    -1  
$EndComp
Wire Wire Line
	4650 2700 4950 2700
Wire Wire Line
	4950 2700 4950 5450
Wire Wire Line
	4950 3200 4650 3200
Wire Wire Line
	4950 3650 4650 3650
Connection ~ 4950 3200
Wire Wire Line
	4950 4100 4650 4100
Connection ~ 4950 3650
Wire Wire Line
	4950 4550 4650 4550
Connection ~ 4950 4100
Wire Wire Line
	4950 4950 4650 4950
Connection ~ 4950 4550
Wire Wire Line
	4950 5350 4650 5350
Connection ~ 4950 4950
Connection ~ 4950 5350
$Comp
L GND #PWR016
U 1 1 5AFD4A72
P 4950 5450
F 0 "#PWR016" H 4950 5200 50  0001 C CNN
F 1 "GND" H 4950 5300 50  0000 C CNN
F 2 "" H 4950 5450 50  0001 C CNN
F 3 "" H 4950 5450 50  0001 C CNN
	1    4950 5450
	1    0    0    -1  
$EndComp
Wire Wire Line
	4650 2500 5200 2500
Wire Wire Line
	4650 3000 5200 3000
Wire Wire Line
	4650 3450 5200 3450
Wire Wire Line
	4650 3900 5200 3900
Wire Wire Line
	4650 4350 5200 4350
Wire Wire Line
	4650 4750 5200 4750
Wire Wire Line
	4650 5150 5200 5150
Text GLabel 5200 5150 2    60   Input ~ 0
ADC_IN3
$Comp
L R R14
U 1 1 5AFD4DF3
P 5050 5000
F 0 "R14" V 5130 5000 50  0000 C CNN
F 1 "10K" V 5050 5000 50  0000 C CNN
F 2 "Resistors_SMD:R_0805" V 4980 5000 50  0001 C CNN
F 3 "" H 5050 5000 50  0001 C CNN
	1    5050 5000
	1    0    0    -1  
$EndComp
Connection ~ 5050 5150
$Comp
L VCC #PWR017
U 1 1 5AFD4E5B
P 5050 4850
F 0 "#PWR017" H 5050 4700 50  0001 C CNN
F 1 "VCC" H 5050 5000 50  0000 C CNN
F 2 "" H 5050 4850 50  0001 C CNN
F 3 "" H 5050 4850 50  0001 C CNN
	1    5050 4850
	1    0    0    -1  
$EndComp
$Comp
L R R13
U 1 1 5AFD4F35
P 5050 4600
F 0 "R13" V 5130 4600 50  0000 C CNN
F 1 "10K" V 5050 4600 50  0000 C CNN
F 2 "Resistors_SMD:R_0805" V 4980 4600 50  0001 C CNN
F 3 "" H 5050 4600 50  0001 C CNN
	1    5050 4600
	1    0    0    -1  
$EndComp
$Comp
L R R12
U 1 1 5AFD4F7F
P 5050 4200
F 0 "R12" V 5130 4200 50  0000 C CNN
F 1 "10K" V 5050 4200 50  0000 C CNN
F 2 "Resistors_SMD:R_0805" V 4980 4200 50  0001 C CNN
F 3 "" H 5050 4200 50  0001 C CNN
	1    5050 4200
	1    0    0    -1  
$EndComp
$Comp
L R R11
U 1 1 5AFD5013
P 5050 3750
F 0 "R11" V 5130 3750 50  0000 C CNN
F 1 "10K" V 5050 3750 50  0000 C CNN
F 2 "Resistors_SMD:R_0805" V 4980 3750 50  0001 C CNN
F 3 "" H 5050 3750 50  0001 C CNN
	1    5050 3750
	1    0    0    -1  
$EndComp
$Comp
L R R10
U 1 1 5AFD504E
P 5050 3300
F 0 "R10" V 5130 3300 50  0000 C CNN
F 1 "10K" V 5050 3300 50  0000 C CNN
F 2 "Resistors_SMD:R_0805" V 4980 3300 50  0001 C CNN
F 3 "" H 5050 3300 50  0001 C CNN
	1    5050 3300
	1    0    0    -1  
$EndComp
$Comp
L R R9
U 1 1 5AFD5136
P 5050 2850
F 0 "R9" V 5130 2850 50  0000 C CNN
F 1 "10K" V 5050 2850 50  0000 C CNN
F 2 "Resistors_SMD:R_0805" V 4980 2850 50  0001 C CNN
F 3 "" H 5050 2850 50  0001 C CNN
	1    5050 2850
	1    0    0    -1  
$EndComp
$Comp
L R R8
U 1 1 5AFD5225
P 5050 2350
F 0 "R8" V 5130 2350 50  0000 C CNN
F 1 "10K" V 5050 2350 50  0000 C CNN
F 2 "Resistors_SMD:R_0805" V 4980 2350 50  0001 C CNN
F 3 "" H 5050 2350 50  0001 C CNN
	1    5050 2350
	1    0    0    -1  
$EndComp
$Comp
L VCC #PWR018
U 1 1 5AFD537F
P 5050 4450
F 0 "#PWR018" H 5050 4300 50  0001 C CNN
F 1 "VCC" H 5050 4600 50  0000 C CNN
F 2 "" H 5050 4450 50  0001 C CNN
F 3 "" H 5050 4450 50  0001 C CNN
	1    5050 4450
	1    0    0    -1  
$EndComp
$Comp
L VCC #PWR019
U 1 1 5AFD5440
P 5050 4050
F 0 "#PWR019" H 5050 3900 50  0001 C CNN
F 1 "VCC" H 5050 4200 50  0000 C CNN
F 2 "" H 5050 4050 50  0001 C CNN
F 3 "" H 5050 4050 50  0001 C CNN
	1    5050 4050
	1    0    0    -1  
$EndComp
$Comp
L VCC #PWR020
U 1 1 5AFD54D7
P 5050 3600
F 0 "#PWR020" H 5050 3450 50  0001 C CNN
F 1 "VCC" H 5050 3750 50  0000 C CNN
F 2 "" H 5050 3600 50  0001 C CNN
F 3 "" H 5050 3600 50  0001 C CNN
	1    5050 3600
	1    0    0    -1  
$EndComp
$Comp
L VCC #PWR021
U 1 1 5AFD557C
P 5050 3150
F 0 "#PWR021" H 5050 3000 50  0001 C CNN
F 1 "VCC" H 5050 3300 50  0000 C CNN
F 2 "" H 5050 3150 50  0001 C CNN
F 3 "" H 5050 3150 50  0001 C CNN
	1    5050 3150
	1    0    0    -1  
$EndComp
$Comp
L VCC #PWR022
U 1 1 5AFD5605
P 5050 2700
F 0 "#PWR022" H 5050 2550 50  0001 C CNN
F 1 "VCC" H 5050 2850 50  0000 C CNN
F 2 "" H 5050 2700 50  0001 C CNN
F 3 "" H 5050 2700 50  0001 C CNN
	1    5050 2700
	1    0    0    -1  
$EndComp
$Comp
L VCC #PWR023
U 1 1 5AFD56C6
P 5050 2200
F 0 "#PWR023" H 5050 2050 50  0001 C CNN
F 1 "VCC" H 5050 2350 50  0000 C CNN
F 2 "" H 5050 2200 50  0001 C CNN
F 3 "" H 5050 2200 50  0001 C CNN
	1    5050 2200
	1    0    0    -1  
$EndComp
Connection ~ 5050 2500
Connection ~ 5050 3000
Connection ~ 5050 3450
Connection ~ 5050 3900
Connection ~ 5050 4350
Connection ~ 5050 4750
Text GLabel 5200 4750 2    60   Input ~ 0
ADC_IN15
Text GLabel 5200 4350 2    60   Input ~ 0
ADC_IN4
Text GLabel 5200 3900 2    60   Input ~ 0
ADC_IN2
Text GLabel 5200 3450 2    60   Input ~ 0
ADC_IN9
Text GLabel 5200 3000 2    60   Input ~ 0
ADC_IN1
Text GLabel 5200 2500 2    60   Input ~ 0
ADC_IN11
$Comp
L GND #PWR024
U 1 1 5AFD617B
P 4050 5350
F 0 "#PWR024" H 4050 5100 50  0001 C CNN
F 1 "GND" H 4050 5200 50  0000 C CNN
F 2 "" H 4050 5350 50  0001 C CNN
F 3 "" H 4050 5350 50  0001 C CNN
	1    4050 5350
	1    0    0    -1  
$EndComp
$Comp
L GND #PWR025
U 1 1 5AFD61B0
P 4050 4950
F 0 "#PWR025" H 4050 4700 50  0001 C CNN
F 1 "GND" H 4050 4800 50  0000 C CNN
F 2 "" H 4050 4950 50  0001 C CNN
F 3 "" H 4050 4950 50  0001 C CNN
	1    4050 4950
	1    0    0    -1  
$EndComp
$Comp
L GND #PWR026
U 1 1 5AFD61E5
P 4050 4550
F 0 "#PWR026" H 4050 4300 50  0001 C CNN
F 1 "GND" H 4050 4400 50  0000 C CNN
F 2 "" H 4050 4550 50  0001 C CNN
F 3 "" H 4050 4550 50  0001 C CNN
	1    4050 4550
	1    0    0    -1  
$EndComp
$Comp
L GND #PWR027
U 1 1 5AFD626E
P 4050 4100
F 0 "#PWR027" H 4050 3850 50  0001 C CNN
F 1 "GND" H 4050 3950 50  0000 C CNN
F 2 "" H 4050 4100 50  0001 C CNN
F 3 "" H 4050 4100 50  0001 C CNN
	1    4050 4100
	1    0    0    -1  
$EndComp
$Comp
L GND #PWR028
U 1 1 5AFD62A3
P 4050 3650
F 0 "#PWR028" H 4050 3400 50  0001 C CNN
F 1 "GND" H 4050 3500 50  0000 C CNN
F 2 "" H 4050 3650 50  0001 C CNN
F 3 "" H 4050 3650 50  0001 C CNN
	1    4050 3650
	1    0    0    -1  
$EndComp
$Comp
L GND #PWR029
U 1 1 5AFD633A
P 4050 3200
F 0 "#PWR029" H 4050 2950 50  0001 C CNN
F 1 "GND" H 4050 3050 50  0000 C CNN
F 2 "" H 4050 3200 50  0001 C CNN
F 3 "" H 4050 3200 50  0001 C CNN
	1    4050 3200
	1    0    0    -1  
$EndComp
$Comp
L GND #PWR030
U 1 1 5AFD636F
P 4050 2700
F 0 "#PWR030" H 4050 2450 50  0001 C CNN
F 1 "GND" H 4050 2550 50  0000 C CNN
F 2 "" H 4050 2700 50  0001 C CNN
F 3 "" H 4050 2700 50  0001 C CNN
	1    4050 2700
	1    0    0    -1  
$EndComp
$Comp
L R R1
U 1 1 5AFD6422
P 3900 2500
F 0 "R1" V 3980 2500 50  0000 C CNN
F 1 "220R" V 3900 2500 50  0000 C CNN
F 2 "Resistors_SMD:R_0805" V 3830 2500 50  0001 C CNN
F 3 "" H 3900 2500 50  0001 C CNN
	1    3900 2500
	0    1    1    0   
$EndComp
$Comp
L VCC #PWR031
U 1 1 5AFD6503
P 3750 2500
F 0 "#PWR031" H 3750 2350 50  0001 C CNN
F 1 "VCC" H 3750 2650 50  0000 C CNN
F 2 "" H 3750 2500 50  0001 C CNN
F 3 "" H 3750 2500 50  0001 C CNN
	1    3750 2500
	1    0    0    -1  
$EndComp
$Comp
L R R2
U 1 1 5AFD6571
P 3900 3000
F 0 "R2" V 3980 3000 50  0000 C CNN
F 1 "220R" V 3900 3000 50  0000 C CNN
F 2 "Resistors_SMD:R_0805" V 3830 3000 50  0001 C CNN
F 3 "" H 3900 3000 50  0001 C CNN
	1    3900 3000
	0    1    1    0   
$EndComp
$Comp
L VCC #PWR032
U 1 1 5AFD6578
P 3750 3000
F 0 "#PWR032" H 3750 2850 50  0001 C CNN
F 1 "VCC" H 3750 3150 50  0000 C CNN
F 2 "" H 3750 3000 50  0001 C CNN
F 3 "" H 3750 3000 50  0001 C CNN
	1    3750 3000
	1    0    0    -1  
$EndComp
$Comp
L R R3
U 1 1 5AFD6612
P 3900 3450
F 0 "R3" V 3980 3450 50  0000 C CNN
F 1 "220R" V 3900 3450 50  0000 C CNN
F 2 "Resistors_SMD:R_0805" V 3830 3450 50  0001 C CNN
F 3 "" H 3900 3450 50  0001 C CNN
	1    3900 3450
	0    1    1    0   
$EndComp
$Comp
L VCC #PWR033
U 1 1 5AFD6619
P 3750 3450
F 0 "#PWR033" H 3750 3300 50  0001 C CNN
F 1 "VCC" H 3750 3600 50  0000 C CNN
F 2 "" H 3750 3450 50  0001 C CNN
F 3 "" H 3750 3450 50  0001 C CNN
	1    3750 3450
	1    0    0    -1  
$EndComp
$Comp
L R R4
U 1 1 5AFD66B2
P 3900 3900
F 0 "R4" V 3980 3900 50  0000 C CNN
F 1 "220R" V 3900 3900 50  0000 C CNN
F 2 "Resistors_SMD:R_0805" V 3830 3900 50  0001 C CNN
F 3 "" H 3900 3900 50  0001 C CNN
	1    3900 3900
	0    1    1    0   
$EndComp
$Comp
L VCC #PWR034
U 1 1 5AFD66B9
P 3750 3900
F 0 "#PWR034" H 3750 3750 50  0001 C CNN
F 1 "VCC" H 3750 4050 50  0000 C CNN
F 2 "" H 3750 3900 50  0001 C CNN
F 3 "" H 3750 3900 50  0001 C CNN
	1    3750 3900
	1    0    0    -1  
$EndComp
$Comp
L R R5
U 1 1 5AFD6779
P 3900 4350
F 0 "R5" V 3980 4350 50  0000 C CNN
F 1 "220R" V 3900 4350 50  0000 C CNN
F 2 "Resistors_SMD:R_0805" V 3830 4350 50  0001 C CNN
F 3 "" H 3900 4350 50  0001 C CNN
	1    3900 4350
	0    1    1    0   
$EndComp
$Comp
L VCC #PWR035
U 1 1 5AFD6780
P 3750 4350
F 0 "#PWR035" H 3750 4200 50  0001 C CNN
F 1 "VCC" H 3750 4500 50  0000 C CNN
F 2 "" H 3750 4350 50  0001 C CNN
F 3 "" H 3750 4350 50  0001 C CNN
	1    3750 4350
	1    0    0    -1  
$EndComp
$Comp
L R R6
U 1 1 5AFD6890
P 3900 4750
F 0 "R6" V 3980 4750 50  0000 C CNN
F 1 "220R" V 3900 4750 50  0000 C CNN
F 2 "Resistors_SMD:R_0805" V 3830 4750 50  0001 C CNN
F 3 "" H 3900 4750 50  0001 C CNN
	1    3900 4750
	0    1    1    0   
$EndComp
$Comp
L VCC #PWR036
U 1 1 5AFD6897
P 3750 4750
F 0 "#PWR036" H 3750 4600 50  0001 C CNN
F 1 "VCC" H 3750 4900 50  0000 C CNN
F 2 "" H 3750 4750 50  0001 C CNN
F 3 "" H 3750 4750 50  0001 C CNN
	1    3750 4750
	1    0    0    -1  
$EndComp
$Comp
L R R7
U 1 1 5AFD696F
P 3900 5150
F 0 "R7" V 3980 5150 50  0000 C CNN
F 1 "220R" V 3900 5150 50  0000 C CNN
F 2 "Resistors_SMD:R_0805" V 3830 5150 50  0001 C CNN
F 3 "" H 3900 5150 50  0001 C CNN
	1    3900 5150
	0    1    1    0   
$EndComp
$Comp
L VCC #PWR037
U 1 1 5AFD6976
P 3750 5150
F 0 "#PWR037" H 3750 5000 50  0001 C CNN
F 1 "VCC" H 3750 5300 50  0000 C CNN
F 2 "" H 3750 5150 50  0001 C CNN
F 3 "" H 3750 5150 50  0001 C CNN
	1    3750 5150
	1    0    0    -1  
$EndComp
$EndSCHEMATC
