(module arduino_nano_header (layer F.Cu)
  (descr "Arduino Nano Header")
  (tags Arduino)
  (fp_text reference Arduino_Nano_Header (at 0 1.27) (layer F.SilkS)
    (effects (font (size 1.016 1.016) (thickness 0.2032)))
  )
  (fp_text value Val** (at 0 -1.27) (layer F.SilkS) hide
    (effects (font (size 1.016 0.889) (thickness 0.2032)))
  )
  (fp_line (start -16.51 -1.27) (end -21.59 -1.27) (layer F.SilkS) (width 0.381))
  (fp_line (start -16.51 1.27) (end -21.59 1.27) (layer F.SilkS) (width 0.381))
  (fp_line (start -19.05 -3.81) (end -19.05 3.81) (layer F.SilkS) (width 0.381))
  (fp_line (start -21.59 -3.81) (end -16.51 -3.81) (layer F.SilkS) (width 0.381))
  (fp_line (start -16.51 -3.81) (end -16.51 3.81) (layer F.SilkS) (width 0.381))
  (fp_line (start -16.51 3.81) (end -21.59 3.81) (layer F.SilkS) (width 0.381))
  (fp_line (start 21.59 -8.89) (end -21.59 -8.89) (layer F.SilkS) (width 0.381))
  (fp_line (start -21.59 8.89) (end 21.59 8.89) (layer F.SilkS) (width 0.381))
  (fp_line (start -21.59 8.89) (end -21.59 -8.89) (layer F.SilkS) (width 0.381))
  (fp_line (start 21.59 8.89) (end 21.59 -8.89) (layer F.SilkS) (width 0.381))
  (fp_circle (center -20.32 -7.62) (end -21.59 -7.62) (layer F.SilkS) (width 0.381))
  (fp_circle (center -20.32 7.62) (end -21.59 7.62) (layer F.SilkS) (width 0.381))
  (fp_circle (center 20.32 -7.62) (end 21.59 -7.62) (layer F.SilkS) (width 0.381))
  (fp_circle (center 20.32 7.62) (end 21.59 7.62) (layer F.SilkS) (width 0.381))
  (fp_line (start 19.05 -6.35) (end -19.05 -6.35) (layer F.SilkS) (width 0.381))
  (fp_line (start -19.05 6.35) (end 19.05 6.35) (layer F.SilkS) (width 0.381))
  (fp_line (start 19.05 8.89) (end 19.05 6.35) (layer F.SilkS) (width 0.381))
  (fp_line (start 19.05 -6.35) (end 19.05 -8.89) (layer F.SilkS) (width 0.381))
  (fp_line (start -19.05 -8.89) (end -19.05 -6.35) (layer F.SilkS) (width 0.381))
  (fp_line (start -19.05 8.89) (end -19.05 6.35) (layer F.SilkS) (width 0.381))
  (pad 1 thru_hole oval (at -17.78 7.62) (size 1.524 2.19964) (drill 1.00076) (layers *.Cu *.Mask F.SilkS))
  (pad 2 thru_hole oval (at -15.24 7.62) (size 1.524 2.19964) (drill 1.00076) (layers *.Cu *.Mask F.SilkS))
  (pad 3 thru_hole oval (at -12.7 7.62) (size 1.524 2.19964) (drill 1.00076) (layers *.Cu *.Mask F.SilkS))
  (pad 4 thru_hole oval (at -10.16 7.62) (size 1.524 2.19964) (drill 1.00076) (layers *.Cu *.Mask F.SilkS))
  (pad 5 thru_hole oval (at -7.62 7.62) (size 1.524 2.19964) (drill 1.00076) (layers *.Cu *.Mask F.SilkS))
  (pad 6 thru_hole oval (at -5.08 7.62) (size 1.524 2.19964) (drill 1.00076) (layers *.Cu *.Mask F.SilkS))
  (pad 7 thru_hole oval (at -2.54 7.62) (size 1.524 2.19964) (drill 1.00076) (layers *.Cu *.Mask F.SilkS))
  (pad 8 thru_hole oval (at 0 7.62) (size 1.524 2.19964) (drill 1.00076) (layers *.Cu *.Mask F.SilkS))
  (pad 9 thru_hole oval (at 2.54 7.62) (size 1.524 2.19964) (drill 1.00076) (layers *.Cu *.Mask F.SilkS))
  (pad 10 thru_hole oval (at 5.08 7.62) (size 1.524 2.19964) (drill 1.00076) (layers *.Cu *.Mask F.SilkS))
  (pad 11 thru_hole oval (at 7.62 7.62) (size 1.524 2.19964) (drill 1.00076) (layers *.Cu *.Mask F.SilkS))
  (pad 12 thru_hole oval (at 10.16 7.62) (size 1.524 2.19964) (drill 1.00076) (layers *.Cu *.Mask F.SilkS))
  (pad 13 thru_hole oval (at 12.7 7.62) (size 1.524 2.19964) (drill 1.00076) (layers *.Cu *.Mask F.SilkS))
  (pad 14 thru_hole oval (at 15.24 7.62) (size 1.524 2.19964) (drill 1.00076) (layers *.Cu *.Mask F.SilkS))
  (pad 15 thru_hole oval (at 17.78 7.62) (size 1.524 2.19964) (drill 1.00076) (layers *.Cu *.Mask F.SilkS))
  (pad 16 thru_hole oval (at 17.78 -7.62) (size 1.524 2.19964) (drill 1.00076) (layers *.Cu *.Mask F.SilkS))
  (pad 17 thru_hole oval (at 15.24 -7.62) (size 1.524 2.19964) (drill 1.00076) (layers *.Cu *.Mask F.SilkS))
  (pad 18 thru_hole oval (at 12.7 -7.62) (size 1.524 2.19964) (drill 1.00076) (layers *.Cu *.Mask F.SilkS))
  (pad 19 thru_hole oval (at 10.16 -7.62) (size 1.524 2.19964) (drill 1.00076) (layers *.Cu *.Mask F.SilkS))
  (pad 20 thru_hole oval (at 7.62 -7.62) (size 1.524 2.1971) (drill 1.00076) (layers *.Cu *.Mask F.SilkS))
  (pad 21 thru_hole oval (at 5.08 -7.62) (size 1.524 2.1971) (drill 1.00076) (layers *.Cu *.Mask F.SilkS))
  (pad 22 thru_hole oval (at 2.54 -7.62) (size 1.524 2.1971) (drill 1.00076) (layers *.Cu *.Mask F.SilkS))
  (pad 23 thru_hole oval (at 0 -7.62) (size 1.524 2.1971) (drill 1.00076) (layers *.Cu *.Mask F.SilkS))
  (pad 24 thru_hole oval (at -2.54 -7.62) (size 1.524 2.1971) (drill 0.99822) (layers *.Cu *.Mask F.SilkS))
  (pad 25 thru_hole oval (at -5.08 -7.62) (size 1.524 2.1971) (drill 0.99822) (layers *.Cu *.Mask F.SilkS))
  (pad 26 thru_hole oval (at -7.62 -7.62) (size 1.524 2.1971) (drill 0.99822) (layers *.Cu *.Mask F.SilkS))
  (pad 27 thru_hole oval (at -10.16 -7.62) (size 1.524 2.1971) (drill 0.99822) (layers *.Cu *.Mask F.SilkS))
  (pad 28 thru_hole oval (at -12.7 -7.62) (size 1.524 2.1971) (drill 0.99822) (layers *.Cu *.Mask F.SilkS))
  (pad 29 thru_hole oval (at -15.24 -7.62) (size 1.524 2.1971) (drill 0.99822) (layers *.Cu *.Mask F.SilkS))
  (pad 30 thru_hole oval (at -17.78 -7.62) (size 1.524 2.1971) (drill 0.99822) (layers *.Cu *.Mask F.SilkS))
  (model walter/conn_misc/arduino_nano_header.wrl
    (at (xyz 0 0 0))
    (scale (xyz 1 1 1))
    (rotate (xyz 0 0 0))
  )
)
