(module arduino_header (layer F.Cu)
  (descr "Arduino Header")
  (tags Arduino)
  (fp_text reference Arduino_Header (at 0 1.27) (layer F.SilkS)
    (effects (font (size 1.016 1.016) (thickness 0.2032)))
  )
  (fp_text value Val** (at 0 -1.27) (layer F.SilkS) hide
    (effects (font (size 1.016 0.889) (thickness 0.2032)))
  )
  (fp_line (start 31.75 -26.67) (end -31.75 -26.67) (layer F.SilkS) (width 0.381))
  (fp_line (start -31.75 26.67) (end 31.75 26.67) (layer F.SilkS) (width 0.381))
  (fp_line (start 35.56 21.59) (end 35.56 -11.43) (layer F.SilkS) (width 0.381))
  (fp_line (start 35.56 21.59) (end 33.02 24.13) (layer F.SilkS) (width 0.381))
  (fp_line (start 33.02 24.13) (end 33.02 25.4) (layer F.SilkS) (width 0.381))
  (fp_line (start 31.75 25.4) (end 16.51 25.4) (layer F.SilkS) (width 0.381))
  (fp_line (start 16.51 22.86) (end 31.75 22.86) (layer F.SilkS) (width 0.381))
  (fp_line (start 33.02 -25.4) (end 33.02 -13.97) (layer F.SilkS) (width 0.381))
  (fp_line (start 33.02 -13.97) (end 35.56 -11.43) (layer F.SilkS) (width 0.381))
  (fp_line (start 31.75 -26.67) (end 33.02 -25.4) (layer F.SilkS) (width 0.381))
  (fp_arc (start -31.75 -25.4) (end -33.02 -25.4) (angle 90) (layer F.SilkS) (width 0.381))
  (fp_line (start -33.02 25.4) (end -33.02 -25.4) (layer F.SilkS) (width 0.381))
  (fp_arc (start -31.75 25.4) (end -31.75 26.67) (angle 90) (layer F.SilkS) (width 0.381))
  (fp_arc (start 31.75 25.4) (end 33.02 25.4) (angle 90) (layer F.SilkS) (width 0.381))
  (fp_line (start -10.414 -25.4) (end -15.494 -25.4) (layer F.SilkS) (width 0.381))
  (fp_line (start -15.494 -25.4) (end -15.494 -22.86) (layer F.SilkS) (width 0.381))
  (fp_line (start -15.494 -22.86) (end -10.414 -22.86) (layer F.SilkS) (width 0.381))
  (fp_circle (center -17.78 -24.13) (end -15.875 -24.13) (layer F.SilkS) (width 0.381))
  (fp_circle (center 33.02 -8.89) (end 34.925 -8.89) (layer F.SilkS) (width 0.381))
  (fp_line (start 9.906 -22.86) (end -10.414 -22.86) (layer F.SilkS) (width 0.381))
  (fp_line (start -10.414 -22.86) (end -10.414 -25.4) (layer F.SilkS) (width 0.381))
  (fp_line (start 9.906 -22.86) (end 9.906 -25.4) (layer F.SilkS) (width 0.381))
  (fp_line (start 9.906 -25.4) (end -10.414 -25.4) (layer F.SilkS) (width 0.381))
  (fp_line (start 31.75 -25.4) (end 31.75 -22.86) (layer F.SilkS) (width 0.381))
  (fp_line (start 31.75 -22.86) (end 11.43 -22.86) (layer F.SilkS) (width 0.381))
  (fp_line (start 11.43 -22.86) (end 11.43 -25.4) (layer F.SilkS) (width 0.381))
  (fp_line (start 11.43 -25.4) (end 31.75 -25.4) (layer F.SilkS) (width 0.381))
  (fp_circle (center 33.02 19.05) (end 34.925 19.05) (layer F.SilkS) (width 0.381))
  (fp_circle (center -19.05 24.13) (end -17.145 24.13) (layer F.SilkS) (width 0.381))
  (fp_line (start -6.35 25.4) (end 13.97 25.4) (layer F.SilkS) (width 0.381))
  (fp_line (start 13.97 22.86) (end -6.35 22.86) (layer F.SilkS) (width 0.381))
  (fp_line (start 31.75 25.4) (end 31.75 22.86) (layer F.SilkS) (width 0.381))
  (fp_line (start 16.51 22.86) (end 16.51 25.4) (layer F.SilkS) (width 0.381))
  (fp_line (start 13.97 22.86) (end 13.97 25.4) (layer F.SilkS) (width 0.381))
  (fp_line (start -6.35 25.4) (end -6.35 22.86) (layer F.SilkS) (width 0.381))
  (pad 1 thru_hole oval (at -5.08 24.13) (size 1.524 2.19964) (drill 1.00076) (layers *.Cu *.Mask F.SilkS))
  (pad 2 thru_hole oval (at -2.54 24.13) (size 1.524 2.19964) (drill 1.00076) (layers *.Cu *.Mask F.SilkS))
  (pad 3 thru_hole oval (at 0 24.13) (size 1.524 2.19964) (drill 1.00076) (layers *.Cu *.Mask F.SilkS))
  (pad 4 thru_hole oval (at 2.54 24.13) (size 1.524 2.19964) (drill 1.00076) (layers *.Cu *.Mask F.SilkS))
  (pad 5 thru_hole oval (at 5.08 24.13) (size 1.524 2.19964) (drill 1.00076) (layers *.Cu *.Mask F.SilkS))
  (pad 6 thru_hole oval (at 7.62 24.13) (size 1.524 2.19964) (drill 1.00076) (layers *.Cu *.Mask F.SilkS))
  (pad 7 thru_hole oval (at 10.16 24.13) (size 1.524 2.19964) (drill 1.00076) (layers *.Cu *.Mask F.SilkS))
  (pad 8 thru_hole oval (at 12.7 24.13) (size 1.524 2.19964) (drill 1.00076) (layers *.Cu *.Mask F.SilkS))
  (pad 9 thru_hole oval (at 17.78 24.13) (size 1.524 2.19964) (drill 1.00076) (layers *.Cu *.Mask F.SilkS))
  (pad 10 thru_hole oval (at 20.32 24.13) (size 1.524 2.19964) (drill 1.00076) (layers *.Cu *.Mask F.SilkS))
  (pad 11 thru_hole oval (at 22.86 24.13) (size 1.524 2.19964) (drill 1.00076) (layers *.Cu *.Mask F.SilkS))
  (pad 12 thru_hole oval (at 25.4 24.13) (size 1.524 2.19964) (drill 1.00076) (layers *.Cu *.Mask F.SilkS))
  (pad 13 thru_hole oval (at 27.94 24.13) (size 1.524 2.19964) (drill 1.00076) (layers *.Cu *.Mask F.SilkS))
  (pad 14 thru_hole oval (at 30.48 24.13) (size 1.524 2.19964) (drill 1.00076) (layers *.Cu *.Mask F.SilkS))
  (pad "" np_thru_hole circle (at -19.05 24.13) (size 3.19786 3.19786) (drill 3.19786) (layers *.Cu *.Mask F.SilkS))
  (pad "" np_thru_hole circle (at 33.02 19.05) (size 3.19786 3.19786) (drill 3.19786) (layers *.Cu *.Mask F.SilkS))
  (pad 15 thru_hole oval (at 30.48 -24.13) (size 1.524 2.1971) (drill 0.99822) (layers *.Cu *.Mask F.SilkS))
  (pad 16 thru_hole oval (at 27.94 -24.13) (size 1.524 2.1971) (drill 0.99822) (layers *.Cu *.Mask F.SilkS))
  (pad 17 thru_hole oval (at 25.4 -24.13) (size 1.524 2.1971) (drill 0.99822) (layers *.Cu *.Mask F.SilkS))
  (pad 18 thru_hole oval (at 22.86 -24.13) (size 1.524 2.1971) (drill 0.99822) (layers *.Cu *.Mask F.SilkS))
  (pad 19 thru_hole oval (at 20.32 -24.13) (size 1.524 2.1971) (drill 0.99822) (layers *.Cu *.Mask F.SilkS))
  (pad 20 thru_hole oval (at 17.78 -24.13) (size 1.524 2.1971) (drill 0.99822) (layers *.Cu *.Mask F.SilkS))
  (pad 21 thru_hole oval (at 15.24 -24.13) (size 1.524 2.1971) (drill 0.99822) (layers *.Cu *.Mask F.SilkS))
  (pad 22 thru_hole oval (at 12.7 -24.13) (size 1.524 2.1971) (drill 0.99822) (layers *.Cu *.Mask F.SilkS))
  (pad 23 thru_hole oval (at 8.636 -24.13) (size 1.524 2.1971) (drill 0.99822) (layers *.Cu *.Mask F.SilkS))
  (pad 24 thru_hole oval (at 6.096 -24.13) (size 1.524 2.1971) (drill 0.99822) (layers *.Cu *.Mask F.SilkS))
  (pad 25 thru_hole oval (at 3.556 -24.13) (size 1.524 2.1971) (drill 0.99822) (layers *.Cu *.Mask F.SilkS))
  (pad 26 thru_hole oval (at 1.016 -24.13) (size 1.524 2.1971) (drill 0.99822) (layers *.Cu *.Mask F.SilkS))
  (pad 27 thru_hole oval (at -1.524 -24.13) (size 1.524 2.1971) (drill 0.99822) (layers *.Cu *.Mask F.SilkS))
  (pad 28 thru_hole oval (at -4.064 -24.13) (size 1.524 2.1971) (drill 0.99822) (layers *.Cu *.Mask F.SilkS))
  (pad 29 thru_hole oval (at -6.604 -24.13) (size 1.524 2.1971) (drill 0.99822) (layers *.Cu *.Mask F.SilkS))
  (pad 30 thru_hole oval (at -9.14146 -24.13) (size 1.524 2.1971) (drill 0.99822) (layers *.Cu *.Mask F.SilkS))
  (pad "" np_thru_hole circle (at -17.78 -24.13) (size 3.19786 3.19786) (drill 3.19786) (layers *.Cu *.Mask F.SilkS))
  (pad 31 thru_hole oval (at -11.684 -24.13) (size 1.524 2.1971) (drill 0.99822) (layers *.Cu *.Mask F.SilkS))
  (pad 32 thru_hole oval (at -14.224 -24.13) (size 1.524 2.1971) (drill 0.99822) (layers *.Cu *.Mask F.SilkS))
  (pad "" np_thru_hole circle (at 33.02 -8.89) (size 3.19786 3.19786) (drill 3.19786) (layers *.Cu *.Mask F.SilkS))
  (model walter/conn_misc/arduino_header.wrl
    (at (xyz 0 0 0))
    (scale (xyz 1 1 1))
    (rotate (xyz 0 0 0))
  )
)
