PCBNEW-LibModule-V1  mar 05 ago 2014 17:04:40 CEST
# encoding utf-8
Units mm
$INDEX
6p4c
6p6c
8p8c
arduino_header
arduino_mega_header
arduino_nano_header
arduino_pin_socket_8
dc_socket
dc_socket_rh
microsd_socket
molex_6p6c
sd_socket
stm32f0_discovery_header
stm32f3_discovery_header
stm32f4_discovery_header
stm32vl_discovery_header
$EndINDEX
$MODULE 6p4c
Po 0 0 0 15 53E0F1DC 00000000 ~~
Li 6p4c
Cd 6p4c socket
Sc 0
AR 6p4c
Op 0 0 0
T0 0 -11.99896 1.524 1.524 0 0.3048 N V 21 N "J***"
T1 0 12.49934 1.524 1.524 0 0.3048 N V 21 N "6p4c"
DS 4.0005 0 4.0005 10.50036 0.381 21
DS -4.0005 10.50036 -4.0005 0 0.381 21
DS 1.99898 10.50036 1.99898 0 0.381 21
DS -5.00126 0 -5.00126 10.50036 0.381 21
DS -5.00126 0 5.00126 0 0.381 21
DS 5.00126 0 5.00126 10.50036 0.381 21
DS -1.99898 10.50036 -1.99898 0 0.381 21
DS 7.69874 10.50036 -7.69874 10.50036 0.381 21
DS -7.69874 10.50036 -7.69874 -10.20064 0.381 21
DS -7.69874 -10.20064 7.69874 -10.20064 0.381 21
DS 7.69874 -10.20064 7.69874 10.50036 0.381 21
$PAD
Sh "" C 3.2004 3.2004 0 0 0
Dr 3.2004 0 0
At HOLE N 00E0FFFF
Ne 0 ""
Po -5.08 0
$EndPAD
$PAD
Sh "" C 3.2004 3.2004 0 0 0
Dr 3.2004 0 0
At HOLE N 00E0FFFF
Ne 0 ""
Po 5.08 0
$EndPAD
$PAD
Sh "4" C 1.50114 1.50114 0 0 0
Dr 0.89916 0 0
At STD N 00E0FFFF
Ne 0 ""
Po 1.905 -8.89
$EndPAD
$PAD
Sh "3" C 1.50114 1.50114 0 0 0
Dr 0.89916 0 0
At STD N 00E0FFFF
Ne 0 ""
Po 0.635 -6.35
$EndPAD
$PAD
Sh "2" C 1.50114 1.50114 0 0 0
Dr 0.89916 0 0
At STD N 00E0FFFF
Ne 0 ""
Po -0.635 -8.89
$EndPAD
$PAD
Sh "1" C 1.50114 1.50114 0 0 0
Dr 0.89916 0 0
At STD N 00E0FFFF
Ne 0 ""
Po -1.905 -6.35
$EndPAD
$SHAPE3D
Na "walter/conn_misc/6p4c.wrl"
Sc 1 1 1
Of 0 0 0
Ro 0 0 0
$EndSHAPE3D
$EndMODULE 6p4c
$MODULE 6p6c
Po 0 0 0 15 53E0F1F1 00000000 ~~
Li 6p6c
Cd 6p6c socket
Sc 0
AR 6p6c
Op 0 0 0
T0 0 -11.99896 1.524 1.524 0 0.3048 N V 21 N "J***"
T1 0 12.49934 1.524 1.524 0 0.3048 N V 21 N "6p6c"
DS 4.0005 0 4.0005 10.50036 0.381 21
DS -4.0005 10.50036 -4.0005 0 0.381 21
DS 1.99898 10.50036 1.99898 0 0.381 21
DS -5.00126 0 -5.00126 10.50036 0.381 21
DS -5.00126 0 5.00126 0 0.381 21
DS 5.00126 0 5.00126 10.50036 0.381 21
DS -1.99898 10.50036 -1.99898 0 0.381 21
DS 7.69874 10.50036 -7.69874 10.50036 0.381 21
DS -7.69874 10.50036 -7.69874 -10.20064 0.381 21
DS -7.69874 -10.20064 7.69874 -10.20064 0.381 21
DS 7.69874 -10.20064 7.69874 10.50036 0.381 21
$PAD
Sh "" C 3.2004 3.2004 0 0 0
Dr 3.2004 0 0
At HOLE N 00E0FFFF
Ne 0 ""
Po -5.08 0
$EndPAD
$PAD
Sh "" C 3.2004 3.2004 0 0 0
Dr 3.2004 0 0
At HOLE N 00E0FFFF
Ne 0 ""
Po 5.08 0
$EndPAD
$PAD
Sh "6" C 1.50114 1.50114 0 0 0
Dr 0.89916 0 0
At STD N 00E0FFFF
Ne 0 ""
Po 3.175 -8.89
$EndPAD
$PAD
Sh "5" C 1.50114 1.50114 0 0 0
Dr 0.89916 0 0
At STD N 00E0FFFF
Ne 0 ""
Po 1.905 -6.35
$EndPAD
$PAD
Sh "4" C 1.50114 1.50114 0 0 0
Dr 0.89916 0 0
At STD N 00E0FFFF
Ne 0 ""
Po 0.635 -8.89
$EndPAD
$PAD
Sh "3" C 1.50114 1.50114 0 0 0
Dr 0.89916 0 0
At STD N 00E0FFFF
Ne 0 ""
Po -0.635 -6.35
$EndPAD
$PAD
Sh "2" C 1.50114 1.50114 0 0 0
Dr 0.89916 0 0
At STD N 00E0FFFF
Ne 0 ""
Po -1.905 -8.89
$EndPAD
$PAD
Sh "1" C 1.50114 1.50114 0 0 0
Dr 0.89916 0 0
At STD N 00E0FFFF
Ne 0 ""
Po -3.175 -6.35
$EndPAD
$SHAPE3D
Na "walter/conn_misc/6p6c.wrl"
Sc 1 1 1
Of 0 0 0
Ro 0 0 0
$EndSHAPE3D
$EndMODULE 6p6c
$MODULE 8p8c
Po 0 0 0 15 53E0F25F 00000000 ~~
Li 8p8c
Cd 8p8c socket
Sc 0
AR 8p8c
Op 0 0 0
T0 0 -11.50112 1.524 1.524 0 0.3048 N V 21 N "J***"
T1 0 12.49934 1.524 1.524 0 0.3048 N V 21 N "8p8c"
DS -7.59968 -9.90092 7.59968 -9.90092 0.381 21
DS -7.59968 10.80008 7.59968 10.80008 0.381 21
DS 4.0005 0.29972 4.0005 10.80008 0.381 21
DS -4.0005 10.80008 -4.0005 0.29972 0.381 21
DS 1.99898 10.80008 1.99898 0.29972 0.381 21
DS -5.00126 0.29972 -5.00126 10.80008 0.381 21
DS -5.00126 0.29972 5.00126 0.29972 0.381 21
DS 5.00126 0.29972 5.00126 10.80008 0.381 21
DS -1.99898 10.80008 -1.99898 0.29972 0.381 21
DS -7.59968 10.80008 -7.59968 -9.90092 0.381 21
DS 7.59968 -9.90092 7.59968 10.80008 0.381 21
$PAD
Sh "" C 3.2004 3.2004 0 0 0
Dr 3.2004 0 0
At HOLE N 00E0FFFF
Ne 0 ""
Po -5.715 0
$EndPAD
$PAD
Sh "" C 3.2004 3.2004 0 0 0
Dr 3.2004 0 0
At HOLE N 00E0FFFF
Ne 0 ""
Po 5.715 0
$EndPAD
$PAD
Sh "8" C 1.50114 1.50114 0 0 0
Dr 0.89916 0 0
At STD N 00E0FFFF
Ne 0 ""
Po 4.445 -8.89
$EndPAD
$PAD
Sh "7" C 1.50114 1.50114 0 0 0
Dr 0.89916 0 0
At STD N 00E0FFFF
Ne 0 ""
Po 3.175 -6.35
$EndPAD
$PAD
Sh "6" C 1.50114 1.50114 0 0 0
Dr 0.89916 0 0
At STD N 00E0FFFF
Ne 0 ""
Po 1.905 -8.89
$EndPAD
$PAD
Sh "5" C 1.50114 1.50114 0 0 0
Dr 0.89916 0 0
At STD N 00E0FFFF
Ne 0 ""
Po 0.635 -6.35
$EndPAD
$PAD
Sh "4" C 1.50114 1.50114 0 0 0
Dr 0.89916 0 0
At STD N 00E0FFFF
Ne 0 ""
Po -0.635 -8.89
$EndPAD
$PAD
Sh "3" C 1.50114 1.50114 0 0 0
Dr 0.89916 0 0
At STD N 00E0FFFF
Ne 0 ""
Po -1.905 -6.35
$EndPAD
$PAD
Sh "2" C 1.50114 1.50114 0 0 0
Dr 0.89916 0 0
At STD N 00E0FFFF
Ne 0 ""
Po -3.175 -8.89
$EndPAD
$PAD
Sh "1" C 1.50114 1.50114 0 0 0
Dr 0.89916 0 0
At STD N 00E0FFFF
Ne 0 ""
Po -4.445 -6.35
$EndPAD
$SHAPE3D
Na "walter/conn_misc/8p8c.wrl"
Sc 1 1 1
Of 0 0 0
Ro 0 0 0
$EndSHAPE3D
$EndMODULE 8p8c
$MODULE arduino_header
Po 0 0 0 15 50D0FA34 00000000 ~~
Li arduino_header
Cd Arduino Header
Kw Arduino
Sc 0
AR pin_strip_20
Op 0 0 0
T0 0 1.27 1.016 1.016 0 0.2032 N V 21 N "Arduino_Header"
T1 0 -1.27 1.016 0.889 0 0.2032 N I 21 N "Val**"
DS 31.75 -26.67 -31.75 -26.67 0.381 21
DS -31.75 26.67 31.75 26.67 0.381 21
DS 35.56 21.59 35.56 -11.43 0.381 21
DS 35.56 21.59 33.02 24.13 0.381 21
DS 33.02 24.13 33.02 25.4 0.381 21
DS 31.75 25.4 16.51 25.4 0.381 21
DS 16.51 22.86 31.75 22.86 0.381 21
DS 33.02 -25.4 33.02 -13.97 0.381 21
DS 33.02 -13.97 35.56 -11.43 0.381 21
DS 31.75 -26.67 33.02 -25.4 0.381 21
DA -31.75 -25.4 -33.02 -25.4 900 0.381 21
DS -33.02 25.4 -33.02 -25.4 0.381 21
DA -31.75 25.4 -31.75 26.67 900 0.381 21
DA 31.75 25.4 33.02 25.4 900 0.381 21
DS -10.414 -25.4 -15.494 -25.4 0.381 21
DS -15.494 -25.4 -15.494 -22.86 0.381 21
DS -15.494 -22.86 -10.414 -22.86 0.381 21
DC -17.78 -24.13 -15.875 -24.13 0.381 21
DC 33.02 -8.89 34.925 -8.89 0.381 21
DS 9.906 -22.86 -10.414 -22.86 0.381 21
DS -10.414 -22.86 -10.414 -25.4 0.381 21
DS 9.906 -22.86 9.906 -25.4 0.381 21
DS 9.906 -25.4 -10.414 -25.4 0.381 21
DS 31.75 -25.4 31.75 -22.86 0.381 21
DS 31.75 -22.86 11.43 -22.86 0.381 21
DS 11.43 -22.86 11.43 -25.4 0.381 21
DS 11.43 -25.4 31.75 -25.4 0.381 21
DC 33.02 19.05 34.925 19.05 0.381 21
DC -19.05 24.13 -17.145 24.13 0.381 21
DS -6.35 25.4 13.97 25.4 0.381 21
DS 13.97 22.86 -6.35 22.86 0.381 21
DS 31.75 25.4 31.75 22.86 0.381 21
DS 16.51 22.86 16.51 25.4 0.381 21
DS 13.97 22.86 13.97 25.4 0.381 21
DS -6.35 25.4 -6.35 22.86 0.381 21
$PAD
Sh "1" O 1.524 2.19964 0 0 0
Dr 1.00076 0 0
At STD N 00E0FFFF
Ne 0 ""
Po -5.08 24.13
$EndPAD
$PAD
Sh "2" O 1.524 2.19964 0 0 0
Dr 1.00076 0 0
At STD N 00E0FFFF
Ne 0 ""
Po -2.54 24.13
$EndPAD
$PAD
Sh "3" O 1.524 2.19964 0 0 0
Dr 1.00076 0 0
At STD N 00E0FFFF
Ne 0 ""
Po 0 24.13
$EndPAD
$PAD
Sh "4" O 1.524 2.19964 0 0 0
Dr 1.00076 0 0
At STD N 00E0FFFF
Ne 0 ""
Po 2.54 24.13
$EndPAD
$PAD
Sh "5" O 1.524 2.19964 0 0 0
Dr 1.00076 0 0
At STD N 00E0FFFF
Ne 0 ""
Po 5.08 24.13
$EndPAD
$PAD
Sh "6" O 1.524 2.19964 0 0 0
Dr 1.00076 0 0
At STD N 00E0FFFF
Ne 0 ""
Po 7.62 24.13
$EndPAD
$PAD
Sh "7" O 1.524 2.19964 0 0 0
Dr 1.00076 0 0
At STD N 00E0FFFF
Ne 0 ""
Po 10.16 24.13
$EndPAD
$PAD
Sh "8" O 1.524 2.19964 0 0 0
Dr 1.00076 0 0
At STD N 00E0FFFF
Ne 0 ""
Po 12.7 24.13
$EndPAD
$PAD
Sh "9" O 1.524 2.19964 0 0 0
Dr 1.00076 0 0
At STD N 00E0FFFF
Ne 0 ""
Po 17.78 24.13
$EndPAD
$PAD
Sh "10" O 1.524 2.19964 0 0 0
Dr 1.00076 0 0
At STD N 00E0FFFF
Ne 0 ""
Po 20.32 24.13
$EndPAD
$PAD
Sh "11" O 1.524 2.19964 0 0 0
Dr 1.00076 0 0
At STD N 00E0FFFF
Ne 0 ""
Po 22.86 24.13
$EndPAD
$PAD
Sh "12" O 1.524 2.19964 0 0 0
Dr 1.00076 0 0
At STD N 00E0FFFF
Ne 0 ""
Po 25.4 24.13
$EndPAD
$PAD
Sh "13" O 1.524 2.19964 0 0 0
Dr 1.00076 0 0
At STD N 00E0FFFF
Ne 0 ""
Po 27.94 24.13
$EndPAD
$PAD
Sh "14" O 1.524 2.19964 0 0 0
Dr 1.00076 0 0
At STD N 00E0FFFF
Ne 0 ""
Po 30.48 24.13
$EndPAD
$PAD
Sh "" C 3.19786 3.19786 0 0 0
Dr 3.19786 0 0
At HOLE N 00E0FFFF
Ne 0 ""
Po -19.05 24.13
$EndPAD
$PAD
Sh "" C 3.19786 3.19786 0 0 0
Dr 3.19786 0 0
At HOLE N 00E0FFFF
Ne 0 ""
Po 33.02 19.05
$EndPAD
$PAD
Sh "15" O 1.524 2.1971 0 0 0
Dr 0.99822 0 0
At STD N 00E0FFFF
Ne 0 ""
Po 30.48 -24.13
$EndPAD
$PAD
Sh "16" O 1.524 2.1971 0 0 0
Dr 0.99822 0 0
At STD N 00E0FFFF
Ne 0 ""
Po 27.94 -24.13
$EndPAD
$PAD
Sh "17" O 1.524 2.1971 0 0 0
Dr 0.99822 0 0
At STD N 00E0FFFF
Ne 0 ""
Po 25.4 -24.13
$EndPAD
$PAD
Sh "18" O 1.524 2.1971 0 0 0
Dr 0.99822 0 0
At STD N 00E0FFFF
Ne 0 ""
Po 22.86 -24.13
$EndPAD
$PAD
Sh "19" O 1.524 2.1971 0 0 0
Dr 0.99822 0 0
At STD N 00E0FFFF
Ne 0 ""
Po 20.32 -24.13
$EndPAD
$PAD
Sh "20" O 1.524 2.1971 0 0 0
Dr 0.99822 0 0
At STD N 00E0FFFF
Ne 0 ""
Po 17.78 -24.13
$EndPAD
$PAD
Sh "21" O 1.524 2.1971 0 0 0
Dr 0.99822 0 0
At STD N 00E0FFFF
Ne 0 ""
Po 15.24 -24.13
$EndPAD
$PAD
Sh "22" O 1.524 2.1971 0 0 0
Dr 0.99822 0 0
At STD N 00E0FFFF
Ne 0 ""
Po 12.7 -24.13
$EndPAD
$PAD
Sh "23" O 1.524 2.1971 0 0 0
Dr 0.99822 0 0
At STD N 00E0FFFF
Ne 0 ""
Po 8.636 -24.13
$EndPAD
$PAD
Sh "24" O 1.524 2.1971 0 0 0
Dr 0.99822 0 0
At STD N 00E0FFFF
Ne 0 ""
Po 6.096 -24.13
$EndPAD
$PAD
Sh "25" O 1.524 2.1971 0 0 0
Dr 0.99822 0 0
At STD N 00E0FFFF
Ne 0 ""
Po 3.556 -24.13
$EndPAD
$PAD
Sh "26" O 1.524 2.1971 0 0 0
Dr 0.99822 0 0
At STD N 00E0FFFF
Ne 0 ""
Po 1.016 -24.13
$EndPAD
$PAD
Sh "27" O 1.524 2.1971 0 0 0
Dr 0.99822 0 0
At STD N 00E0FFFF
Ne 0 ""
Po -1.524 -24.13
$EndPAD
$PAD
Sh "28" O 1.524 2.1971 0 0 0
Dr 0.99822 0 0
At STD N 00E0FFFF
Ne 0 ""
Po -4.064 -24.13
$EndPAD
$PAD
Sh "29" O 1.524 2.1971 0 0 0
Dr 0.99822 0 0
At STD N 00E0FFFF
Ne 0 ""
Po -6.604 -24.13
$EndPAD
$PAD
Sh "30" O 1.524 2.1971 0 0 0
Dr 0.99822 0 0
At STD N 00E0FFFF
Ne 0 ""
Po -9.14146 -24.13
$EndPAD
$PAD
Sh "" C 3.19786 3.19786 0 0 0
Dr 3.19786 0 0
At HOLE N 00E0FFFF
Ne 0 ""
Po -17.78 -24.13
$EndPAD
$PAD
Sh "31" O 1.524 2.1971 0 0 0
Dr 0.99822 0 0
At STD N 00E0FFFF
Ne 0 ""
Po -11.684 -24.13
$EndPAD
$PAD
Sh "32" O 1.524 2.1971 0 0 0
Dr 0.99822 0 0
At STD N 00E0FFFF
Ne 0 ""
Po -14.224 -24.13
$EndPAD
$PAD
Sh "" C 3.19786 3.19786 0 0 0
Dr 3.19786 0 0
At HOLE N 00E0FFFF
Ne 0 ""
Po 33.02 -8.89
$EndPAD
$SHAPE3D
Na "walter/conn_misc/arduino_header.wrl"
Sc 1 1 1
Of 0 0 0
Ro 0 0 0
$EndSHAPE3D
$EndMODULE arduino_header
$MODULE arduino_mega_header
Po 0 0 0 15 50D0FA49 00000000 ~~
Li arduino_mega_header
Cd Arduino Mega/Due Header
Kw Arduino
Sc 0
AR pin_strip_20
Op 0 0 0
T0 0 1.27 1.016 1.016 0 0.2032 N V 21 N "Arduino_Mega_Header"
T1 0 -1.27 1.016 0.889 0 0.2032 N I 21 N "Val**"
DA -48.26 -25.4 -49.53 -25.4 900 0.381 21
DS -48.26 -26.67 48.26 -26.67 0.381 21
DS -49.53 25.4 -49.53 -25.4 0.381 21
DA -48.26 25.4 -48.26 26.67 900 0.381 21
DS -48.26 26.67 48.26 26.67 0.381 21
DA 48.26 25.4 49.53 25.4 900 0.381 21
DS 48.26 -26.67 49.53 -25.4 0.381 21
DS 49.53 -25.4 49.53 -13.97 0.381 21
DS 49.53 -13.97 50.8 -12.7 0.381 21
DS 50.8 -12.7 50.8 22.86 0.381 21
DS 50.8 22.86 49.53 24.13 0.381 21
DS 49.53 24.13 49.53 25.4 0.381 21
DS -26.924 -25.4 -32.004 -25.4 0.381 21
DS -32.004 -25.4 -32.004 -22.86 0.381 21
DS -32.004 -22.86 -26.924 -22.86 0.381 21
DC -34.29 -24.13 -32.385 -24.13 0.381 21
DC 16.51 -8.89 18.415 -8.89 0.381 21
DC 40.64 -24.13 42.545 -24.13 0.381 21
DS -6.604 -22.86 -26.924 -22.86 0.381 21
DS -26.924 -22.86 -26.924 -25.4 0.381 21
DS -6.604 -22.86 -6.604 -25.4 0.381 21
DS -6.604 -25.4 -26.924 -25.4 0.381 21
DS 15.24 -25.4 15.24 -22.86 0.381 21
DS 15.24 -22.86 -5.08 -22.86 0.381 21
DS -5.08 -22.86 -5.08 -25.4 0.381 21
DS -5.08 -25.4 15.24 -25.4 0.381 21
DS 38.1 -25.4 17.78 -25.4 0.381 21
DS 17.78 -25.4 17.78 -22.86 0.381 21
DS 17.78 -22.86 38.1 -22.86 0.381 21
DS 38.1 -22.86 38.1 -25.4 0.381 21
DS 43.18 20.32 48.26 20.32 0.381 21
DS 48.26 20.32 48.26 -25.4 0.381 21
DS 48.26 -25.4 43.18 -25.4 0.381 21
DS 43.18 -25.4 43.18 20.32 0.381 21
DC 46.99 24.13 48.895 24.13 0.381 21
DC 16.51 19.05 18.415 19.05 0.381 21
DC -35.56 24.13 -33.655 24.13 0.381 21
DS 43.18 25.4 22.86 25.4 0.381 21
DS 22.86 22.86 43.18 22.86 0.381 21
DS 20.32 22.86 0 22.86 0.381 21
DS 0 25.4 20.32 25.4 0.381 21
DS -22.86 25.4 -2.54 25.4 0.381 21
DS -2.54 22.86 -22.86 22.86 0.381 21
DS 20.32 25.4 20.32 22.86 0.381 21
DS 22.86 25.4 22.86 22.86 0.381 21
DS 0 22.86 0 25.4 0.381 21
DS -2.54 22.86 -2.54 25.4 0.381 21
DS 43.18 22.86 43.18 25.4 0.381 21
DS -22.86 25.4 -22.86 22.86 0.381 21
$PAD
Sh "1" O 1.524 2.19964 0 0 0
Dr 1.00076 0 0
At STD N 00E0FFFF
Ne 0 ""
Po -21.59 24.13
$EndPAD
$PAD
Sh "2" O 1.524 2.19964 0 0 0
Dr 1.00076 0 0
At STD N 00E0FFFF
Ne 0 ""
Po -19.05 24.13
$EndPAD
$PAD
Sh "3" O 1.524 2.19964 0 0 0
Dr 1.00076 0 0
At STD N 00E0FFFF
Ne 0 ""
Po -16.51 24.13
$EndPAD
$PAD
Sh "4" O 1.524 2.19964 0 0 0
Dr 1.00076 0 0
At STD N 00E0FFFF
Ne 0 ""
Po -13.97 24.13
$EndPAD
$PAD
Sh "5" O 1.524 2.19964 0 0 0
Dr 1.00076 0 0
At STD N 00E0FFFF
Ne 0 ""
Po -11.43 24.13
$EndPAD
$PAD
Sh "6" O 1.524 2.19964 0 0 0
Dr 1.00076 0 0
At STD N 00E0FFFF
Ne 0 ""
Po -8.89 24.13
$EndPAD
$PAD
Sh "7" O 1.524 2.19964 0 0 0
Dr 1.00076 0 0
At STD N 00E0FFFF
Ne 0 ""
Po -6.35 24.13
$EndPAD
$PAD
Sh "8" O 1.524 2.19964 0 0 0
Dr 1.00076 0 0
At STD N 00E0FFFF
Ne 0 ""
Po -3.81 24.13
$EndPAD
$PAD
Sh "9" O 1.524 2.19964 0 0 0
Dr 1.00076 0 0
At STD N 00E0FFFF
Ne 0 ""
Po 1.27 24.13
$EndPAD
$PAD
Sh "10" O 1.524 2.19964 0 0 0
Dr 1.00076 0 0
At STD N 00E0FFFF
Ne 0 ""
Po 3.81 24.13
$EndPAD
$PAD
Sh "11" O 1.524 2.19964 0 0 0
Dr 1.00076 0 0
At STD N 00E0FFFF
Ne 0 ""
Po 6.35 24.13
$EndPAD
$PAD
Sh "12" O 1.524 2.19964 0 0 0
Dr 1.00076 0 0
At STD N 00E0FFFF
Ne 0 ""
Po 8.89 24.13
$EndPAD
$PAD
Sh "13" O 1.524 2.19964 0 0 0
Dr 1.00076 0 0
At STD N 00E0FFFF
Ne 0 ""
Po 11.43 24.13
$EndPAD
$PAD
Sh "14" O 1.524 2.19964 0 0 0
Dr 1.00076 0 0
At STD N 00E0FFFF
Ne 0 ""
Po 13.97 24.13
$EndPAD
$PAD
Sh "15" O 1.524 2.19964 0 0 0
Dr 1.00076 0 0
At STD N 00E0FFFF
Ne 0 ""
Po 16.51 24.13
$EndPAD
$PAD
Sh "16" O 1.524 2.19964 0 0 0
Dr 1.00076 0 0
At STD N 00E0FFFF
Ne 0 ""
Po 19.05 24.13
$EndPAD
$PAD
Sh "17" O 1.524 2.19964 0 0 0
Dr 1.00076 0 0
At STD N 00E0FFFF
Ne 0 ""
Po 24.13 24.13
$EndPAD
$PAD
Sh "18" O 1.524 2.19964 0 0 0
Dr 1.00076 0 0
At STD N 00E0FFFF
Ne 0 ""
Po 26.67 24.13
$EndPAD
$PAD
Sh "19" O 1.524 2.19964 0 0 0
Dr 1.00076 0 0
At STD N 00E0FFFF
Ne 0 ""
Po 29.21 24.13
$EndPAD
$PAD
Sh "20" O 1.524 2.1971 0 0 0
Dr 1.00076 0 0
At STD N 00E0FFFF
Ne 0 ""
Po 31.75 24.13
$EndPAD
$PAD
Sh "21" O 1.524 2.1971 0 0 0
Dr 1.00076 0 0
At STD N 00E0FFFF
Ne 0 ""
Po 34.29 24.13
$EndPAD
$PAD
Sh "22" O 1.524 2.1971 0 0 0
Dr 1.00076 0 0
At STD N 00E0FFFF
Ne 0 ""
Po 36.83 24.13
$EndPAD
$PAD
Sh "23" O 1.524 2.1971 0 0 0
Dr 1.00076 0 0
At STD N 00E0FFFF
Ne 0 ""
Po 39.37 24.13
$EndPAD
$PAD
Sh "24" O 1.524 2.1971 0 0 0
Dr 1.00076 0 0
At STD N 00E0FFFF
Ne 0 ""
Po 41.91 24.13
$EndPAD
$PAD
Sh "" C 3.19786 3.19786 0 0 0
Dr 3.19786 0 0
At HOLE N 00E0FFFF
Ne 0 ""
Po -35.56 24.13
$EndPAD
$PAD
Sh "" C 3.19786 3.19786 0 0 0
Dr 3.19786 0 0
At HOLE N 00E0FFFF
Ne 0 ""
Po 16.51 19.05
$EndPAD
$PAD
Sh "" C 3.19786 3.19786 0 0 0
Dr 3.19786 0 0
At HOLE N 00E0FFFF
Ne 0 ""
Po 46.99 24.13
$EndPAD
$PAD
Sh "25" O 1.99898 1.53924 0 0 0
Dr 1.00076 -0.24892 0
At STD N 00E0FFFF
Ne 0 ""
Po 44.45 19.05
$EndPAD
$PAD
Sh "26" O 1.99898 1.53924 0 0 0
Dr 1.00076 -0.24892 0
At STD N 00E0FFFF
Ne 0 ""
Po 44.45 16.51
$EndPAD
$PAD
Sh "27" O 1.99898 1.53924 0 0 0
Dr 1.00076 -0.24892 0
At STD N 00E0FFFF
Ne 0 ""
Po 44.45 13.97
$EndPAD
$PAD
Sh "28" O 1.99898 1.53924 0 0 0
Dr 1.00076 -0.24892 0
At STD N 00E0FFFF
Ne 0 ""
Po 44.45 11.43
$EndPAD
$PAD
Sh "29" O 1.99898 1.53924 0 0 0
Dr 1.00076 -0.24892 0
At STD N 00E0FFFF
Ne 0 ""
Po 44.45 8.89
$EndPAD
$PAD
Sh "30" O 1.99898 1.53924 0 0 0
Dr 1.00076 -0.24892 0
At STD N 00E0FFFF
Ne 0 ""
Po 44.45 6.35
$EndPAD
$PAD
Sh "31" O 1.99898 1.53924 0 0 0
Dr 1.00076 -0.24892 0
At STD N 00E0FFFF
Ne 0 ""
Po 44.45 3.81
$EndPAD
$PAD
Sh "32" O 1.99898 1.53924 0 0 0
Dr 1.00076 -0.24892 0
At STD N 00E0FFFF
Ne 0 ""
Po 44.45 1.27
$EndPAD
$PAD
Sh "33" O 1.99898 1.53924 0 0 0
Dr 1.00076 -0.24892 0
At STD N 00E0FFFF
Ne 0 ""
Po 44.45 -1.27
$EndPAD
$PAD
Sh "34" O 1.99898 1.53924 0 0 0
Dr 1.00076 -0.24892 0
At STD N 00E0FFFF
Ne 0 ""
Po 44.45 -3.81
$EndPAD
$PAD
Sh "35" O 1.99898 1.53924 0 0 0
Dr 1.00076 -0.24892 0
At STD N 00E0FFFF
Ne 0 ""
Po 44.45 -6.35
$EndPAD
$PAD
Sh "36" O 1.99898 1.53924 0 0 0
Dr 1.00076 -0.24892 0
At STD N 00E0FFFF
Ne 0 ""
Po 44.45 -8.89
$EndPAD
$PAD
Sh "37" O 1.99898 1.53924 0 0 0
Dr 1.00076 -0.24892 0
At STD N 00E0FFFF
Ne 0 ""
Po 44.45 -11.43
$EndPAD
$PAD
Sh "38" O 1.99898 1.53924 0 0 0
Dr 1.00076 -0.24892 0
At STD N 00E0FFFF
Ne 0 ""
Po 44.45 -13.97
$EndPAD
$PAD
Sh "39" O 1.99898 1.53924 0 0 0
Dr 1.00076 -0.24892 0
At STD N 00E0FFFF
Ne 0 ""
Po 44.45 -16.51
$EndPAD
$PAD
Sh "40" O 1.99898 1.53924 0 0 0
Dr 1.00076 -0.24892 0
At STD N 00E0FFFF
Ne 0 ""
Po 44.45 -19.05
$EndPAD
$PAD
Sh "41" O 1.99898 1.53924 0 0 0
Dr 1.00076 -0.24892 0
At STD N 00E0FFFF
Ne 0 ""
Po 44.45 -21.59
$EndPAD
$PAD
Sh "42" O 1.99898 1.53924 0 0 0
Dr 1.00076 -0.24892 0
At STD N 00E0FFFF
Ne 0 ""
Po 44.45 -24.13
$EndPAD
$PAD
Sh "43" O 1.99898 1.5367 0 0 0
Dr 1.00076 0.24638 0
At STD N 00E0FFFF
Ne 0 ""
Po 46.99 19.05
$EndPAD
$PAD
Sh "44" O 1.99898 1.5367 0 0 0
Dr 1.00076 0.24638 0
At STD N 00E0FFFF
Ne 0 ""
Po 46.99 16.51
$EndPAD
$PAD
Sh "45" O 1.99898 1.5367 0 0 0
Dr 1.00076 0.24638 0
At STD N 00E0FFFF
Ne 0 ""
Po 46.99 13.97
$EndPAD
$PAD
Sh "46" O 1.99898 1.5367 0 0 0
Dr 1.00076 0.24638 0
At STD N 00E0FFFF
Ne 0 ""
Po 46.99 11.43
$EndPAD
$PAD
Sh "47" O 1.99898 1.5367 0 0 0
Dr 1.00076 0.24638 0
At STD N 00E0FFFF
Ne 0 ""
Po 46.99 8.89
$EndPAD
$PAD
Sh "48" O 1.99898 1.5367 0 0 0
Dr 1.00076 0.24638 0
At STD N 00E0FFFF
Ne 0 ""
Po 46.99 6.35
$EndPAD
$PAD
Sh "49" O 1.99898 1.5367 0 0 0
Dr 1.00076 0.24638 0
At STD N 00E0FFFF
Ne 0 ""
Po 46.99 3.81
$EndPAD
$PAD
Sh "50" O 1.99898 1.5367 0 0 0
Dr 1.00076 0.24638 0
At STD N 00E0FFFF
Ne 0 ""
Po 46.99 1.27
$EndPAD
$PAD
Sh "51" O 1.99898 1.5367 0 0 0
Dr 1.00076 0.24638 0
At STD N 00E0FFFF
Ne 0 ""
Po 46.99 -1.27
$EndPAD
$PAD
Sh "52" O 1.99898 1.5367 0 0 0
Dr 1.00076 0.24638 0
At STD N 00E0FFFF
Ne 0 ""
Po 46.99 -3.81
$EndPAD
$PAD
Sh "53" O 1.99898 1.5367 0 0 0
Dr 1.00076 0.24638 0
At STD N 00E0FFFF
Ne 0 ""
Po 46.99 -6.35
$EndPAD
$PAD
Sh "54" O 1.99898 1.5367 0 0 0
Dr 1.00076 0.24638 0
At STD N 00E0FFFF
Ne 0 ""
Po 46.99 -8.89
$EndPAD
$PAD
Sh "55" O 1.99898 1.5367 0 0 0
Dr 1.00076 0.24638 0
At STD N 00E0FFFF
Ne 0 ""
Po 46.99 -11.43
$EndPAD
$PAD
Sh "56" O 1.99898 1.5367 0 0 0
Dr 1.00076 0.24638 0
At STD N 00E0FFFF
Ne 0 ""
Po 46.99 -13.97
$EndPAD
$PAD
Sh "57" O 1.99898 1.5367 0 0 0
Dr 1.00076 0.24638 0
At STD N 00E0FFFF
Ne 0 ""
Po 46.99 -16.51
$EndPAD
$PAD
Sh "58" O 1.99898 1.5367 0 0 0
Dr 1.00076 0.24638 0
At STD N 00E0FFFF
Ne 0 ""
Po 46.99 -19.05
$EndPAD
$PAD
Sh "59" O 1.99898 1.5367 0 0 0
Dr 1.00076 0.24638 0
At STD N 00E0FFFF
Ne 0 ""
Po 46.99 -21.59
$EndPAD
$PAD
Sh "60" O 1.99898 1.5367 0 0 0
Dr 1.00076 0.24638 0
At STD N 00E0FFFF
Ne 0 ""
Po 46.99 -24.13
$EndPAD
$PAD
Sh "61" O 1.524 2.1971 0 0 0
Dr 1.00076 0 0
At STD N 00E0FFFF
Ne 0 ""
Po 36.83 -24.13
$EndPAD
$PAD
Sh "62" O 1.524 2.1971 0 0 0
Dr 1.00076 0 0
At STD N 00E0FFFF
Ne 0 ""
Po 34.29 -24.13
$EndPAD
$PAD
Sh "63" O 1.524 2.1971 0 0 0
Dr 1.00076 0 0
At STD N 00E0FFFF
Ne 0 ""
Po 31.75 -24.13
$EndPAD
$PAD
Sh "64" O 1.524 2.1971 0 0 0
Dr 1.00076 0 0
At STD N 00E0FFFF
Ne 0 ""
Po 29.21 -24.13
$EndPAD
$PAD
Sh "65" O 1.524 2.1971 0 0 0
Dr 1.00076 0 0
At STD N 00E0FFFF
Ne 0 ""
Po 26.67 -24.13
$EndPAD
$PAD
Sh "66" O 1.524 2.1971 0 0 0
Dr 1.00076 0 0
At STD N 00E0FFFF
Ne 0 ""
Po 24.13 -24.13
$EndPAD
$PAD
Sh "67" O 1.524 2.1971 0 0 0
Dr 1.00076 0 0
At STD N 00E0FFFF
Ne 0 ""
Po 21.59 -24.13
$EndPAD
$PAD
Sh "68" O 1.524 2.1971 0 0 0
Dr 1.00076 0 0
At STD N 00E0FFFF
Ne 0 ""
Po 19.05 -24.13
$EndPAD
$PAD
Sh "69" O 1.524 2.1971 0 0 0
Dr 1.00076 0 0
At STD N 00E0FFFF
Ne 0 ""
Po 13.97 -24.13
$EndPAD
$PAD
Sh "70" O 1.524 2.1971 0 0 0
Dr 1.00076 0 0
At STD N 00E0FFFF
Ne 0 ""
Po 11.43 -24.13
$EndPAD
$PAD
Sh "71" O 1.524 2.1971 0 0 0
Dr 1.00076 0 0
At STD N 00E0FFFF
Ne 0 ""
Po 8.89 -24.13
$EndPAD
$PAD
Sh "72" O 1.524 2.1971 0 0 0
Dr 1.00076 0 0
At STD N 00E0FFFF
Ne 0 ""
Po 6.35 -24.13
$EndPAD
$PAD
Sh "73" O 1.524 2.1971 0 0 0
Dr 1.00076 0 0
At STD N 00E0FFFF
Ne 0 ""
Po 3.81 -24.13
$EndPAD
$PAD
Sh "74" O 1.524 2.1971 0 0 0
Dr 1.00076 0 0
At STD N 00E0FFFF
Ne 0 ""
Po 1.27 -24.13
$EndPAD
$PAD
Sh "75" O 1.524 2.1971 0 0 0
Dr 1.00076 0 0
At STD N 00E0FFFF
Ne 0 ""
Po -1.27 -24.13
$EndPAD
$PAD
Sh "76" O 1.524 2.1971 0 0 0
Dr 1.00076 0 0
At STD N 00E0FFFF
Ne 0 ""
Po -3.81 -24.13
$EndPAD
$PAD
Sh "77" O 1.524 2.1971 0 0 0
Dr 1.00076 0 0
At STD N 00E0FFFF
Ne 0 ""
Po -7.874 -24.13
$EndPAD
$PAD
Sh "78" O 1.524 2.1971 0 0 0
Dr 1.00076 0 0
At STD N 00E0FFFF
Ne 0 ""
Po -10.414 -24.13
$EndPAD
$PAD
Sh "79" O 1.524 2.1971 0 0 0
Dr 1.00076 0 0
At STD N 00E0FFFF
Ne 0 ""
Po -12.954 -24.13
$EndPAD
$PAD
Sh "80" O 1.524 2.1971 0 0 0
Dr 1.00076 0 0
At STD N 00E0FFFF
Ne 0 ""
Po -15.494 -24.13
$EndPAD
$PAD
Sh "81" O 1.524 2.1971 0 0 0
Dr 1.00076 0 0
At STD N 00E0FFFF
Ne 0 ""
Po -18.034 -24.13
$EndPAD
$PAD
Sh "82" O 1.524 2.1971 0 0 0
Dr 1.00076 0 0
At STD N 00E0FFFF
Ne 0 ""
Po -20.574 -24.13
$EndPAD
$PAD
Sh "83" O 1.524 2.1971 0 0 0
Dr 1.00076 0 0
At STD N 00E0FFFF
Ne 0 ""
Po -23.114 -24.13
$EndPAD
$PAD
Sh "84" O 1.524 2.1971 0 0 0
Dr 1.00076 0 0
At STD N 00E0FFFF
Ne 0 ""
Po -25.654 -24.13
$EndPAD
$PAD
Sh "" C 3.19786 3.19786 0 0 0
Dr 3.19786 0 0
At HOLE N 00E0FFFF
Ne 0 ""
Po 40.64 -24.13
$EndPAD
$PAD
Sh "" C 3.19786 3.19786 0 0 0
Dr 3.19786 0 0
At HOLE N 00E0FFFF
Ne 0 ""
Po -34.29 -24.13
$EndPAD
$PAD
Sh "85" O 1.524 2.1971 0 0 0
Dr 1.00076 0 0
At STD N 00E0FFFF
Ne 0 ""
Po -28.194 -24.13
$EndPAD
$PAD
Sh "86" O 1.524 2.1971 0 0 0
Dr 1.00076 0 0
At STD N 00E0FFFF
Ne 0 ""
Po -30.734 -24.13
$EndPAD
$PAD
Sh "" C 3.19786 3.19786 0 0 0
Dr 3.19786 0 0
At HOLE N 00E0FFFF
Ne 0 ""
Po 16.51 -8.89
$EndPAD
$SHAPE3D
Na "walter/conn_misc/arduino_mega_header.wrl"
Sc 1 1 1
Of 0 0 0
Ro 0 0 0
$EndSHAPE3D
$EndMODULE arduino_mega_header
$MODULE arduino_nano_header
Po 0 0 0 15 50D22E09 00000000 ~~
Li arduino_nano_header
Cd Arduino Nano Header
Kw Arduino
Sc 0
AR pin_strip_20
Op 0 0 0
T0 0 1.27 1.016 1.016 0 0.2032 N V 21 N "Arduino_Nano_Header"
T1 0 -1.27 1.016 0.889 0 0.2032 N I 21 N "Val**"
DS -16.51 -1.27 -21.59 -1.27 0.381 21
DS -16.51 1.27 -21.59 1.27 0.381 21
DS -19.05 -3.81 -19.05 3.81 0.381 21
DS -21.59 -3.81 -16.51 -3.81 0.381 21
DS -16.51 -3.81 -16.51 3.81 0.381 21
DS -16.51 3.81 -21.59 3.81 0.381 21
DS 21.59 -8.89 -21.59 -8.89 0.381 21
DS -21.59 8.89 21.59 8.89 0.381 21
DS -21.59 8.89 -21.59 -8.89 0.381 21
DS 21.59 8.89 21.59 -8.89 0.381 21
DC -20.32 -7.62 -21.59 -7.62 0.381 21
DC -20.32 7.62 -21.59 7.62 0.381 21
DC 20.32 -7.62 21.59 -7.62 0.381 21
DC 20.32 7.62 21.59 7.62 0.381 21
DS 19.05 -6.35 -19.05 -6.35 0.381 21
DS -19.05 6.35 19.05 6.35 0.381 21
DS 19.05 8.89 19.05 6.35 0.381 21
DS 19.05 -6.35 19.05 -8.89 0.381 21
DS -19.05 -8.89 -19.05 -6.35 0.381 21
DS -19.05 8.89 -19.05 6.35 0.381 21
$PAD
Sh "1" O 1.524 2.19964 0 0 0
Dr 1.00076 0 0
At STD N 00E0FFFF
Ne 0 ""
Po -17.78 7.62
$EndPAD
$PAD
Sh "2" O 1.524 2.19964 0 0 0
Dr 1.00076 0 0
At STD N 00E0FFFF
Ne 0 ""
Po -15.24 7.62
$EndPAD
$PAD
Sh "3" O 1.524 2.19964 0 0 0
Dr 1.00076 0 0
At STD N 00E0FFFF
Ne 0 ""
Po -12.7 7.62
$EndPAD
$PAD
Sh "4" O 1.524 2.19964 0 0 0
Dr 1.00076 0 0
At STD N 00E0FFFF
Ne 0 ""
Po -10.16 7.62
$EndPAD
$PAD
Sh "5" O 1.524 2.19964 0 0 0
Dr 1.00076 0 0
At STD N 00E0FFFF
Ne 0 ""
Po -7.62 7.62
$EndPAD
$PAD
Sh "6" O 1.524 2.19964 0 0 0
Dr 1.00076 0 0
At STD N 00E0FFFF
Ne 0 ""
Po -5.08 7.62
$EndPAD
$PAD
Sh "7" O 1.524 2.19964 0 0 0
Dr 1.00076 0 0
At STD N 00E0FFFF
Ne 0 ""
Po -2.54 7.62
$EndPAD
$PAD
Sh "8" O 1.524 2.19964 0 0 0
Dr 1.00076 0 0
At STD N 00E0FFFF
Ne 0 ""
Po 0 7.62
$EndPAD
$PAD
Sh "9" O 1.524 2.19964 0 0 0
Dr 1.00076 0 0
At STD N 00E0FFFF
Ne 0 ""
Po 2.54 7.62
$EndPAD
$PAD
Sh "10" O 1.524 2.19964 0 0 0
Dr 1.00076 0 0
At STD N 00E0FFFF
Ne 0 ""
Po 5.08 7.62
$EndPAD
$PAD
Sh "11" O 1.524 2.19964 0 0 0
Dr 1.00076 0 0
At STD N 00E0FFFF
Ne 0 ""
Po 7.62 7.62
$EndPAD
$PAD
Sh "12" O 1.524 2.19964 0 0 0
Dr 1.00076 0 0
At STD N 00E0FFFF
Ne 0 ""
Po 10.16 7.62
$EndPAD
$PAD
Sh "13" O 1.524 2.19964 0 0 0
Dr 1.00076 0 0
At STD N 00E0FFFF
Ne 0 ""
Po 12.7 7.62
$EndPAD
$PAD
Sh "14" O 1.524 2.19964 0 0 0
Dr 1.00076 0 0
At STD N 00E0FFFF
Ne 0 ""
Po 15.24 7.62
$EndPAD
$PAD
Sh "15" O 1.524 2.19964 0 0 0
Dr 1.00076 0 0
At STD N 00E0FFFF
Ne 0 ""
Po 17.78 7.62
$EndPAD
$PAD
Sh "16" O 1.524 2.19964 0 0 0
Dr 1.00076 0 0
At STD N 00E0FFFF
Ne 0 ""
Po 17.78 -7.62
$EndPAD
$PAD
Sh "17" O 1.524 2.19964 0 0 0
Dr 1.00076 0 0
At STD N 00E0FFFF
Ne 0 ""
Po 15.24 -7.62
$EndPAD
$PAD
Sh "18" O 1.524 2.19964 0 0 0
Dr 1.00076 0 0
At STD N 00E0FFFF
Ne 0 ""
Po 12.7 -7.62
$EndPAD
$PAD
Sh "19" O 1.524 2.19964 0 0 0
Dr 1.00076 0 0
At STD N 00E0FFFF
Ne 0 ""
Po 10.16 -7.62
$EndPAD
$PAD
Sh "20" O 1.524 2.1971 0 0 0
Dr 1.00076 0 0
At STD N 00E0FFFF
Ne 0 ""
Po 7.62 -7.62
$EndPAD
$PAD
Sh "21" O 1.524 2.1971 0 0 0
Dr 1.00076 0 0
At STD N 00E0FFFF
Ne 0 ""
Po 5.08 -7.62
$EndPAD
$PAD
Sh "22" O 1.524 2.1971 0 0 0
Dr 1.00076 0 0
At STD N 00E0FFFF
Ne 0 ""
Po 2.54 -7.62
$EndPAD
$PAD
Sh "23" O 1.524 2.1971 0 0 0
Dr 1.00076 0 0
At STD N 00E0FFFF
Ne 0 ""
Po 0 -7.62
$EndPAD
$PAD
Sh "24" O 1.524 2.1971 0 0 0
Dr 0.99822 0 0
At STD N 00E0FFFF
Ne 0 ""
Po -2.54 -7.62
$EndPAD
$PAD
Sh "25" O 1.524 2.1971 0 0 0
Dr 0.99822 0 0
At STD N 00E0FFFF
Ne 0 ""
Po -5.08 -7.62
$EndPAD
$PAD
Sh "26" O 1.524 2.1971 0 0 0
Dr 0.99822 0 0
At STD N 00E0FFFF
Ne 0 ""
Po -7.62 -7.62
$EndPAD
$PAD
Sh "27" O 1.524 2.1971 0 0 0
Dr 0.99822 0 0
At STD N 00E0FFFF
Ne 0 ""
Po -10.16 -7.62
$EndPAD
$PAD
Sh "28" O 1.524 2.1971 0 0 0
Dr 0.99822 0 0
At STD N 00E0FFFF
Ne 0 ""
Po -12.7 -7.62
$EndPAD
$PAD
Sh "29" O 1.524 2.1971 0 0 0
Dr 0.99822 0 0
At STD N 00E0FFFF
Ne 0 ""
Po -15.24 -7.62
$EndPAD
$PAD
Sh "30" O 1.524 2.1971 0 0 0
Dr 0.99822 0 0
At STD N 00E0FFFF
Ne 0 ""
Po -17.78 -7.62
$EndPAD
$SHAPE3D
Na "walter/conn_misc/arduino_nano_header.wrl"
Sc 1 1 1
Of 0 0 0
Ro 0 0 0
$EndSHAPE3D
$EndMODULE arduino_nano_header
$MODULE arduino_pin_socket_8
Po 0 0 0 15 51549794 00000000 ~~
Li arduino_pin_socket_8
Cd Pin socket 8pin for Arduino exp. boards
Kw CONN DEV
Sc 0
AR pin_socket_8
Op 0 0 0
T0 0 -2.159 1.016 1.016 0 0.2032 N V 21 N "ARDUINO_PIN_SOCKET_8"
T1 0.254 -3.556 1.016 0.889 0 0.2032 N I 21 N "Val**"
DS -7.62 -1.27 -7.62 1.27 0.3048 21
DS -10.16 -1.27 10.16 -1.27 0.3048 21
DS 10.16 -1.27 10.16 1.27 0.3048 21
DS 10.16 1.27 -10.16 1.27 0.3048 21
DS -10.16 1.27 -10.16 -1.27 0.3048 21
$PAD
Sh "1" R 1.524 2.19964 0 0 0
Dr 1.00076 0 0
At STD N 00E0FFFF
Ne 0 ""
Po -8.89 0
$EndPAD
$PAD
Sh "2" O 1.524 2.19964 0 0 0
Dr 1.00076 0 0
At STD N 00E0FFFF
Ne 0 ""
Po -6.35 0
$EndPAD
$PAD
Sh "3" O 1.524 2.19964 0 0 0
Dr 1.00076 0 0
At STD N 00E0FFFF
Ne 0 ""
Po -3.81 0
$EndPAD
$PAD
Sh "4" O 1.524 2.19964 0 0 0
Dr 1.00076 0 0
At STD N 00E0FFFF
Ne 0 ""
Po -1.27 0
$EndPAD
$PAD
Sh "5" O 1.524 2.19964 0 0 0
Dr 1.00076 0 0
At STD N 00E0FFFF
Ne 0 ""
Po 1.27 0
$EndPAD
$PAD
Sh "6" O 1.524 2.19964 0 0 0
Dr 1.00076 0 0
At STD N 00E0FFFF
Ne 0 ""
Po 3.81 0
$EndPAD
$PAD
Sh "7" O 1.524 2.19964 0 0 0
Dr 1.00076 0 0
At STD N 00E0FFFF
Ne 0 ""
Po 6.35 0
$EndPAD
$PAD
Sh "8" O 1.524 2.19964 0 0 0
Dr 1.00076 0 0
At STD N 00E0FFFF
Ne 0 ""
Po 8.89 0
$EndPAD
$SHAPE3D
Na "walter/conn_misc/arduino_pin_socket_8.wrl"
Sc 1 1 1
Of 0 0 0
Ro 0 0 0
$EndSHAPE3D
$EndMODULE arduino_pin_socket_8
$MODULE dc_socket
Po 0 0 0 15 4EAFFE1C 00000000 ~~
Li dc_socket
Cd Socket, DC power supply
Sc 0
AR 
Op 0 0 0
T0 0 8.6995 1.524 1.524 0 0.3048 N V 21 N "dc_socket"
T1 0 -8.60044 1.524 1.524 0 0.3048 N V 21 N "VAL**"
DS -4.50088 2.79908 4.50088 2.79908 0.381 21
DS -4.50088 7.29996 4.50088 7.29996 0.381 21
DS 4.50088 7.29996 4.50088 -7.29996 0.381 21
DS 4.50088 -7.29996 -4.50088 -7.29996 0.381 21
DS -4.50088 -7.29996 -4.50088 7.29996 0.381 21
$PAD
Sh "1" O 1.99898 4.0005 0 0 0
Dr 1.00076 0 0 O 1.00076 2.99974
At STD N 00E0FFFF
Ne 0 ""
Po 5.30098 -3.50012
$EndPAD
$PAD
Sh "2" O 4.0005 1.99898 0 0 0
Dr 2.99974 0 0 O 2.99974 1.00076
At STD N 00E0FFFF
Ne 0 ""
Po 0 -0.24892
$EndPAD
$PAD
Sh "3" O 4.50088 1.99898 0 0 0
Dr 3.50012 0 0 O 3.50012 1.00076
At STD N 00E0FFFF
Ne 0 ""
Po 0 -6.25094
$EndPAD
$SHAPE3D
Na "walter/conn_misc/dc_socket.wrl"
Sc 1 1 1
Of 0 0 0
Ro 0 0 0
$EndSHAPE3D
$EndMODULE dc_socket
$MODULE dc_socket_rh
Po 0 0 0 15 53667232 00000000 ~~
Li dc_socket_rh
Cd Socket, DC power supply, round holes
Sc 0
AR 
Op 0 0 0
T0 0 8.6995 1.524 1.524 0 0.3048 N V 21 N "dc_socket_rh"
T1 0 -8.60044 1.524 1.524 0 0.3048 N V 21 N "VAL**"
DS -4.50088 2.79908 4.50088 2.79908 0.381 21
DS -4.5 7.5 4.5 7.5 0.381 21
DS 4.50088 7.29996 4.50088 -7.29996 0.381 21
DS 4.50088 -7.29996 -4.50088 -7.29996 0.381 21
DS -4.50088 -7.29996 -4.50088 7.29996 0.381 21
$PAD
Sh "1" C 2 2 0 0 0
Dr 1 0 0
At STD N 0000FFFF
Ne 0 ""
Po 5 -4.4
$EndPAD
$PAD
Sh "1" C 2 2 0 0 0
Dr 1 0 0
At STD N 0000FFFF
Ne 0 ""
Po 5 -3.65
$EndPAD
$PAD
Sh "1" C 2 2 0 0 0
Dr 1 0 0
At STD N 0000FFFF
Ne 0 ""
Po 5 -2.95
$EndPAD
$PAD
Sh "3" O 4.2 2 0 0 0
Dr 0 0 0
At SMD N 00400001
Ne 0 ""
Po 0 -6.3
$EndPAD
$PAD
Sh "3" C 2 2 0 0 0
Dr 1 0 0
At STD N 0000FFFF
Ne 0 ""
Po 0.35 -6.3
$EndPAD
$PAD
Sh "3" C 2 2 0 0 0
Dr 1 0 0
At STD N 0000FFFF
Ne 0 ""
Po -1.1 -6.3
$EndPAD
$PAD
Sh "3" C 2 2 0 0 0
Dr 1 0 0
At STD N 0000FFFF
Ne 0 ""
Po 1.1 -6.3
$EndPAD
$PAD
Sh "3" C 2 2 0 0 0
Dr 1 0 0
At STD N 0000FFFF
Ne 0 ""
Po -0.35 -6.3
$EndPAD
$PAD
Sh "3" O 4.2 2 0 0 0
Dr 0 0 0
At SMD N 00808000
Ne 0 ""
Po 0 -6.3
$EndPAD
$PAD
Sh "1" O 2 4.2 0 0 0
Dr 0 0 0
At SMD N 00808000
Ne 0 ""
Po 5 -3.3
$EndPAD
$PAD
Sh "2" O 4.2 2 0 0 0
Dr 0 0 0
At SMD N 00808000
Ne 0 ""
Po 0 0
$EndPAD
$PAD
Sh "2" C 2 2 0 0 0
Dr 1 0 0
At STD N 0000FFFF
Ne 0 ""
Po -0.35 0
$EndPAD
$PAD
Sh "2" C 2 2 0 0 0
Dr 1 0 0
At STD N 0000FFFF
Ne 0 ""
Po 1.1 0
$EndPAD
$PAD
Sh "2" C 2 2 0 0 0
Dr 1 0 0
At STD N 0000FFFF
Ne 0 ""
Po -1.1 0
$EndPAD
$PAD
Sh "2" C 2 2 0 0 0
Dr 1 0 0
At STD N 0000FFFF
Ne 0 ""
Po 0.35 0
$EndPAD
$PAD
Sh "2" O 4.2 2 0 0 0
Dr 0 0 0
At SMD N 00400001
Ne 0 ""
Po 0 0
$EndPAD
$PAD
Sh "1" O 2 4.2 0 0 0
Dr 0 0 0
At SMD N 00400001
Ne 0 ""
Po 5 -3.3
$EndPAD
$PAD
Sh "1" C 2 2 0 0 0
Dr 1 0 0
At STD N 0000FFFF
Ne 0 ""
Po 5 -2.2
$EndPAD
$SHAPE3D
Na "walter/conn_misc/dc_socket.wrl"
Sc 1 1 1
Of 0 0 0
Ro 0 0 0
$EndSHAPE3D
$EndMODULE dc_socket_rh
$MODULE microsd_socket
Po 0 0 0 15 515DDC2E 00000000 ~~
Li microsd_socket
Cd MicroSD Card socket, Molex P/N 502774-0811
Sc 0
AR microsd_socket
Op 0 0 0
T0 0 10.39876 1.524 1.524 0 0.3048 N V 21 N "microsd_socket"
T1 0 -9.70026 1.524 1.524 0 0.3048 N V 21 N "J**"
DS 2.90068 7.29996 4.39928 7.59968 0.381 21
DS -2.19964 7.59968 -1.39954 7.39902 0.381 21
DS -1.39954 7.39902 0.50038 7.2009 0.381 21
DS 0.50038 7.2009 1.80086 7.2009 0.381 21
DS 1.80086 7.2009 2.90068 7.29996 0.381 21
DS -2.19964 7.59968 -4.39928 7.59968 0.381 21
DS -4.40182 7.59968 -4.70154 8.001 0.381 21
DS 4.699 8.001 7.2009 8.001 0.381 21
DS -4.699 8.001 -7.2009 8.001 0.381 21
DS 4.699 8.001 4.39928 7.59968 0.381 21
DS -3.70078 -7.00024 -3.70078 -8.001 0.381 21
DS -3.70078 -8.001 -5.19938 -8.001 0.381 21
DS -5.19938 -8.001 -5.19938 -7.00024 0.381 21
DS -5.90042 -8.001 -7.00024 -8.001 0.381 21
DS -5.90042 -8.001 -5.90042 -7.00024 0.381 21
DS -7.00024 -7.00024 -7.00024 -8.001 0.381 21
DS 5.69976 -7.8994 6.70052 -7.8994 0.381 21
DS 5.69976 -7.00024 5.69976 -7.8994 0.381 21
DS 6.70052 -7.8994 6.70052 -7.00024 0.381 21
DS 4.8006 -7.8994 4.8006 -7.00024 0.381 21
DS 3.70078 -7.8994 3.70078 -7.00024 0.381 21
DS 2.60096 -7.8994 2.60096 -7.00024 0.381 21
DS 1.50114 -7.8994 1.50114 -7.00024 0.381 21
DS 0.39878 -7.8994 0.39878 -7.00024 0.381 21
DS -0.70104 -7.8994 -0.70104 -7.0993 0.381 21
DS -1.80086 -7.8994 -1.80086 -7.00024 0.381 21
DS -2.90068 -7.00024 -2.90068 -7.8994 0.381 21
DS 7.2009 8.001 7.2009 -7.00024 0.381 21
DS 7.2009 -7.00024 -7.2009 -7.00024 0.381 21
DS -7.2009 -7.00024 -7.2009 8.001 0.381 21
$PAD
Sh "8" R 0.8001 1.67894 0 0 0
Dr 0 0 0
At SMD N 00888000
Ne 0 ""
Po 4.8006 -7.38378
.LocalClearance 0.20066
$EndPAD
$PAD
Sh "7" R 0.8001 1.67894 0 0 0
Dr 0 0 0
At SMD N 00888000
Ne 0 ""
Po 3.70078 -7.38378
.LocalClearance 0.20066
$EndPAD
$PAD
Sh "6" R 0.8001 1.67894 0 0 0
Dr 0 0 0
At SMD N 00888000
Ne 0 ""
Po 2.60096 -7.38378
.LocalClearance 0.20066
$EndPAD
$PAD
Sh "5" R 0.8001 1.67894 0 0 0
Dr 0 0 0
At SMD N 00888000
Ne 0 ""
Po 1.50114 -7.38378
.LocalClearance 0.20066
$EndPAD
$PAD
Sh "4" R 0.8001 1.67894 0 0 0
Dr 0 0 0
At SMD N 00888000
Ne 0 ""
Po 0.39878 -7.38378
.LocalClearance 0.20066
$EndPAD
$PAD
Sh "3" R 0.8001 1.67894 0 0 0
Dr 0 0 0
At SMD N 00888000
Ne 0 ""
Po -0.70104 -7.38378
.LocalClearance 0.20066
$EndPAD
$PAD
Sh "2" R 0.8001 1.67894 0 0 0
Dr 0 0 0
At SMD N 00888000
Ne 0 ""
Po -1.80086 -7.38378
.LocalClearance 0.20066
$EndPAD
$PAD
Sh "1" R 0.8001 1.67894 0 0 0
Dr 0 0 0
At SMD N 00888000
Ne 0 ""
Po -2.90068 -7.38378
.LocalClearance 0.20066
$EndPAD
$PAD
Sh "CD2" R 1.29032 1.30048 0 0 0
Dr 0 0 0
At SMD N 00888000
Ne 0 ""
Po 6.85546 -5.82422
.LocalClearance 0.20066
$EndPAD
$PAD
Sh "" R 1.50114 1.69926 0 0 0
Dr 0 0 0
At SMD N 00888000
Ne 0 ""
Po 6.74878 7.37616
$EndPAD
$PAD
Sh "" R 1.69926 1.50114 0 0 0
Dr 0 0 0
At SMD N 00888000
Ne 0 ""
Po -6.44906 -7.47522
$EndPAD
$PAD
Sh "CD1" R 1.29032 1.39954 0 0 0
Dr 0 0 0
At SMD N 00888000
Ne 0 ""
Po 6.85546 1.5748
$EndPAD
$PAD
Sh "" R 1.50114 1.69926 0 0 0
Dr 0 0 0
At SMD N 00888000
Ne 0 ""
Po -6.74878 7.37616
$EndPAD
$PAD
Sh "" R 1.6002 1.50114 0 0 0
Dr 0 0 0
At SMD N 00888000
Ne 0 ""
Po 6.2103 -7.47522
.LocalClearance 0.20066
$EndPAD
$SHAPE3D
Na "walter/conn_misc/microsd_socket.wrl"
Sc 1 1 1
Of 0 0 0
Ro 0 0 0
$EndSHAPE3D
$EndMODULE microsd_socket
$MODULE molex_6p6c
Po 0 0 0 15 53E0F286 00000000 ~~
Li molex_6p6c
Cd RJ11 6p6c socket, Molex P/N 95009-7667
Sc 0
AR 6p6c
Op 0 0 0
T0 0 -11.99896 1.524 1.524 0 0.3048 N V 21 N "J***"
T1 0 12.49934 1.524 1.524 0 0.3048 N V 21 N "molex_6p6c"
DS -6.70052 -9.90092 -6.70052 10.80008 0.381 21
DS 6.70052 -9.90092 6.70052 10.80008 0.381 21
DS -6.70052 -9.90092 6.70052 -9.90092 0.381 21
DS 6.70052 10.80008 -6.70052 10.80008 0.381 21
DS 4.0005 0.29972 4.0005 10.80008 0.381 21
DS -4.0005 10.80008 -4.0005 0.29972 0.381 21
DS 1.99898 10.80008 1.99898 0.29972 0.381 21
DS -5.00126 0.29972 -5.00126 10.80008 0.381 21
DS -5.00126 0.29972 5.00126 0.29972 0.381 21
DS 5.00126 0.29972 5.00126 10.80008 0.381 21
DS -1.99898 10.80008 -1.99898 0.29972 0.381 21
$PAD
Sh "" C 3.2004 3.2004 0 0 0
Dr 3.2004 0 0
At HOLE N 00E0FFFF
Ne 0 ""
Po -5.08 0
$EndPAD
$PAD
Sh "" C 3.2004 3.2004 0 0 0
Dr 3.2004 0 0
At HOLE N 00E0FFFF
Ne 0 ""
Po 5.08 0
$EndPAD
$PAD
Sh "6" C 1.50114 1.50114 0 0 0
Dr 0.89916 0 0
At STD N 00E0FFFF
Ne 0 ""
Po 3.175 -6.35
$EndPAD
$PAD
Sh "5" C 1.50114 1.50114 0 0 0
Dr 0.89916 0 0
At STD N 00E0FFFF
Ne 0 ""
Po 1.905 -8.89
$EndPAD
$PAD
Sh "4" C 1.50114 1.50114 0 0 0
Dr 0.89916 0 0
At STD N 00E0FFFF
Ne 0 ""
Po 0.635 -6.35
$EndPAD
$PAD
Sh "3" C 1.50114 1.50114 0 0 0
Dr 0.89916 0 0
At STD N 00E0FFFF
Ne 0 ""
Po -0.635 -8.89
$EndPAD
$PAD
Sh "2" C 1.50114 1.50114 0 0 0
Dr 0.89916 0 0
At STD N 00E0FFFF
Ne 0 ""
Po -1.905 -6.35
$EndPAD
$PAD
Sh "1" C 1.50114 1.50114 0 0 0
Dr 0.89916 0 0
At STD N 00E0FFFF
Ne 0 ""
Po -3.175 -8.89
$EndPAD
$SHAPE3D
Na "walter/conn_misc/molex_6p6c.wrl"
Sc 1 1 1
Of 0 0 0
Ro 0 0 0
$EndSHAPE3D
$EndMODULE molex_6p6c
$MODULE sd_socket
Po 0 0 0 15 4F09C71F 00000000 ~~
Li sd_socket
Cd SD Card socket, 4UCON P/N 19607
Sc 0
AR 
Op 0 0 0
T0 0 17.00022 1.524 1.524 0 0.3048 N V 21 N "sd_socket"
T1 0 -17.00022 1.524 1.524 0 0.3048 N V 21 N "J**"
DS -9.90092 15.40002 -14.3002 15.40002 0.381 21
DS 14.3002 15.40002 9.90092 15.40002 0.381 21
DA 0 15.40002 0 5.4991 900 0.381 21
DA 0 15.40002 -9.90092 15.40002 900 0.381 21
DS 6.4008 -3.40106 -6.20014 -3.40106 0.381 21
DS 8.30072 -1.89992 9.99998 15.40002 0.381 21
DA 6.59892 -1.69926 6.4008 -3.40106 900 0.381 21
DS -8.30072 -1.69926 -9.99998 15.40002 0.381 21
DA -6.4008 -1.50114 -8.30072 -1.69926 900 0.381 21
DS -14.3002 15.40002 -14.3002 -13.40104 0.381 21
DS -14.3002 -13.40104 14.3002 -13.40104 0.381 21
DS 14.3002 -13.40104 14.3002 15.40002 0.381 21
$PAD
Sh "9" R 1.04902 1.55956 0 0 0
Dr 0 0 0
At SMD N 00888000
Ne 0 ""
Po 9.271 -14.54404
$EndPAD
$PAD
Sh "1" R 1.04902 1.55956 0 0 0
Dr 0 0 0
At SMD N 00888000
Ne 0 ""
Po 6.77164 -14.54404
$EndPAD
$PAD
Sh "2" R 1.04902 1.55956 0 0 0
Dr 0 0 0
At SMD N 00888000
Ne 0 ""
Po 4.26974 -14.54404
$EndPAD
$PAD
Sh "3" R 1.04902 1.55956 0 0 0
Dr 0 0 0
At SMD N 00888000
Ne 0 ""
Po 1.77038 -14.54404
$EndPAD
$PAD
Sh "4" R 1.04902 1.55956 0 0 0
Dr 0 0 0
At SMD N 00888000
Ne 0 ""
Po -0.72898 -14.54404
$EndPAD
$PAD
Sh "5" R 1.04902 1.55956 0 0 0
Dr 0 0 0
At SMD N 00888000
Ne 0 ""
Po -3.22834 -14.54404
$EndPAD
$PAD
Sh "6" R 1.04902 1.55956 0 0 0
Dr 0 0 0
At SMD N 00888000
Ne 0 ""
Po -5.73024 -14.54404
$EndPAD
$PAD
Sh "7" R 1.04902 1.55956 0 0 0
Dr 0 0 0
At SMD N 00888000
Ne 0 ""
Po -8.14832 -14.54404
$EndPAD
$PAD
Sh "8" R 1.04902 1.55956 0 0 0
Dr 0 0 0
At SMD N 00888000
Ne 0 ""
Po -9.85012 -14.54404
$EndPAD
$PAD
Sh "CD" R 1.34874 1.09982 0 0 0
Dr 0 0 0
At SMD N 00888000
Ne 0 ""
Po -12.1285 -14.31544
$EndPAD
$PAD
Sh "" R 1.89992 1.89992 0 0 0
Dr 0 0 0
At SMD N 00888000
Ne 0 ""
Po 14.74978 -9.5758
$EndPAD
$PAD
Sh "" R 1.89992 1.89992 0 0 0
Dr 0 0 0
At SMD N 00888000
Ne 0 ""
Po 14.74978 5.87502
$EndPAD
$PAD
Sh "" R 1.89992 1.89992 0 0 0
Dr 0 0 0
At SMD N 00888000
Ne 0 ""
Po -14.86916 -9.5758
$EndPAD
$PAD
Sh "COM" R 1.6002 1.09982 0 0 0
Dr 0 0 0
At SMD N 00888000
Ne 0 ""
Po -14.54912 -4.17576
$EndPAD
$PAD
Sh "WP" R 1.6002 1.6002 0 0 0
Dr 0 0 0
At SMD N 00888000
Ne 0 ""
Po -14.59992 5.49402
$EndPAD
$PAD
Sh "" C 1.30048 1.30048 0 0 0
Dr 1.30048 0 0
At STD N 00E0FFFF
Ne 0 ""
Po 12.10056 9.82472
$EndPAD
$PAD
Sh "" C 1.80086 1.80086 0 0 0
Dr 1.80086 0 0
At STD N 00E0FFFF
Ne 0 ""
Po -12.10056 9.82472
$EndPAD
$SHAPE3D
Na "walter/conn_misc/sd_socket.wrl"
Sc 1 1 1
Of 0 0 0
Ro 0 0 0
$EndSHAPE3D
$EndMODULE sd_socket
$MODULE stm32f0_discovery_header
Po 0 0 0 15 5251ABE9 00000000 ~~
Li stm32f0_discovery_header
Cd STM32 F0 Discovery Header
Kw STM32F0 Discovery
Sc 0
AR pin_strip_20
Op 0 0 0
T0 0 1.27 1.016 1.016 0 0.2032 N V 21 N "STM32F0_Discovery_Header"
T1 0 -1.27 1.016 0.889 0 0.2032 N I 21 N "Val**"
DS 40.7 -22 40.7 -25.2 0.381 21
DS 40.7 -25.2 39.8 -24.4 0.381 21
DS 39.8 -22 41.5 -22 0.381 21
DS 39.37 -20.32 39.37 -17.78 0.381 21
DS -41.91 17.78 41.91 17.78 0.381 21
DS 41.91 17.78 41.91 20.32 0.381 21
DS -41.91 20.32 41.91 20.32 0.381 21
DS -41.91 17.78 -41.91 20.32 0.381 21
DS 44.5 -26.7 -44.5 -26.7 0.381 21
DS -44.5 26.7 44.5 26.7 0.381 21
DS 44.5 26.7 44.5 -26.7 0.381 21
DS -44.5 26.7 -44.5 -26.7 0.381 21
DS -41.91 -20.32 -41.91 -17.78 0.381 21
DS -41.91 -17.78 41.91 -17.78 0.381 21
DS 41.91 -20.32 41.91 -17.78 0.381 21
DS -41.91 -20.32 41.91 -20.32 0.381 21
$PAD
Sh "34" O 1.5 2.2 0 0 0
Dr 0.99822 0 0
At STD N 00E0FFFF
Ne 0 ""
Po -40.64 19.05
$EndPAD
$PAD
Sh "35" O 1.5 2.2 0 0 0
Dr 0.99822 0 0
At STD N 00E0FFFF
Ne 0 ""
Po -38.1 19.05
$EndPAD
$PAD
Sh "36" O 1.5 2.2 0 0 0
Dr 0.99822 0 0
At STD N 00E0FFFF
Ne 0 ""
Po -35.56 19.05
$EndPAD
$PAD
Sh "37" O 1.5 2.2 0 0 0
Dr 0.99822 0 0
At STD N 00E0FFFF
Ne 0 ""
Po -33.02 19.05
$EndPAD
$PAD
Sh "38" O 1.5 2.2 0 0 0
Dr 0.99822 0 0
At STD N 00E0FFFF
Ne 0 ""
Po -30.48 19.05
$EndPAD
$PAD
Sh "39" O 1.5 2.2 0 0 0
Dr 0.99822 0 0
At STD N 00E0FFFF
Ne 0 ""
Po -27.94 19.05
$EndPAD
$PAD
Sh "40" O 1.5 2.2 0 0 0
Dr 0.99822 0 0
At STD N 00E0FFFF
Ne 0 ""
Po -25.4 19.05
$EndPAD
$PAD
Sh "41" O 1.5 2.2 0 0 0
Dr 0.99822 0 0
At STD N 00E0FFFF
Ne 0 ""
Po -22.86 19.05
$EndPAD
$PAD
Sh "42" O 1.5 2.2 0 0 0
Dr 0.99822 0 0
At STD N 00E0FFFF
Ne 0 ""
Po -20.32 19.05
$EndPAD
$PAD
Sh "43" O 1.5 2.2 0 0 0
Dr 0.99822 0 0
At STD N 00E0FFFF
Ne 0 ""
Po -17.78 19.05
$EndPAD
$PAD
Sh "44" O 1.5 2.2 0 0 0
Dr 0.99822 0 0
At STD N 00E0FFFF
Ne 0 ""
Po -15.24 19.05
$EndPAD
$PAD
Sh "45" O 1.5 2.2 0 0 0
Dr 0.99822 0 0
At STD N 00E0FFFF
Ne 0 ""
Po -12.7 19.05
$EndPAD
$PAD
Sh "46" O 1.5 2.2 0 0 0
Dr 0.99822 0 0
At STD N 00E0FFFF
Ne 0 ""
Po -10.16 19.05
$EndPAD
$PAD
Sh "47" O 1.5 2.2 0 0 0
Dr 0.99822 0 0
At STD N 00E0FFFF
Ne 0 ""
Po -7.62 19.05
$EndPAD
$PAD
Sh "48" O 1.5 2.2 0 0 0
Dr 0.99822 0 0
At STD N 00E0FFFF
Ne 0 ""
Po -5.08 19.05
$EndPAD
$PAD
Sh "49" O 1.5 2.2 0 0 0
Dr 0.99822 0 0
At STD N 00E0FFFF
Ne 0 ""
Po -2.54 19.05
$EndPAD
$PAD
Sh "50" O 1.5 2.2 0 0 0
Dr 0.99822 0 0
At STD N 00E0FFFF
Ne 0 ""
Po 0 19.05
$EndPAD
$PAD
Sh "51" O 1.5 2.2 0 0 0
Dr 0.99822 0 0
At STD N 00E0FFFF
Ne 0 ""
Po 2.54 19.05
$EndPAD
$PAD
Sh "52" O 1.5 2.2 0 0 0
Dr 0.99822 0 0
At STD N 00E0FFFF
Ne 0 ""
Po 5.08 19.05
$EndPAD
$PAD
Sh "53" O 1.5 2.2 0 0 0
Dr 0.99822 0 0
At STD N 00E0FFFF
Ne 0 ""
Po 7.62 19.05
$EndPAD
$PAD
Sh "54" O 1.5 2.2 0 0 0
Dr 0.99822 0 0
At STD N 00E0FFFF
Ne 0 ""
Po 10.16 19.05
$EndPAD
$PAD
Sh "55" O 1.5 2.2 0 0 0
Dr 0.99822 0 0
At STD N 00E0FFFF
Ne 0 ""
Po 12.7 19.05
$EndPAD
$PAD
Sh "56" O 1.5 2.2 0 0 0
Dr 0.99822 0 0
At STD N 00E0FFFF
Ne 0 ""
Po 15.24 19.05
$EndPAD
$PAD
Sh "57" O 1.5 2.2 0 0 0
Dr 0.99822 0 0
At STD N 00E0FFFF
Ne 0 ""
Po 17.78 19.05
$EndPAD
$PAD
Sh "58" O 1.5 2.2 0 0 0
Dr 0.99822 0 0
At STD N 00E0FFFF
Ne 0 ""
Po 20.32 19.05
$EndPAD
$PAD
Sh "59" O 1.5 2.2 0 0 0
Dr 0.99822 0 0
At STD N 00E0FFFF
Ne 0 ""
Po 22.86 19.05
$EndPAD
$PAD
Sh "60" O 1.5 2.2 0 0 0
Dr 0.99822 0 0
At STD N 00E0FFFF
Ne 0 ""
Po 25.4 19.05
$EndPAD
$PAD
Sh "61" O 1.5 2.2 0 0 0
Dr 0.99822 0 0
At STD N 00E0FFFF
Ne 0 ""
Po 27.94 19.05
$EndPAD
$PAD
Sh "62" O 1.5 2.2 0 0 0
Dr 0.99822 0 0
At STD N 00E0FFFF
Ne 0 ""
Po 30.48 19.05
$EndPAD
$PAD
Sh "63" O 1.5 2.2 0 0 0
Dr 0.99822 0 0
At STD N 00E0FFFF
Ne 0 ""
Po 33.02 19.05
$EndPAD
$PAD
Sh "64" O 1.5 2.2 0 0 0
Dr 0.99822 0 0
At STD N 00E0FFFF
Ne 0 ""
Po 35.56 19.05
$EndPAD
$PAD
Sh "65" O 1.5 2.2 0 0 0
Dr 0.99822 0 0
At STD N 00E0FFFF
Ne 0 ""
Po 38.1 19.05
$EndPAD
$PAD
Sh "66" O 1.5 2.2 0 0 0
Dr 1.00076 0 0
At STD N 00E0FFFF
Ne 0 ""
Po 40.64 19.05
$EndPAD
$PAD
Sh "1" R 1.5 2.2 0 0 0
Dr 1.00076 0 0
At STD N 00E0FFFF
Ne 0 ""
Po 40.64 -19.05
$EndPAD
$PAD
Sh "2" O 1.5 2.2 0 0 0
Dr 0.99822 0 0
At STD N 00E0FFFF
Ne 0 ""
Po 38.1 -19.05
$EndPAD
$PAD
Sh "3" O 1.5 2.2 0 0 0
Dr 0.99822 0 0
At STD N 00E0FFFF
Ne 0 ""
Po 35.56 -19.05
$EndPAD
$PAD
Sh "4" O 1.5 2.2 0 0 0
Dr 0.99822 0 0
At STD N 00E0FFFF
Ne 0 ""
Po 33.02 -19.05
$EndPAD
$PAD
Sh "5" O 1.5 2.2 0 0 0
Dr 0.99822 0 0
At STD N 00E0FFFF
Ne 0 ""
Po 30.48 -19.05
$EndPAD
$PAD
Sh "6" O 1.5 2.2 0 0 0
Dr 0.99822 0 0
At STD N 00E0FFFF
Ne 0 ""
Po 27.94 -19.05
$EndPAD
$PAD
Sh "7" O 1.5 2.2 0 0 0
Dr 0.99822 0 0
At STD N 00E0FFFF
Ne 0 ""
Po 25.4 -19.05
$EndPAD
$PAD
Sh "8" O 1.5 2.2 0 0 0
Dr 0.99822 0 0
At STD N 00E0FFFF
Ne 0 ""
Po 22.86 -19.05
$EndPAD
$PAD
Sh "9" O 1.5 2.2 0 0 0
Dr 0.99822 0 0
At STD N 00E0FFFF
Ne 0 ""
Po 20.32 -19.05
$EndPAD
$PAD
Sh "10" O 1.5 2.2 0 0 0
Dr 0.99822 0 0
At STD N 00E0FFFF
Ne 0 ""
Po 17.78 -19.05
$EndPAD
$PAD
Sh "11" O 1.5 2.2 0 0 0
Dr 0.99822 0 0
At STD N 00E0FFFF
Ne 0 ""
Po 15.24 -19.05
$EndPAD
$PAD
Sh "12" O 1.5 2.2 0 0 0
Dr 0.99822 0 0
At STD N 00E0FFFF
Ne 0 ""
Po 12.7 -19.05
$EndPAD
$PAD
Sh "13" O 1.5 2.2 0 0 0
Dr 0.99822 0 0
At STD N 00E0FFFF
Ne 0 ""
Po 10.16 -19.05
$EndPAD
$PAD
Sh "14" O 1.5 2.2 0 0 0
Dr 0.99822 0 0
At STD N 00E0FFFF
Ne 0 ""
Po 7.62 -19.05
$EndPAD
$PAD
Sh "15" O 1.5 2.2 0 0 0
Dr 0.99822 0 0
At STD N 00E0FFFF
Ne 0 ""
Po 5.08 -19.05
$EndPAD
$PAD
Sh "16" O 1.5 2.2 0 0 0
Dr 0.99822 0 0
At STD N 00E0FFFF
Ne 0 ""
Po 2.54 -19.05
$EndPAD
$PAD
Sh "17" O 1.5 2.2 0 0 0
Dr 0.99822 0 0
At STD N 00E0FFFF
Ne 0 ""
Po 0 -19.05
$EndPAD
$PAD
Sh "18" O 1.5 2.2 0 0 0
Dr 0.99822 0 0
At STD N 00E0FFFF
Ne 0 ""
Po -2.54 -19.05
$EndPAD
$PAD
Sh "19" O 1.5 2.2 0 0 0
Dr 0.99822 0 0
At STD N 00E0FFFF
Ne 0 ""
Po -5.08 -19.05
$EndPAD
$PAD
Sh "20" O 1.5 2.2 0 0 0
Dr 0.99822 0 0
At STD N 00E0FFFF
Ne 0 ""
Po -7.62 -19.05
$EndPAD
$PAD
Sh "21" O 1.5 2.2 0 0 0
Dr 0.99822 0 0
At STD N 00E0FFFF
Ne 0 ""
Po -10.16 -19.05
$EndPAD
$PAD
Sh "22" O 1.5 2.2 0 0 0
Dr 0.99822 0 0
At STD N 00E0FFFF
Ne 0 ""
Po -12.7 -19.05
$EndPAD
$PAD
Sh "23" O 1.5 2.2 0 0 0
Dr 0.99822 0 0
At STD N 00E0FFFF
Ne 0 ""
Po -15.24 -19.05
$EndPAD
$PAD
Sh "24" O 1.5 2.2 0 0 0
Dr 0.99822 0 0
At STD N 00E0FFFF
Ne 0 ""
Po -17.78 -19.05
$EndPAD
$PAD
Sh "25" O 1.5 2.2 0 0 0
Dr 0.99822 0 0
At STD N 00E0FFFF
Ne 0 ""
Po -20.32 -19.05
$EndPAD
$PAD
Sh "26" O 1.5 2.2 0 0 0
Dr 0.99822 0 0
At STD N 00E0FFFF
Ne 0 ""
Po -22.86 -19.05
$EndPAD
$PAD
Sh "27" O 1.5 2.2 0 0 0
Dr 0.99822 0 0
At STD N 00E0FFFF
Ne 0 ""
Po -25.4 -19.05
$EndPAD
$PAD
Sh "28" O 1.5 2.2 0 0 0
Dr 0.99822 0 0
At STD N 00E0FFFF
Ne 0 ""
Po -27.94 -19.05
$EndPAD
$PAD
Sh "29" O 1.5 2.2 0 0 0
Dr 0.99822 0 0
At STD N 00E0FFFF
Ne 0 ""
Po -30.48 -19.05
$EndPAD
$PAD
Sh "30" O 1.5 2.2 0 0 0
Dr 0.99822 0 0
At STD N 00E0FFFF
Ne 0 ""
Po -33.02 -19.05
$EndPAD
$PAD
Sh "31" O 1.5 2.2 0 0 0
Dr 0.99822 0 0
At STD N 00E0FFFF
Ne 0 ""
Po -35.56 -19.05
$EndPAD
$PAD
Sh "32" O 1.5 2.2 0 0 0
Dr 0.99822 0 0
At STD N 00E0FFFF
Ne 0 ""
Po -38.1 -19.05
$EndPAD
$PAD
Sh "33" O 1.5 2.2 0 0 0
Dr 0.99822 0 0
At STD N 00E0FFFF
Ne 0 ""
Po -40.64 -19.05
$EndPAD
$SHAPE3D
Na "walter/conn_misc/stm32f0_discovery_header.wrl"
Sc 1 1 1
Of 0 0 0
Ro 0 0 0
$EndSHAPE3D
$EndMODULE stm32f0_discovery_header
$MODULE stm32f3_discovery_header
Po 0 0 0 15 5251B77A 00000000 ~~
Li stm32f3_discovery_header
Cd STM32 F3 Discovery Header
Kw STM32F3 Discovery
Sc 0
AR pin_strip_20
Op 0 0 0
T0 0 1.27 1.016 1.016 0 0.2032 N V 21 N "STM32F3_Discovery_Header"
T1 0 -1.27 1.016 0.889 0 0.2032 N I 21 N "Val**"
DS 33.73 25.4 28.65 25.4 0.381 21
DS 33.73 27.94 33.73 25.4 0.381 21
DS 28.65 27.94 33.73 27.94 0.381 21
DS 28.65 25.4 28.65 27.94 0.381 21
DS 22.3 -27.94 17.22 -27.94 0.381 21
DS 22.3 -25.4 22.3 -27.94 0.381 21
DS 17.22 -25.4 22.3 -25.4 0.381 21
DS 17.22 -27.94 17.22 -25.4 0.381 21
DS 41.35 -27.94 41.35 -25.4 0.381 21
DS 41.35 -25.4 46.43 -25.4 0.381 21
DS 46.43 -25.4 46.43 -27.94 0.381 21
DS 46.43 -27.94 41.35 -27.94 0.381 21
DS -47.55 22.86 15.95 22.86 0.381 21
DS 15.95 22.86 15.95 27.94 0.381 21
DS -47.55 22.86 -47.55 27.94 0.381 21
DS -47.55 27.94 15.95 27.94 0.381 21
DS 13.3985 22.86 13.3985 27.94 0.381 21
DS 13.3985 -27.94 13.3985 -22.86 0.381 21
DS -47.55 -22.86 15.95 -22.86 0.381 21
DS 48.5 -33 -48.5 -33 0.381 21
DS -48.5 33 48.5 33 0.381 21
DS 48.5 33 48.5 -33 0.381 21
DS -48.5 33 -48.5 -33 0.381 21
DS -47.55 -27.94 -47.55 -22.86 0.381 21
DS 15.95 -27.94 15.95 -22.86 0.381 21
DS -47.55 -27.94 15.95 -27.94 0.381 21
$PAD
Sh "51" R 1.5 2.2 0 0 0
Dr 1.00076 0 0
At STD N 00E0FFFF
Ne 0 ""
Po 32.46 26.67
$EndPAD
$PAD
Sh "52" O 1.5 2.2 0 0 0
Dr 1.00076 0 0
At STD N 00E0FFFF
Ne 0 ""
Po 29.92 26.67
$EndPAD
$PAD
Sh "51" O 1.5 2 0 0 0
Dr 0.99822 0 -0.25
At STD N 00E0FFFF
Ne 0 ""
Po -46.28 24.13
$EndPAD
$PAD
Sh "53" O 1.5 2 0 0 0
Dr 0.99822 0 -0.25
At STD N 00E0FFFF
Ne 0 ""
Po -43.74 24.13
$EndPAD
$PAD
Sh "55" O 1.5 2 0 0 0
Dr 0.99822 0 -0.25
At STD N 00E0FFFF
Ne 0 ""
Po -41.2 24.13
$EndPAD
$PAD
Sh "57" O 1.5 2 0 0 0
Dr 0.99822 0 -0.25
At STD N 00E0FFFF
Ne 0 ""
Po -38.66 24.13
$EndPAD
$PAD
Sh "59" O 1.5 2 0 0 0
Dr 0.99822 0 -0.25
At STD N 00E0FFFF
Ne 0 ""
Po -36.12 24.13
$EndPAD
$PAD
Sh "61" O 1.5 2 0 0 0
Dr 0.99822 0 -0.25
At STD N 00E0FFFF
Ne 0 ""
Po -33.58 24.13
$EndPAD
$PAD
Sh "63" O 1.5 2 0 0 0
Dr 0.99822 0 -0.25
At STD N 00E0FFFF
Ne 0 ""
Po -31.04 24.13
$EndPAD
$PAD
Sh "65" O 1.5 2 0 0 0
Dr 0.99822 0 -0.25
At STD N 00E0FFFF
Ne 0 ""
Po -28.5 24.13
$EndPAD
$PAD
Sh "67" O 1.5 2 0 0 0
Dr 0.99822 0 -0.25
At STD N 00E0FFFF
Ne 0 ""
Po -25.96 24.13
$EndPAD
$PAD
Sh "69" O 1.5 2 0 0 0
Dr 0.99822 0 -0.25
At STD N 00E0FFFF
Ne 0 ""
Po -23.42 24.13
$EndPAD
$PAD
Sh "71" O 1.5 2 0 0 0
Dr 0.99822 0 -0.25
At STD N 00E0FFFF
Ne 0 ""
Po -20.88 24.13
$EndPAD
$PAD
Sh "73" O 1.5 2 0 0 0
Dr 0.99822 0 -0.25
At STD N 00E0FFFF
Ne 0 ""
Po -18.34 24.13
$EndPAD
$PAD
Sh "75" O 1.5 2 0 0 0
Dr 0.99822 0 -0.25
At STD N 00E0FFFF
Ne 0 ""
Po -15.8 24.13
$EndPAD
$PAD
Sh "77" O 1.5 2 0 0 0
Dr 0.99822 0 -0.25
At STD N 00E0FFFF
Ne 0 ""
Po -13.26 24.13
$EndPAD
$PAD
Sh "79" O 1.5 2 0 0 0
Dr 0.99822 0 -0.25
At STD N 00E0FFFF
Ne 0 ""
Po -10.72 24.13
$EndPAD
$PAD
Sh "81" O 1.5 2 0 0 0
Dr 0.99822 0 -0.25
At STD N 00E0FFFF
Ne 0 ""
Po -8.18 24.13
$EndPAD
$PAD
Sh "83" O 1.5 2 0 0 0
Dr 0.99822 0 -0.25
At STD N 00E0FFFF
Ne 0 ""
Po -5.64 24.13
$EndPAD
$PAD
Sh "85" O 1.5 2 0 0 0
Dr 0.99822 0 -0.25
At STD N 00E0FFFF
Ne 0 ""
Po -3.1 24.13
$EndPAD
$PAD
Sh "87" O 1.5 2 0 0 0
Dr 0.99822 0 -0.25
At STD N 00E0FFFF
Ne 0 ""
Po -0.56 24.13
$EndPAD
$PAD
Sh "89" O 1.5 2 0 0 0
Dr 0.99822 0 -0.25
At STD N 00E0FFFF
Ne 0 ""
Po 1.98 24.13
$EndPAD
$PAD
Sh "91" O 1.5 2 0 0 0
Dr 0.99822 0 -0.25
At STD N 00E0FFFF
Ne 0 ""
Po 4.52 24.13
$EndPAD
$PAD
Sh "93" O 1.5 2 0 0 0
Dr 0.99822 0 -0.25
At STD N 00E0FFFF
Ne 0 ""
Po 7.06 24.13
$EndPAD
$PAD
Sh "95" O 1.5 2 0 0 0
Dr 0.99822 0 -0.25
At STD N 00E0FFFF
Ne 0 ""
Po 9.6 24.13
$EndPAD
$PAD
Sh "97" O 1.5 2 0 0 0
Dr 0.99822 0 -0.25
At STD N 00E0FFFF
Ne 0 ""
Po 12.14 24.13
$EndPAD
$PAD
Sh "99" R 1.5 2 0 0 0
Dr 1.00076 0 -0.25
At STD N 00E0FFFF
Ne 0 ""
Po 14.68 24.13
$EndPAD
$PAD
Sh "100" O 1.5 2 0 0 0
Dr 1.00076 0 0.25
At STD N 00E0FFFF
Ne 0 ""
Po 14.68 26.67
$EndPAD
$PAD
Sh "98" O 1.5 2 0 0 0
Dr 1.00076 0 0.25
At STD N 00E0FFFF
Ne 0 ""
Po 12.14 26.67
$EndPAD
$PAD
Sh "96" O 1.5 2 0 0 0
Dr 1.00076 0 0.25
At STD N 00E0FFFF
Ne 0 ""
Po 9.6 26.67
$EndPAD
$PAD
Sh "94" O 1.5 2 0 0 0
Dr 1.00076 0 0.25
At STD N 00E0FFFF
Ne 0 ""
Po 7.06 26.67
$EndPAD
$PAD
Sh "92" O 1.5 2 0 0 0
Dr 1.00076 0 0.25
At STD N 00E0FFFF
Ne 0 ""
Po 4.52 26.67
$EndPAD
$PAD
Sh "90" O 1.5 2 0 0 0
Dr 1.00076 0 0.25
At STD N 00E0FFFF
Ne 0 ""
Po 1.98 26.67
$EndPAD
$PAD
Sh "88" O 1.5 2 0 0 0
Dr 1.00076 0 0.25
At STD N 00E0FFFF
Ne 0 ""
Po -0.56 26.67
$EndPAD
$PAD
Sh "86" O 1.5 2 0 0 0
Dr 1.00076 0 0.25
At STD N 00E0FFFF
Ne 0 ""
Po -3.1 26.67
$EndPAD
$PAD
Sh "84" O 1.5 2 0 0 0
Dr 1.00076 0 0.25
At STD N 00E0FFFF
Ne 0 ""
Po -5.64 26.67
$EndPAD
$PAD
Sh "82" O 1.5 2 0 0 0
Dr 1.00076 0 0.25
At STD N 00E0FFFF
Ne 0 ""
Po -8.18 26.67
$EndPAD
$PAD
Sh "80" O 1.5 2 0 0 0
Dr 1.00076 0 0.25
At STD N 00E0FFFF
Ne 0 ""
Po -10.72 26.67
$EndPAD
$PAD
Sh "78" O 1.5 2 0 0 0
Dr 1.00076 0 0.25
At STD N 00E0FFFF
Ne 0 ""
Po -13.26 26.67
$EndPAD
$PAD
Sh "76" O 1.5 2 0 0 0
Dr 1.00076 0 0.25
At STD N 00E0FFFF
Ne 0 ""
Po -15.8 26.67
$EndPAD
$PAD
Sh "74" O 1.5 2 0 0 0
Dr 1.00076 0 0.25
At STD N 00E0FFFF
Ne 0 ""
Po -18.34 26.67
$EndPAD
$PAD
Sh "72" O 1.5 2 0 0 0
Dr 1.00076 0 0.25
At STD N 00E0FFFF
Ne 0 ""
Po -20.88 26.67
$EndPAD
$PAD
Sh "70" O 1.5 2 0 0 0
Dr 1.00076 0 0.25
At STD N 00E0FFFF
Ne 0 ""
Po -23.42 26.67
$EndPAD
$PAD
Sh "68" O 1.5 2 0 0 0
Dr 1.00076 0 0.25
At STD N 00E0FFFF
Ne 0 ""
Po -25.96 26.67
$EndPAD
$PAD
Sh "66" O 1.5 2 0 0 0
Dr 1.00076 0 0.25
At STD N 00E0FFFF
Ne 0 ""
Po -28.5 26.67
$EndPAD
$PAD
Sh "64" O 1.5 2 0 0 0
Dr 1.00076 0 0.25
At STD N 00E0FFFF
Ne 0 ""
Po -31.04 26.67
$EndPAD
$PAD
Sh "62" O 1.5 2 0 0 0
Dr 1.00076 0 0.25
At STD N 00E0FFFF
Ne 0 ""
Po -33.58 26.67
$EndPAD
$PAD
Sh "60" O 1.5 2 0 0 0
Dr 1.00076 0 0.25
At STD N 00E0FFFF
Ne 0 ""
Po -36.12 26.67
$EndPAD
$PAD
Sh "58" O 1.5 2 0 0 0
Dr 1.00076 0 0.25
At STD N 00E0FFFF
Ne 0 ""
Po -38.66 26.67
$EndPAD
$PAD
Sh "56" O 1.5 2 0 0 0
Dr 1.00076 0 0.25
At STD N 00E0FFFF
Ne 0 ""
Po -41.2 26.67
$EndPAD
$PAD
Sh "54" O 1.5 2 0 0 0
Dr 1.00076 0 0.25
At STD N 00E0FFFF
Ne 0 ""
Po -43.74 26.67
$EndPAD
$PAD
Sh "52" O 1.5 2 0 0 0
Dr 1.00076 0 0.25
At STD N 00E0FFFF
Ne 0 ""
Po -46.28 26.67
$EndPAD
$PAD
Sh "50" O 1.5 2 0 0 0
Dr 1.00076 0 0.25
At STD N 00E0FFFF
Ne 0 ""
Po -46.28 -24.13
$EndPAD
$PAD
Sh "48" O 1.5 2 0 0 0
Dr 1.00076 0 0.25
At STD N 00E0FFFF
Ne 0 ""
Po -43.74 -24.13
$EndPAD
$PAD
Sh "46" O 1.5 2 0 0 0
Dr 1.00076 0 0.25
At STD N 00E0FFFF
Ne 0 ""
Po -41.2 -24.13
$EndPAD
$PAD
Sh "44" O 1.5 2 0 0 0
Dr 1.00076 0 0.25
At STD N 00E0FFFF
Ne 0 ""
Po -38.66 -24.13
$EndPAD
$PAD
Sh "42" O 1.5 2 0 0 0
Dr 1.00076 0 0.25
At STD N 00E0FFFF
Ne 0 ""
Po -36.12 -24.13
$EndPAD
$PAD
Sh "40" O 1.5 2 0 0 0
Dr 1.00076 0 0.25
At STD N 00E0FFFF
Ne 0 ""
Po -33.58 -24.13
$EndPAD
$PAD
Sh "38" O 1.5 2 0 0 0
Dr 1.00076 0 0.25
At STD N 00E0FFFF
Ne 0 ""
Po -31.04 -24.13
$EndPAD
$PAD
Sh "36" O 1.5 2 0 0 0
Dr 1.00076 0 0.25
At STD N 00E0FFFF
Ne 0 ""
Po -28.5 -24.13
$EndPAD
$PAD
Sh "34" O 1.5 2 0 0 0
Dr 1.00076 0 0.25
At STD N 00E0FFFF
Ne 0 ""
Po -25.96 -24.13
$EndPAD
$PAD
Sh "32" O 1.5 2 0 0 0
Dr 1.00076 0 0.25
At STD N 00E0FFFF
Ne 0 ""
Po -23.42 -24.13
$EndPAD
$PAD
Sh "30" O 1.5 2 0 0 0
Dr 1.00076 0 0.25
At STD N 00E0FFFF
Ne 0 ""
Po -20.88 -24.13
$EndPAD
$PAD
Sh "28" O 1.5 2 0 0 0
Dr 1.00076 0 0.25
At STD N 00E0FFFF
Ne 0 ""
Po -18.34 -24.13
$EndPAD
$PAD
Sh "26" O 1.5 2 0 0 0
Dr 1.00076 0 0.25
At STD N 00E0FFFF
Ne 0 ""
Po -15.8 -24.13
$EndPAD
$PAD
Sh "24" O 1.5 2 0 0 0
Dr 1.00076 0 0.25
At STD N 00E0FFFF
Ne 0 ""
Po -13.26 -24.13
$EndPAD
$PAD
Sh "22" O 1.5 2 0 0 0
Dr 1.00076 0 0.25
At STD N 00E0FFFF
Ne 0 ""
Po -10.72 -24.13
$EndPAD
$PAD
Sh "20" O 1.5 2 0 0 0
Dr 1.00076 0 0.25
At STD N 00E0FFFF
Ne 0 ""
Po -8.18 -24.13
$EndPAD
$PAD
Sh "18" O 1.5 2 0 0 0
Dr 1.00076 0 0.25
At STD N 00E0FFFF
Ne 0 ""
Po -5.64 -24.13
$EndPAD
$PAD
Sh "16" O 1.5 2 0 0 0
Dr 1.00076 0 0.25
At STD N 00E0FFFF
Ne 0 ""
Po -3.1 -24.13
$EndPAD
$PAD
Sh "14" O 1.5 2 0 0 0
Dr 1.00076 0 0.25
At STD N 00E0FFFF
Ne 0 ""
Po -0.56 -24.13
$EndPAD
$PAD
Sh "12" O 1.5 2 0 0 0
Dr 1.00076 0 0.25
At STD N 00E0FFFF
Ne 0 ""
Po 1.98 -24.13
$EndPAD
$PAD
Sh "10" O 1.5 2 0 0 0
Dr 1.00076 0 0.25
At STD N 00E0FFFF
Ne 0 ""
Po 4.52 -24.13
$EndPAD
$PAD
Sh "8" O 1.5 2 0 0 0
Dr 1.00076 0 0.25
At STD N 00E0FFFF
Ne 0 ""
Po 7.06 -24.13
$EndPAD
$PAD
Sh "6" O 1.5 2 0 0 0
Dr 1.00076 0 0.25
At STD N 00E0FFFF
Ne 0 ""
Po 9.6 -24.13
$EndPAD
$PAD
Sh "4" O 1.5 2 0 0 0
Dr 1.00076 0 0.25
At STD N 00E0FFFF
Ne 0 ""
Po 12.14 -24.13
$EndPAD
$PAD
Sh "2" O 1.5 2 0 0 0
Dr 1.00076 0 0.25
At STD N 00E0FFFF
Ne 0 ""
Po 14.68 -24.13
$EndPAD
$PAD
Sh "1" R 1.5 2 0 0 0
Dr 1.00076 0 -0.25
At STD N 00E0FFFF
Ne 0 ""
Po 14.68 -26.67
$EndPAD
$PAD
Sh "3" O 1.5 2 0 0 0
Dr 0.99822 0 -0.25
At STD N 00E0FFFF
Ne 0 ""
Po 12.14 -26.67
$EndPAD
$PAD
Sh "5" O 1.5 2 0 0 0
Dr 0.99822 0 -0.25
At STD N 00E0FFFF
Ne 0 ""
Po 9.6 -26.67
$EndPAD
$PAD
Sh "7" O 1.5 2 0 0 0
Dr 0.99822 0 -0.25
At STD N 00E0FFFF
Ne 0 ""
Po 7.06 -26.67
$EndPAD
$PAD
Sh "9" O 1.5 2 0 0 0
Dr 0.99822 0 -0.25
At STD N 00E0FFFF
Ne 0 ""
Po 4.52 -26.67
$EndPAD
$PAD
Sh "11" O 1.5 2 0 0 0
Dr 0.99822 0 -0.25
At STD N 00E0FFFF
Ne 0 ""
Po 1.98 -26.67
$EndPAD
$PAD
Sh "13" O 1.5 2 0 0 0
Dr 0.99822 0 -0.25
At STD N 00E0FFFF
Ne 0 ""
Po -0.56 -26.67
$EndPAD
$PAD
Sh "15" O 1.5 2 0 0 0
Dr 0.99822 0 -0.25
At STD N 00E0FFFF
Ne 0 ""
Po -3.1 -26.67
$EndPAD
$PAD
Sh "17" O 1.5 2 0 0 0
Dr 0.99822 0 -0.25
At STD N 00E0FFFF
Ne 0 ""
Po -5.64 -26.67
$EndPAD
$PAD
Sh "19" O 1.5 2 0 0 0
Dr 0.99822 0 -0.25
At STD N 00E0FFFF
Ne 0 ""
Po -8.18 -26.67
$EndPAD
$PAD
Sh "21" O 1.5 2 0 0 0
Dr 0.99822 0 -0.25
At STD N 00E0FFFF
Ne 0 ""
Po -10.72 -26.67
$EndPAD
$PAD
Sh "23" O 1.5 2 0 0 0
Dr 0.99822 0 -0.25
At STD N 00E0FFFF
Ne 0 ""
Po -13.26 -26.67
$EndPAD
$PAD
Sh "25" O 1.5 2 0 0 0
Dr 0.99822 0 -0.25
At STD N 00E0FFFF
Ne 0 ""
Po -15.8 -26.67
$EndPAD
$PAD
Sh "27" O 1.5 2 0 0 0
Dr 0.99822 0 -0.25
At STD N 00E0FFFF
Ne 0 ""
Po -18.34 -26.67
$EndPAD
$PAD
Sh "29" O 1.5 2 0 0 0
Dr 0.99822 0 -0.25
At STD N 00E0FFFF
Ne 0 ""
Po -20.88 -26.67
$EndPAD
$PAD
Sh "31" O 1.5 2 0 0 0
Dr 0.99822 0 -0.25
At STD N 00E0FFFF
Ne 0 ""
Po -23.42 -26.67
$EndPAD
$PAD
Sh "33" O 1.5 2 0 0 0
Dr 0.99822 0 -0.25
At STD N 00E0FFFF
Ne 0 ""
Po -25.96 -26.67
$EndPAD
$PAD
Sh "35" O 1.5 2 0 0 0
Dr 0.99822 0 -0.25
At STD N 00E0FFFF
Ne 0 ""
Po -28.5 -26.67
$EndPAD
$PAD
Sh "37" O 1.5 2 0 0 0
Dr 0.99822 0 -0.25
At STD N 00E0FFFF
Ne 0 ""
Po -31.04 -26.67
$EndPAD
$PAD
Sh "39" O 1.5 2 0 0 0
Dr 0.99822 0 -0.25
At STD N 00E0FFFF
Ne 0 ""
Po -33.58 -26.67
$EndPAD
$PAD
Sh "41" O 1.5 2 0 0 0
Dr 0.99822 0 -0.25
At STD N 00E0FFFF
Ne 0 ""
Po -36.12 -26.67
$EndPAD
$PAD
Sh "43" O 1.5 2 0 0 0
Dr 0.99822 0 -0.25
At STD N 00E0FFFF
Ne 0 ""
Po -38.66 -26.67
$EndPAD
$PAD
Sh "45" O 1.5 2 0 0 0
Dr 0.99822 0 -0.25
At STD N 00E0FFFF
Ne 0 ""
Po -41.2 -26.67
$EndPAD
$PAD
Sh "47" O 1.5 2 0 0 0
Dr 0.99822 0 -0.25
At STD N 00E0FFFF
Ne 0 ""
Po -43.74 -26.67
$EndPAD
$PAD
Sh "49" O 1.5 2 0 0 0
Dr 0.99822 0 -0.25
At STD N 00E0FFFF
Ne 0 ""
Po -46.28 -26.67
$EndPAD
$PAD
Sh "3" O 1.5 2.2 0 0 0
Dr 1.00076 0 0
At STD N 00E0FFFF
Ne 0 ""
Po 42.62 -26.67
$EndPAD
$PAD
Sh "3" R 1.5 2.2 0 0 0
Dr 1.00076 0 0
At STD N 00E0FFFF
Ne 0 ""
Po 45.16 -26.67
$EndPAD
$PAD
Sh "50" O 1.5 2.2 0 0 0
Dr 1.00076 0 0
At STD N 00E0FFFF
Ne 0 ""
Po 18.49 -26.67
$EndPAD
$PAD
Sh "49" R 1.5 2.2 0 0 0
Dr 1.00076 0 0
At STD N 00E0FFFF
Ne 0 ""
Po 21.03 -26.67
$EndPAD
$SHAPE3D
Na "walter/conn_misc/stm32f3_discovery_header.wrl"
Sc 1 1 1
Of 0 0 0
Ro 0 0 0
$EndSHAPE3D
$EndMODULE stm32f3_discovery_header
$MODULE stm32f4_discovery_header
Po 0 0 0 15 5251BA54 00000000 ~~
Li stm32f4_discovery_header
Cd STM32 F4 Discovery Header
Kw STM32F4 Discovery
Sc 0
AR pin_strip_20
Op 0 0 0
T0 0 1.27 1.016 1.016 0 0.2032 N V 21 N "STM32F4_Discovery_Header"
T1 0 -1.27 1.016 0.889 0 0.2032 N I 21 N "Val**"
DS 46.43 25.4 41.35 25.4 0.381 21
DS 46.43 27.94 46.43 25.4 0.381 21
DS 41.35 27.94 46.43 27.94 0.381 21
DS 41.35 25.4 41.35 27.94 0.381 21
DS 41.35 -27.94 41.35 -25.4 0.381 21
DS 41.35 -25.4 46.43 -25.4 0.381 21
DS 46.43 -25.4 46.43 -27.94 0.381 21
DS 46.43 -27.94 41.35 -27.94 0.381 21
DS -47.55 22.86 15.95 22.86 0.381 21
DS 15.95 22.86 15.95 27.94 0.381 21
DS -47.55 22.86 -47.55 27.94 0.381 21
DS -47.55 27.94 15.95 27.94 0.381 21
DS 13.3985 22.86 13.3985 27.94 0.381 21
DS 13.3985 -27.94 13.3985 -22.86 0.381 21
DS -47.55 -22.86 15.95 -22.86 0.381 21
DS 48.5 -33 -48.5 -33 0.381 21
DS -48.5 33 48.5 33 0.381 21
DS 48.5 33 48.5 -33 0.381 21
DS -48.5 33 -48.5 -33 0.381 21
DS -47.55 -27.94 -47.55 -22.86 0.381 21
DS 15.95 -27.94 15.95 -22.86 0.381 21
DS -47.55 -27.94 15.95 -27.94 0.381 21
$PAD
Sh "51" R 1.5 2.2 0 0 0
Dr 1.00076 0 0
At STD N 00E0FFFF
Ne 0 ""
Po 45.16 26.67
$EndPAD
$PAD
Sh "52" O 1.5 2.2 0 0 0
Dr 1.00076 0 0
At STD N 00E0FFFF
Ne 0 ""
Po 42.62 26.67
$EndPAD
$PAD
Sh "51" O 1.5 2 0 0 0
Dr 0.99822 0 -0.25
At STD N 00E0FFFF
Ne 0 ""
Po -46.28 24.13
$EndPAD
$PAD
Sh "53" O 1.5 2 0 0 0
Dr 0.99822 0 -0.25
At STD N 00E0FFFF
Ne 0 ""
Po -43.74 24.13
$EndPAD
$PAD
Sh "55" O 1.5 2 0 0 0
Dr 0.99822 0 -0.25
At STD N 00E0FFFF
Ne 0 ""
Po -41.2 24.13
$EndPAD
$PAD
Sh "57" O 1.5 2 0 0 0
Dr 0.99822 0 -0.25
At STD N 00E0FFFF
Ne 0 ""
Po -38.66 24.13
$EndPAD
$PAD
Sh "59" O 1.5 2 0 0 0
Dr 0.99822 0 -0.25
At STD N 00E0FFFF
Ne 0 ""
Po -36.12 24.13
$EndPAD
$PAD
Sh "61" O 1.5 2 0 0 0
Dr 0.99822 0 -0.25
At STD N 00E0FFFF
Ne 0 ""
Po -33.58 24.13
$EndPAD
$PAD
Sh "63" O 1.5 2 0 0 0
Dr 0.99822 0 -0.25
At STD N 00E0FFFF
Ne 0 ""
Po -31.04 24.13
$EndPAD
$PAD
Sh "65" O 1.5 2 0 0 0
Dr 0.99822 0 -0.25
At STD N 00E0FFFF
Ne 0 ""
Po -28.5 24.13
$EndPAD
$PAD
Sh "67" O 1.5 2 0 0 0
Dr 0.99822 0 -0.25
At STD N 00E0FFFF
Ne 0 ""
Po -25.96 24.13
$EndPAD
$PAD
Sh "69" O 1.5 2 0 0 0
Dr 0.99822 0 -0.25
At STD N 00E0FFFF
Ne 0 ""
Po -23.42 24.13
$EndPAD
$PAD
Sh "71" O 1.5 2 0 0 0
Dr 0.99822 0 -0.25
At STD N 00E0FFFF
Ne 0 ""
Po -20.88 24.13
$EndPAD
$PAD
Sh "73" O 1.5 2 0 0 0
Dr 0.99822 0 -0.25
At STD N 00E0FFFF
Ne 0 ""
Po -18.34 24.13
$EndPAD
$PAD
Sh "75" O 1.5 2 0 0 0
Dr 0.99822 0 -0.25
At STD N 00E0FFFF
Ne 0 ""
Po -15.8 24.13
$EndPAD
$PAD
Sh "77" O 1.5 2 0 0 0
Dr 0.99822 0 -0.25
At STD N 00E0FFFF
Ne 0 ""
Po -13.26 24.13
$EndPAD
$PAD
Sh "79" O 1.5 2 0 0 0
Dr 0.99822 0 -0.25
At STD N 00E0FFFF
Ne 0 ""
Po -10.72 24.13
$EndPAD
$PAD
Sh "81" O 1.5 2 0 0 0
Dr 0.99822 0 -0.25
At STD N 00E0FFFF
Ne 0 ""
Po -8.18 24.13
$EndPAD
$PAD
Sh "83" O 1.5 2 0 0 0
Dr 0.99822 0 -0.25
At STD N 00E0FFFF
Ne 0 ""
Po -5.64 24.13
$EndPAD
$PAD
Sh "85" O 1.5 2 0 0 0
Dr 0.99822 0 -0.25
At STD N 00E0FFFF
Ne 0 ""
Po -3.1 24.13
$EndPAD
$PAD
Sh "87" O 1.5 2 0 0 0
Dr 0.99822 0 -0.25
At STD N 00E0FFFF
Ne 0 ""
Po -0.56 24.13
$EndPAD
$PAD
Sh "89" O 1.5 2 0 0 0
Dr 0.99822 0 -0.25
At STD N 00E0FFFF
Ne 0 ""
Po 1.98 24.13
$EndPAD
$PAD
Sh "91" O 1.5 2 0 0 0
Dr 0.99822 0 -0.25
At STD N 00E0FFFF
Ne 0 ""
Po 4.52 24.13
$EndPAD
$PAD
Sh "93" O 1.5 2 0 0 0
Dr 0.99822 0 -0.25
At STD N 00E0FFFF
Ne 0 ""
Po 7.06 24.13
$EndPAD
$PAD
Sh "95" O 1.5 2 0 0 0
Dr 0.99822 0 -0.25
At STD N 00E0FFFF
Ne 0 ""
Po 9.6 24.13
$EndPAD
$PAD
Sh "97" O 1.5 2 0 0 0
Dr 0.99822 0 -0.25
At STD N 00E0FFFF
Ne 0 ""
Po 12.14 24.13
$EndPAD
$PAD
Sh "99" R 1.5 2 0 0 0
Dr 1.00076 0 -0.25
At STD N 00E0FFFF
Ne 0 ""
Po 14.68 24.13
$EndPAD
$PAD
Sh "100" O 1.5 2 0 0 0
Dr 1.00076 0 0.25
At STD N 00E0FFFF
Ne 0 ""
Po 14.68 26.67
$EndPAD
$PAD
Sh "98" O 1.5 2 0 0 0
Dr 1.00076 0 0.25
At STD N 00E0FFFF
Ne 0 ""
Po 12.14 26.67
$EndPAD
$PAD
Sh "96" O 1.5 2 0 0 0
Dr 1.00076 0 0.25
At STD N 00E0FFFF
Ne 0 ""
Po 9.6 26.67
$EndPAD
$PAD
Sh "94" O 1.5 2 0 0 0
Dr 1.00076 0 0.25
At STD N 00E0FFFF
Ne 0 ""
Po 7.06 26.67
$EndPAD
$PAD
Sh "92" O 1.5 2 0 0 0
Dr 1.00076 0 0.25
At STD N 00E0FFFF
Ne 0 ""
Po 4.52 26.67
$EndPAD
$PAD
Sh "90" O 1.5 2 0 0 0
Dr 1.00076 0 0.25
At STD N 00E0FFFF
Ne 0 ""
Po 1.98 26.67
$EndPAD
$PAD
Sh "88" O 1.5 2 0 0 0
Dr 1.00076 0 0.25
At STD N 00E0FFFF
Ne 0 ""
Po -0.56 26.67
$EndPAD
$PAD
Sh "86" O 1.5 2 0 0 0
Dr 1.00076 0 0.25
At STD N 00E0FFFF
Ne 0 ""
Po -3.1 26.67
$EndPAD
$PAD
Sh "84" O 1.5 2 0 0 0
Dr 1.00076 0 0.25
At STD N 00E0FFFF
Ne 0 ""
Po -5.64 26.67
$EndPAD
$PAD
Sh "82" O 1.5 2 0 0 0
Dr 1.00076 0 0.25
At STD N 00E0FFFF
Ne 0 ""
Po -8.18 26.67
$EndPAD
$PAD
Sh "80" O 1.5 2 0 0 0
Dr 1.00076 0 0.25
At STD N 00E0FFFF
Ne 0 ""
Po -10.72 26.67
$EndPAD
$PAD
Sh "78" O 1.5 2 0 0 0
Dr 1.00076 0 0.25
At STD N 00E0FFFF
Ne 0 ""
Po -13.26 26.67
$EndPAD
$PAD
Sh "76" O 1.5 2 0 0 0
Dr 1.00076 0 0.25
At STD N 00E0FFFF
Ne 0 ""
Po -15.8 26.67
$EndPAD
$PAD
Sh "74" O 1.5 2 0 0 0
Dr 1.00076 0 0.25
At STD N 00E0FFFF
Ne 0 ""
Po -18.34 26.67
$EndPAD
$PAD
Sh "72" O 1.5 2 0 0 0
Dr 1.00076 0 0.25
At STD N 00E0FFFF
Ne 0 ""
Po -20.88 26.67
$EndPAD
$PAD
Sh "70" O 1.5 2 0 0 0
Dr 1.00076 0 0.25
At STD N 00E0FFFF
Ne 0 ""
Po -23.42 26.67
$EndPAD
$PAD
Sh "68" O 1.5 2 0 0 0
Dr 1.00076 0 0.25
At STD N 00E0FFFF
Ne 0 ""
Po -25.96 26.67
$EndPAD
$PAD
Sh "66" O 1.5 2 0 0 0
Dr 1.00076 0 0.25
At STD N 00E0FFFF
Ne 0 ""
Po -28.5 26.67
$EndPAD
$PAD
Sh "64" O 1.5 2 0 0 0
Dr 1.00076 0 0.25
At STD N 00E0FFFF
Ne 0 ""
Po -31.04 26.67
$EndPAD
$PAD
Sh "62" O 1.5 2 0 0 0
Dr 1.00076 0 0.25
At STD N 00E0FFFF
Ne 0 ""
Po -33.58 26.67
$EndPAD
$PAD
Sh "60" O 1.5 2 0 0 0
Dr 1.00076 0 0.25
At STD N 00E0FFFF
Ne 0 ""
Po -36.12 26.67
$EndPAD
$PAD
Sh "58" O 1.5 2 0 0 0
Dr 1.00076 0 0.25
At STD N 00E0FFFF
Ne 0 ""
Po -38.66 26.67
$EndPAD
$PAD
Sh "56" O 1.5 2 0 0 0
Dr 1.00076 0 0.25
At STD N 00E0FFFF
Ne 0 ""
Po -41.2 26.67
$EndPAD
$PAD
Sh "54" O 1.5 2 0 0 0
Dr 1.00076 0 0.25
At STD N 00E0FFFF
Ne 0 ""
Po -43.74 26.67
$EndPAD
$PAD
Sh "52" O 1.5 2 0 0 0
Dr 1.00076 0 0.25
At STD N 00E0FFFF
Ne 0 ""
Po -46.28 26.67
$EndPAD
$PAD
Sh "50" O 1.5 2 0 0 0
Dr 1.00076 0 0.25
At STD N 00E0FFFF
Ne 0 ""
Po -46.28 -24.13
$EndPAD
$PAD
Sh "48" O 1.5 2 0 0 0
Dr 1.00076 0 0.25
At STD N 00E0FFFF
Ne 0 ""
Po -43.74 -24.13
$EndPAD
$PAD
Sh "46" O 1.5 2 0 0 0
Dr 1.00076 0 0.25
At STD N 00E0FFFF
Ne 0 ""
Po -41.2 -24.13
$EndPAD
$PAD
Sh "44" O 1.5 2 0 0 0
Dr 1.00076 0 0.25
At STD N 00E0FFFF
Ne 0 ""
Po -38.66 -24.13
$EndPAD
$PAD
Sh "42" O 1.5 2 0 0 0
Dr 1.00076 0 0.25
At STD N 00E0FFFF
Ne 0 ""
Po -36.12 -24.13
$EndPAD
$PAD
Sh "40" O 1.5 2 0 0 0
Dr 1.00076 0 0.25
At STD N 00E0FFFF
Ne 0 ""
Po -33.58 -24.13
$EndPAD
$PAD
Sh "38" O 1.5 2 0 0 0
Dr 1.00076 0 0.25
At STD N 00E0FFFF
Ne 0 ""
Po -31.04 -24.13
$EndPAD
$PAD
Sh "36" O 1.5 2 0 0 0
Dr 1.00076 0 0.25
At STD N 00E0FFFF
Ne 0 ""
Po -28.5 -24.13
$EndPAD
$PAD
Sh "34" O 1.5 2 0 0 0
Dr 1.00076 0 0.25
At STD N 00E0FFFF
Ne 0 ""
Po -25.96 -24.13
$EndPAD
$PAD
Sh "32" O 1.5 2 0 0 0
Dr 1.00076 0 0.25
At STD N 00E0FFFF
Ne 0 ""
Po -23.42 -24.13
$EndPAD
$PAD
Sh "30" O 1.5 2 0 0 0
Dr 1.00076 0 0.25
At STD N 00E0FFFF
Ne 0 ""
Po -20.88 -24.13
$EndPAD
$PAD
Sh "28" O 1.5 2 0 0 0
Dr 1.00076 0 0.25
At STD N 00E0FFFF
Ne 0 ""
Po -18.34 -24.13
$EndPAD
$PAD
Sh "26" O 1.5 2 0 0 0
Dr 1.00076 0 0.25
At STD N 00E0FFFF
Ne 0 ""
Po -15.8 -24.13
$EndPAD
$PAD
Sh "24" O 1.5 2 0 0 0
Dr 1.00076 0 0.25
At STD N 00E0FFFF
Ne 0 ""
Po -13.26 -24.13
$EndPAD
$PAD
Sh "22" O 1.5 2 0 0 0
Dr 1.00076 0 0.25
At STD N 00E0FFFF
Ne 0 ""
Po -10.72 -24.13
$EndPAD
$PAD
Sh "20" O 1.5 2 0 0 0
Dr 1.00076 0 0.25
At STD N 00E0FFFF
Ne 0 ""
Po -8.18 -24.13
$EndPAD
$PAD
Sh "18" O 1.5 2 0 0 0
Dr 1.00076 0 0.25
At STD N 00E0FFFF
Ne 0 ""
Po -5.64 -24.13
$EndPAD
$PAD
Sh "16" O 1.5 2 0 0 0
Dr 1.00076 0 0.25
At STD N 00E0FFFF
Ne 0 ""
Po -3.1 -24.13
$EndPAD
$PAD
Sh "14" O 1.5 2 0 0 0
Dr 1.00076 0 0.25
At STD N 00E0FFFF
Ne 0 ""
Po -0.56 -24.13
$EndPAD
$PAD
Sh "12" O 1.5 2 0 0 0
Dr 1.00076 0 0.25
At STD N 00E0FFFF
Ne 0 ""
Po 1.98 -24.13
$EndPAD
$PAD
Sh "10" O 1.5 2 0 0 0
Dr 1.00076 0 0.25
At STD N 00E0FFFF
Ne 0 ""
Po 4.52 -24.13
$EndPAD
$PAD
Sh "8" O 1.5 2 0 0 0
Dr 1.00076 0 0.25
At STD N 00E0FFFF
Ne 0 ""
Po 7.06 -24.13
$EndPAD
$PAD
Sh "6" O 1.5 2 0 0 0
Dr 1.00076 0 0.25
At STD N 00E0FFFF
Ne 0 ""
Po 9.6 -24.13
$EndPAD
$PAD
Sh "4" O 1.5 2 0 0 0
Dr 1.00076 0 0.25
At STD N 00E0FFFF
Ne 0 ""
Po 12.14 -24.13
$EndPAD
$PAD
Sh "2" O 1.5 2 0 0 0
Dr 1.00076 0 0.25
At STD N 00E0FFFF
Ne 0 ""
Po 14.68 -24.13
$EndPAD
$PAD
Sh "1" R 1.5 2 0 0 0
Dr 1.00076 0 -0.25
At STD N 00E0FFFF
Ne 0 ""
Po 14.68 -26.67
$EndPAD
$PAD
Sh "3" O 1.5 2 0 0 0
Dr 0.99822 0 -0.25
At STD N 00E0FFFF
Ne 0 ""
Po 12.14 -26.67
$EndPAD
$PAD
Sh "5" O 1.5 2 0 0 0
Dr 0.99822 0 -0.25
At STD N 00E0FFFF
Ne 0 ""
Po 9.6 -26.67
$EndPAD
$PAD
Sh "7" O 1.5 2 0 0 0
Dr 0.99822 0 -0.25
At STD N 00E0FFFF
Ne 0 ""
Po 7.06 -26.67
$EndPAD
$PAD
Sh "9" O 1.5 2 0 0 0
Dr 0.99822 0 -0.25
At STD N 00E0FFFF
Ne 0 ""
Po 4.52 -26.67
$EndPAD
$PAD
Sh "11" O 1.5 2 0 0 0
Dr 0.99822 0 -0.25
At STD N 00E0FFFF
Ne 0 ""
Po 1.98 -26.67
$EndPAD
$PAD
Sh "13" O 1.5 2 0 0 0
Dr 0.99822 0 -0.25
At STD N 00E0FFFF
Ne 0 ""
Po -0.56 -26.67
$EndPAD
$PAD
Sh "15" O 1.5 2 0 0 0
Dr 0.99822 0 -0.25
At STD N 00E0FFFF
Ne 0 ""
Po -3.1 -26.67
$EndPAD
$PAD
Sh "17" O 1.5 2 0 0 0
Dr 0.99822 0 -0.25
At STD N 00E0FFFF
Ne 0 ""
Po -5.64 -26.67
$EndPAD
$PAD
Sh "19" O 1.5 2 0 0 0
Dr 0.99822 0 -0.25
At STD N 00E0FFFF
Ne 0 ""
Po -8.18 -26.67
$EndPAD
$PAD
Sh "21" O 1.5 2 0 0 0
Dr 0.99822 0 -0.25
At STD N 00E0FFFF
Ne 0 ""
Po -10.72 -26.67
$EndPAD
$PAD
Sh "23" O 1.5 2 0 0 0
Dr 0.99822 0 -0.25
At STD N 00E0FFFF
Ne 0 ""
Po -13.26 -26.67
$EndPAD
$PAD
Sh "25" O 1.5 2 0 0 0
Dr 0.99822 0 -0.25
At STD N 00E0FFFF
Ne 0 ""
Po -15.8 -26.67
$EndPAD
$PAD
Sh "27" O 1.5 2 0 0 0
Dr 0.99822 0 -0.25
At STD N 00E0FFFF
Ne 0 ""
Po -18.34 -26.67
$EndPAD
$PAD
Sh "29" O 1.5 2 0 0 0
Dr 0.99822 0 -0.25
At STD N 00E0FFFF
Ne 0 ""
Po -20.88 -26.67
$EndPAD
$PAD
Sh "31" O 1.5 2 0 0 0
Dr 0.99822 0 -0.25
At STD N 00E0FFFF
Ne 0 ""
Po -23.42 -26.67
$EndPAD
$PAD
Sh "33" O 1.5 2 0 0 0
Dr 0.99822 0 -0.25
At STD N 00E0FFFF
Ne 0 ""
Po -25.96 -26.67
$EndPAD
$PAD
Sh "35" O 1.5 2 0 0 0
Dr 0.99822 0 -0.25
At STD N 00E0FFFF
Ne 0 ""
Po -28.5 -26.67
$EndPAD
$PAD
Sh "37" O 1.5 2 0 0 0
Dr 0.99822 0 -0.25
At STD N 00E0FFFF
Ne 0 ""
Po -31.04 -26.67
$EndPAD
$PAD
Sh "39" O 1.5 2 0 0 0
Dr 0.99822 0 -0.25
At STD N 00E0FFFF
Ne 0 ""
Po -33.58 -26.67
$EndPAD
$PAD
Sh "41" O 1.5 2 0 0 0
Dr 0.99822 0 -0.25
At STD N 00E0FFFF
Ne 0 ""
Po -36.12 -26.67
$EndPAD
$PAD
Sh "43" O 1.5 2 0 0 0
Dr 0.99822 0 -0.25
At STD N 00E0FFFF
Ne 0 ""
Po -38.66 -26.67
$EndPAD
$PAD
Sh "45" O 1.5 2 0 0 0
Dr 0.99822 0 -0.25
At STD N 00E0FFFF
Ne 0 ""
Po -41.2 -26.67
$EndPAD
$PAD
Sh "47" O 1.5 2 0 0 0
Dr 0.99822 0 -0.25
At STD N 00E0FFFF
Ne 0 ""
Po -43.74 -26.67
$EndPAD
$PAD
Sh "49" O 1.5 2 0 0 0
Dr 0.99822 0 -0.25
At STD N 00E0FFFF
Ne 0 ""
Po -46.28 -26.67
$EndPAD
$PAD
Sh "50" O 1.5 2.2 0 0 0
Dr 1.00076 0 0
At STD N 00E0FFFF
Ne 0 ""
Po 42.62 -26.67
$EndPAD
$PAD
Sh "49" R 1.5 2.2 0 0 0
Dr 1.00076 0 0
At STD N 00E0FFFF
Ne 0 ""
Po 45.16 -26.67
$EndPAD
$SHAPE3D
Na "walter/conn_misc/stm32f4_discovery_header.wrl"
Sc 1 1 1
Of 0 0 0
Ro 0 0 0
$EndSHAPE3D
$EndMODULE stm32f4_discovery_header
$MODULE stm32vl_discovery_header
Po 0 0 0 15 5251AC9B 00000000 ~~
Li stm32vl_discovery_header
Cd STM32 Value Line Discovery Header
Kw STM32VL Discovery
Sc 0
AR pin_strip_20
Op 0 0 0
T0 0 1.27 1.016 1.016 0 0.2032 N V 21 N "STM32VL_Discovery_Header"
T1 0 -1.27 1.016 0.889 0 0.2032 N I 21 N "Val**"
DS 42.3 -21.6 -42.3 -21.6 0.381 21
DS -42.3 21.6 42.3 21.6 0.381 21
DS 42.3 21.6 42.3 -21.6 0.381 21
DS -42.3 21.6 -42.3 -21.6 0.381 21
DS -32.14 -16.51 -32.14 -13.97 0.381 21
DS -32.14 -13.97 38.98 -13.97 0.381 21
DS 38.98 -16.51 38.98 -13.97 0.381 21
DS -32.14 -16.51 38.98 -16.51 0.381 21
DS -37.12 -7.62 -37.12 7.62 0.381 21
DS -37.12 7.62 -34.58 7.62 0.381 21
DS -34.58 -7.62 -34.58 7.62 0.381 21
DS -37.12 -7.62 -34.58 -7.62 0.381 21
DS -32.14 13.97 38.98 13.97 0.381 21
DS -32.14 16.51 38.98 16.51 0.381 21
DS 38.98 16.51 38.98 13.97 0.381 21
DS -32.14 16.51 -32.14 13.97 0.381 21
$PAD
Sh "35" R 1.5 2.2 0 0 0
Dr 0.99822 0 0
At STD N 00E0FFFF
Ne 0 ""
Po -30.87 15.24
$EndPAD
$PAD
Sh "36" O 1.5 2.2 0 0 0
Dr 0.99822 0 0
At STD N 00E0FFFF
Ne 0 ""
Po -28.33 15.24
$EndPAD
$PAD
Sh "37" O 1.5 2.2 0 0 0
Dr 0.99822 0 0
At STD N 00E0FFFF
Ne 0 ""
Po -25.79 15.24
$EndPAD
$PAD
Sh "38" O 1.5 2.2 0 0 0
Dr 0.99822 0 0
At STD N 00E0FFFF
Ne 0 ""
Po -23.25 15.24
$EndPAD
$PAD
Sh "39" O 1.5 2.2 0 0 0
Dr 0.99822 0 0
At STD N 00E0FFFF
Ne 0 ""
Po -20.71 15.24
$EndPAD
$PAD
Sh "40" O 1.5 2.2 0 0 0
Dr 0.99822 0 0
At STD N 00E0FFFF
Ne 0 ""
Po -18.17 15.24
$EndPAD
$PAD
Sh "41" O 1.5 2.2 0 0 0
Dr 0.99822 0 0
At STD N 00E0FFFF
Ne 0 ""
Po -15.63 15.24
$EndPAD
$PAD
Sh "42" O 1.5 2.2 0 0 0
Dr 0.99822 0 0
At STD N 00E0FFFF
Ne 0 ""
Po -13.09 15.24
$EndPAD
$PAD
Sh "43" O 1.5 2.2 0 0 0
Dr 0.99822 0 0
At STD N 00E0FFFF
Ne 0 ""
Po -10.55 15.24
$EndPAD
$PAD
Sh "44" O 1.5 2.2 0 0 0
Dr 0.99822 0 0
At STD N 00E0FFFF
Ne 0 ""
Po -8.01 15.24
$EndPAD
$PAD
Sh "45" O 1.5 2.2 0 0 0
Dr 0.99822 0 0
At STD N 00E0FFFF
Ne 0 ""
Po -5.47 15.24
$EndPAD
$PAD
Sh "46" O 1.5 2.2 0 0 0
Dr 0.99822 0 0
At STD N 00E0FFFF
Ne 0 ""
Po -2.93 15.24
$EndPAD
$PAD
Sh "47" O 1.5 2.2 0 0 0
Dr 0.99822 0 0
At STD N 00E0FFFF
Ne 0 ""
Po -0.39 15.24
$EndPAD
$PAD
Sh "48" O 1.5 2.2 0 0 0
Dr 0.99822 0 0
At STD N 00E0FFFF
Ne 0 ""
Po 2.15 15.24
$EndPAD
$PAD
Sh "49" O 1.5 2.2 0 0 0
Dr 0.99822 0 0
At STD N 00E0FFFF
Ne 0 ""
Po 4.69 15.24
$EndPAD
$PAD
Sh "50" O 1.5 2.2 0 0 0
Dr 0.99822 0 0
At STD N 00E0FFFF
Ne 0 ""
Po 7.23 15.24
$EndPAD
$PAD
Sh "51" O 1.5 2.2 0 0 0
Dr 0.99822 0 0
At STD N 00E0FFFF
Ne 0 ""
Po 9.77 15.24
$EndPAD
$PAD
Sh "52" O 1.5 2.2 0 0 0
Dr 0.99822 0 0
At STD N 00E0FFFF
Ne 0 ""
Po 12.31 15.24
$EndPAD
$PAD
Sh "53" O 1.5 2.2 0 0 0
Dr 0.99822 0 0
At STD N 00E0FFFF
Ne 0 ""
Po 14.85 15.24
$EndPAD
$PAD
Sh "54" O 1.5 2.2 0 0 0
Dr 0.99822 0 0
At STD N 00E0FFFF
Ne 0 ""
Po 17.39 15.24
$EndPAD
$PAD
Sh "55" O 1.5 2.2 0 0 0
Dr 0.99822 0 0
At STD N 00E0FFFF
Ne 0 ""
Po 19.93 15.24
$EndPAD
$PAD
Sh "56" O 1.5 2.2 0 0 0
Dr 0.99822 0 0
At STD N 00E0FFFF
Ne 0 ""
Po 22.47 15.24
$EndPAD
$PAD
Sh "57" O 1.5 2.2 0 0 0
Dr 0.99822 0 0
At STD N 00E0FFFF
Ne 0 ""
Po 25.01 15.24
$EndPAD
$PAD
Sh "58" O 1.5 2.2 0 0 0
Dr 0.99822 0 0
At STD N 00E0FFFF
Ne 0 ""
Po 27.55 15.24
$EndPAD
$PAD
Sh "59" O 1.5 2.2 0 0 0
Dr 0.99822 0 0
At STD N 00E0FFFF
Ne 0 ""
Po 30.09 15.24
$EndPAD
$PAD
Sh "60" O 1.5 2.2 0 0 0
Dr 0.99822 0 0
At STD N 00E0FFFF
Ne 0 ""
Po 32.63 15.24
$EndPAD
$PAD
Sh "61" O 1.5 2.2 0 0 0
Dr 0.99822 0 0
At STD N 00E0FFFF
Ne 0 ""
Po 35.17 15.24
$EndPAD
$PAD
Sh "62" O 1.5 2.2 0 0 0
Dr 1.00076 0 0
At STD N 00E0FFFF
Ne 0 ""
Po 37.71 15.24
$EndPAD
$PAD
Sh "1" R 1.5 2.2 0 0 0
Dr 1.00076 0 0
At STD N 00E0FFFF
Ne 0 ""
Po 37.71 -15.24
$EndPAD
$PAD
Sh "2" O 1.5 2.2 0 0 0
Dr 0.99822 0 0
At STD N 00E0FFFF
Ne 0 ""
Po 35.17 -15.24
$EndPAD
$PAD
Sh "3" O 1.5 2.2 0 0 0
Dr 0.99822 0 0
At STD N 00E0FFFF
Ne 0 ""
Po 32.63 -15.24
$EndPAD
$PAD
Sh "4" O 1.5 2.2 0 0 0
Dr 0.99822 0 0
At STD N 00E0FFFF
Ne 0 ""
Po 30.09 -15.24
$EndPAD
$PAD
Sh "5" O 1.5 2.2 0 0 0
Dr 0.99822 0 0
At STD N 00E0FFFF
Ne 0 ""
Po 27.55 -15.24
$EndPAD
$PAD
Sh "6" O 1.5 2.2 0 0 0
Dr 0.99822 0 0
At STD N 00E0FFFF
Ne 0 ""
Po 25.01 -15.24
$EndPAD
$PAD
Sh "7" O 1.5 2.2 0 0 0
Dr 0.99822 0 0
At STD N 00E0FFFF
Ne 0 ""
Po 22.47 -15.24
$EndPAD
$PAD
Sh "8" O 1.5 2.2 0 0 0
Dr 0.99822 0 0
At STD N 00E0FFFF
Ne 0 ""
Po 19.93 -15.24
$EndPAD
$PAD
Sh "9" O 1.5 2.2 0 0 0
Dr 0.99822 0 0
At STD N 00E0FFFF
Ne 0 ""
Po 17.39 -15.24
$EndPAD
$PAD
Sh "10" O 1.5 2.2 0 0 0
Dr 0.99822 0 0
At STD N 00E0FFFF
Ne 0 ""
Po 14.85 -15.24
$EndPAD
$PAD
Sh "11" O 1.5 2.2 0 0 0
Dr 0.99822 0 0
At STD N 00E0FFFF
Ne 0 ""
Po 12.31 -15.24
$EndPAD
$PAD
Sh "12" O 1.5 2.2 0 0 0
Dr 0.99822 0 0
At STD N 00E0FFFF
Ne 0 ""
Po 9.77 -15.24
$EndPAD
$PAD
Sh "13" O 1.5 2.2 0 0 0
Dr 0.99822 0 0
At STD N 00E0FFFF
Ne 0 ""
Po 7.23 -15.24
$EndPAD
$PAD
Sh "14" O 1.5 2.2 0 0 0
Dr 0.99822 0 0
At STD N 00E0FFFF
Ne 0 ""
Po 4.69 -15.24
$EndPAD
$PAD
Sh "15" O 1.5 2.2 0 0 0
Dr 0.99822 0 0
At STD N 00E0FFFF
Ne 0 ""
Po 2.15 -15.24
$EndPAD
$PAD
Sh "16" O 1.5 2.2 0 0 0
Dr 0.99822 0 0
At STD N 00E0FFFF
Ne 0 ""
Po -0.39 -15.24
$EndPAD
$PAD
Sh "17" O 1.5 2.2 0 0 0
Dr 0.99822 0 0
At STD N 00E0FFFF
Ne 0 ""
Po -2.93 -15.24
$EndPAD
$PAD
Sh "18" O 1.5 2.2 0 0 0
Dr 0.99822 0 0
At STD N 00E0FFFF
Ne 0 ""
Po -5.47 -15.24
$EndPAD
$PAD
Sh "19" O 1.5 2.2 0 0 0
Dr 0.99822 0 0
At STD N 00E0FFFF
Ne 0 ""
Po -8.01 -15.24
$EndPAD
$PAD
Sh "20" O 1.5 2.2 0 0 0
Dr 0.99822 0 0
At STD N 00E0FFFF
Ne 0 ""
Po -10.55 -15.24
$EndPAD
$PAD
Sh "21" O 1.5 2.2 0 0 0
Dr 0.99822 0 0
At STD N 00E0FFFF
Ne 0 ""
Po -13.09 -15.24
$EndPAD
$PAD
Sh "22" O 1.5 2.2 0 0 0
Dr 0.99822 0 0
At STD N 00E0FFFF
Ne 0 ""
Po -15.63 -15.24
$EndPAD
$PAD
Sh "23" O 1.5 2.2 0 0 0
Dr 0.99822 0 0
At STD N 00E0FFFF
Ne 0 ""
Po -18.17 -15.24
$EndPAD
$PAD
Sh "24" O 1.5 2.2 0 0 0
Dr 0.99822 0 0
At STD N 00E0FFFF
Ne 0 ""
Po -20.71 -15.24
$EndPAD
$PAD
Sh "25" O 1.5 2.2 0 0 0
Dr 0.99822 0 0
At STD N 00E0FFFF
Ne 0 ""
Po -23.25 -15.24
$EndPAD
$PAD
Sh "26" O 1.5 2.2 0 0 0
Dr 0.99822 0 0
At STD N 00E0FFFF
Ne 0 ""
Po -25.79 -15.24
$EndPAD
$PAD
Sh "27" O 1.5 2.2 0 0 0
Dr 0.99822 0 0
At STD N 00E0FFFF
Ne 0 ""
Po -28.33 -15.24
$EndPAD
$PAD
Sh "28" O 1.5 2.2 0 0 0
Dr 0.99822 0 0
At STD N 00E0FFFF
Ne 0 ""
Po -30.87 -15.24
$EndPAD
$PAD
Sh "29" R 2.2 1.5 0 0 0
Dr 0.99822 0 0
At STD N 00E0FFFF
Ne 0 ""
Po -35.85 -6.35
$EndPAD
$PAD
Sh "30" O 2.2 1.5 0 0 0
Dr 0.99822 0 0
At STD N 00E0FFFF
Ne 0 ""
Po -35.85 -3.81
$EndPAD
$PAD
Sh "31" O 2.2 1.5 0 0 0
Dr 0.99822 0 0
At STD N 00E0FFFF
Ne 0 ""
Po -35.85 -1.27
$EndPAD
$PAD
Sh "32" O 2.2 1.5 0 0 0
Dr 0.99822 0 0
At STD N 00E0FFFF
Ne 0 ""
Po -35.85 1.27
$EndPAD
$PAD
Sh "33" O 2.2 1.5 0 0 0
Dr 0.99822 0 0
At STD N 00E0FFFF
Ne 0 ""
Po -35.85 3.81
$EndPAD
$PAD
Sh "34" O 2.2 1.5 0 0 0
Dr 0.99822 0 0
At STD N 00E0FFFF
Ne 0 ""
Po -35.85 6.35
$EndPAD
$SHAPE3D
Na "walter/conn_misc/stm32vl_discovery_header.wrl"
Sc 1 1 1
Of 0 0 0
Ro 0 0 0
$EndSHAPE3D
$EndMODULE stm32vl_discovery_header
$EndLIBRARY
